gpCode	isoCode
ALG	DZ
AND	AD
ARG	AR
AUS	AU
AUT	AT
BEL	BE
BRA	BR
BUL	BG
CAN	CA
CHN	CN
COL	CO
CRO	HR
CUB	CU
CZE	CZ
DAN	DK
DEN	DK
ESP	ES
FIN	FI
FRA	FR
GBR	GB
GER	DE
GIB	GI
GUA	GT
HUN	HU
INA	ID
IND	IN
IRL	IE
ITA	IT
JPN	JP
JUG	HR
LUX	LU
MAL	MY
MEX	MX
MON	MC
NED	NL
NOR	NO
NZE	NZ
POL	PL
POR	PT
QAT	QA
RHO	ZW
ROU	RO
RSA	ZA
RSM	SM
RUS	RU
SLO	SI
SPA	ES
SVK	SK
SWE	SE
SWI	CH
TCH	CZ
THA	TH
TUR	TR
UKR	UA
URU	UY
USA	US
VEN	VE
YUG	HR
ZIM	ZW
?	?
