year	sequence	category	status	weather	track	air	humidity	ground
1949	1	250cc	OK
1949	1	350cc	OK
1949	1	500cc	OK
1949	2	125cc	OK
1949	2	250cc	OK
1949	2	350cc	OK
1949	2	500cc	OK
1949	3	125cc	OK
1949	3	350cc	OK
1949	3	500cc	OK
1949	4	350cc	OK
1949	4	500cc	OK
1949	5	250cc	OK
1949	5	350cc	OK
1949	5	500cc	OK
1949	6	125cc	OK
1949	6	250cc	OK
1949	6	500cc	OK
1950	1	250cc	OK
1950	1	350cc	OK
1950	1	500cc	OK
1950	2	350cc	OK
1950	2	500cc	OK
1950	3	125cc	OK
1950	3	350cc	OK
1950	3	500cc	OK
1950	4	250cc	OK
1950	4	350cc	OK
1950	4	500cc	OK
1950	5	125cc	OK
1950	5	250cc	OK
1950	5	350cc	OK
1950	5	500cc	OK
1950	6	125cc	OK
1950	6	250cc	OK
1950	6	350cc	OK
1950	6	500cc	OK
1951	1	125cc	OK
1951	1	350cc	OK
1951	1	500cc	OK
1951	2	250cc	OK
1951	2	350cc	OK
1951	2	500cc	OK
1951	3	125cc	OK
1951	3	350cc	OK
1951	3	500cc	OK
1951	4	350cc	OK
1951	4	500cc	ERROR
1951	5	125cc	OK
1951	5	350cc	OK
1951	5	500cc	OK
1951	6	250cc	OK
1951	6	350cc	OK
1951	6	500cc	OK
1951	7	350cc	OK
1951	7	500cc	OK
1951	8	125cc	OK
1951	8	250cc	OK
1951	8	350cc	OK
1951	8	500cc	OK
1952	1	250cc	OK
1952	1	350cc	OK
1952	1	500cc	OK
1952	2	125cc	OK
1952	2	250cc	OK
1952	2	350cc	OK
1952	2	500cc	OK
1952	3	125cc	OK
1952	3	250cc	OK
1952	3	350cc	OK
1952	3	500cc	OK
1952	4	350cc	OK
1952	4	500cc	OK
1952	5	125cc	OK
1952	5	250cc	OK
1952	5	350cc	OK
1952	5	500cc	OK
1952	6	125cc	OK
1952	6	250cc	OK
1952	6	350cc	OK
1952	6	500cc	OK
1952	7	125cc	OK
1952	7	250cc	OK
1952	7	350cc	OK
1952	7	500cc	OK
1952	8	125cc	OK
1952	8	500cc	OK
1953	1	125cc	OK
1953	1	250cc	OK
1953	1	350cc	OK
1953	1	500cc	OK
1953	2	125cc	OK
1953	2	350cc	OK
1953	2	500cc	OK
1953	3	350cc	OK
1953	3	500cc	OK
1953	4	350cc	OK
1953	4	500cc	OK
1953	5	125cc	OK
1953	5	250cc	OK
1953	5	350cc	OK
1953	5	500cc	OK
1953	6	250cc	OK
1953	6	350cc	OK
1953	6	500cc	OK
1953	7	125cc	OK
1953	7	350cc	OK
1953	7	500cc	OK
1953	8	125cc	NO_RACE
1953	8	250cc	OK
1953	8	500cc	OK
1954	1	250cc	OK
1954	1	350cc	OK
1954	1	500cc	OK
1954	2	125cc	OK
1954	2	250cc	OK
1954	2	350cc	OK
1954	2	500cc	OK
1954	3	350cc	OK
1954	3	500cc	OK
1954	4	125cc	OK
1954	4	250cc	OK
1954	4	350cc	OK
1954	4	500cc	OK
1954	5	125cc	OK
1954	5	250cc	OK
1954	5	350cc	OK
1954	5	500cc	OK
1954	6	250cc	OK
1954	6	350cc	OK
1954	6	500cc	OK
1954	7	125cc	OK
1954	7	250cc	OK
1954	7	350cc	OK
1954	7	500cc	OK
1954	8	125cc	OK
1954	8	350cc	OK
1954	8	500cc	OK
1955	1	125cc	OK
1955	1	500cc	OK
1955	2	125cc	OK
1955	2	350cc	OK
1955	2	500cc	OK
1955	3	125cc	OK
1955	3	350cc	OK
1955	3	500cc	OK
1955	4	125cc	OK
1955	4	350cc	OK
1955	4	500cc	OK
1955	5	350cc	OK
1955	5	500cc	OK
1955	6	125cc	OK
1955	6	250cc	OK
1955	6	350cc	OK
1955	6	500cc	OK
1955	7	250cc	OK
1955	7	350cc	OK
1955	7	500cc	OK
1955	8	125cc	NO_RACE
1955	8	250cc	OK
1955	8	350cc	OK
1955	8	500cc	OK
1956	1	125cc	OK
1956	1	250cc	OK
1956	1	350cc	OK
1956	1	500cc	OK
1956	2	125cc	OK
1956	2	250cc	OK
1956	2	350cc	OK
1956	2	500cc	OK
1956	3	125cc	OK
1956	3	250cc	OK
1956	3	350cc	OK
1956	3	500cc	OK
1956	4	125cc	OK
1956	4	250cc	OK
1956	4	350cc	OK
1956	5	125cc	OK
1956	5	250cc	OK
1956	5	350cc	OK
1956	5	500cc	OK
1956	6	125cc	OK
1956	6	250cc	OK
1956	6	350cc	OK
1956	6	500cc	OK
1957	1	125cc	OK
1957	1	250cc	OK
1957	1	350cc	OK
1957	1	500cc	OK
1957	2	125cc	OK
1957	2	250cc	OK
1957	2	350cc	OK
1957	2	500cc	OK
1957	3	125cc	OK
1957	3	250cc	OK
1957	3	350cc	OK
1957	3	500cc	OK
1957	4	250cc	OK
1957	4	350cc	OK
1957	4	500cc	OK
1957	5	125cc	OK
1957	5	250cc	OK
1957	5	350cc	OK
1957	5	500cc	OK
1957	6	125cc	NO_RACE
1957	6	250cc	OK
1957	6	350cc	OK
1957	6	500cc	OK
1958	1	125cc	OK
1958	1	250cc	OK
1958	1	350cc	OK
1958	1	500cc	OK
1958	2	125cc	OK
1958	2	250cc	OK
1958	2	350cc	OK
1958	2	500cc	OK
1958	3	125cc	OK
1958	3	350cc	OK
1958	3	500cc	OK
1958	4	125cc	OK
1958	4	250cc	OK
1958	4	350cc	OK
1958	4	500cc	OK
1958	5	125cc	OK
1958	5	250cc	OK
1958	5	350cc	OK
1958	5	500cc	OK
1958	6	125cc	OK
1958	6	350cc	OK
1958	6	500cc	OK
1958	7	125cc	OK
1958	7	250cc	OK
1958	7	350cc	OK
1958	7	500cc	OK
1959	1	350cc	OK
1959	1	500cc	OK
1959	2	125cc	OK
1959	2	250cc	OK
1959	2	350cc	OK
1959	2	500cc	OK
1959	3	125cc	OK
1959	3	250cc	OK
1959	3	350cc	OK
1959	3	500cc	OK
1959	4	125cc	OK
1959	4	250cc	OK
1959	4	500cc	OK
1959	5	125cc	OK
1959	5	500cc	OK
1959	6	125cc	OK
1959	6	250cc	OK
1959	6	350cc	OK
1959	6	500cc	OK
1959	7	125cc	OK
1959	7	250cc	OK
1959	7	350cc	OK
1959	7	500cc	OK
1960	1	350cc	OK
1960	1	500cc	OK
1960	2	125cc	OK
1960	2	250cc	OK
1960	2	350cc	OK
1960	2	500cc	OK
1960	3	125cc	OK
1960	3	250cc	OK
1960	3	350cc	OK
1960	3	500cc	OK
1960	4	125cc	OK
1960	4	250cc	OK
1960	4	500cc	OK
1960	5	250cc	OK
1960	5	500cc	OK
1960	6	125cc	OK
1960	6	250cc	OK
1960	6	350cc	OK
1960	6	500cc	OK
1960	7	125cc	OK
1960	7	250cc	OK
1960	7	350cc	OK
1960	7	500cc	OK
1961	1	125cc	OK
1961	1	250cc	OK
1961	1	350cc	OK
1961	1	500cc	OK
1961	2	125cc	OK
1961	2	250cc	OK
1961	2	500cc	OK
1961	3	125cc	OK
1961	3	250cc	OK
1961	3	350cc	OK
1961	3	500cc	OK
1961	4	125cc	OK
1961	4	250cc	OK
1961	4	350cc	OK
1961	4	500cc	OK
1961	5	125cc	OK
1961	5	250cc	OK
1961	5	500cc	OK
1961	6	125cc	OK
1961	6	250cc	OK
1961	6	350cc	OK
1961	6	500cc	OK
1961	7	125cc	OK
1961	7	250cc	OK
1961	7	350cc	OK
1961	7	500cc	OK
1961	8	125cc	OK
1961	8	250cc	OK
1961	8	350cc	OK
1961	8	500cc	OK
1961	9	125cc	OK
1961	9	250cc	OK
1961	9	350cc	OK
1961	9	500cc	OK
1961	10	125cc	OK
1961	10	250cc	OK
1961	10	500cc	OK
1962	1	125cc	OK
1962	1	250cc	OK
1962	1	350cc	OK
1962	1	500cc	OK
1962	1	50cc	OK
1962	2	125cc	OK
1962	2	250cc	OK
1962	2	350cc	OK
1962	2	500cc	OK
1962	2	50cc	OK
1962	3	125cc	OK
1962	3	250cc	OK
1962	3	500cc	OK
1962	3	50cc	OK
1962	4	125cc	OK
1962	4	250cc	OK
1962	4	350cc	OK
1962	4	500cc	OK
1962	5	125cc	OK
1962	5	250cc	OK
1962	5	350cc	OK
1962	5	500cc	OK
1962	5	50cc	OK
1962	6	125cc	OK
1962	6	250cc	OK
1962	6	350cc	OK
1962	6	500cc	OK
1962	6	50cc	OK
1962	7	125cc	OK
1962	7	350cc	OK
1962	7	500cc	OK
1962	7	50cc	OK
1962	8	125cc	OK
1962	8	250cc	OK
1962	8	500cc	OK
1962	8	50cc	OK
1963	1	125cc	OK
1963	1	250cc	OK
1963	1	350cc	OK
1963	1	500cc	OK
1963	1	50cc	OK
1963	2	125cc	OK
1963	2	250cc	OK
1963	2	350cc	OK
1963	2	500cc	OK
1963	2	50cc	OK
1963	3	125cc	OK
1963	3	250cc	OK
1963	3	500cc	OK
1963	3	50cc	OK
1963	4	125cc	OK
1963	4	250cc	OK
1963	4	350cc	OK
1963	4	500cc	OK
1963	5	125cc	OK
1963	5	250cc	OK
1963	5	350cc	OK
1963	5	500cc	OK
1963	6	125cc	OK
1963	6	350cc	OK
1963	6	500cc	OK
1963	6	50cc	OK
1963	7	125cc	OK
1963	7	250cc	OK
1963	7	350cc	OK
1963	7	500cc	OK
1963	8	125cc	OK
1963	8	250cc	OK
1963	8	500cc	OK
1963	8	50cc	OK
1964	1	125cc	OK
1964	1	250cc	OK
1964	1	500cc	OK
1964	1	50cc	OK
1964	2	125cc	OK
1964	2	250cc	OK
1964	2	350cc	OK
1964	2	500cc	OK
1964	2	50cc	OK
1964	3	125cc	OK
1964	3	250cc	OK
1964	3	350cc	OK
1964	3	500cc	OK
1964	3	50cc	OK
1964	4	250cc	OK
1964	4	500cc	OK
1964	4	50cc	OK
1964	5	125cc	OK
1964	5	250cc	OK
1964	5	350cc	OK
1964	5	500cc	OK
1964	5	50cc	OK
1964	6	125cc	OK
1964	6	250cc	OK
1964	6	350cc	OK
1964	6	500cc	OK
1964	7	125cc	OK
1964	7	250cc	OK
1964	7	350cc	OK
1964	7	500cc	OK
1964	8	125cc	OK
1964	8	350cc	OK
1964	8	500cc	OK
1964	8	50cc	OK
1964	9	125cc	OK
1964	9	250cc	OK
1964	9	350cc	OK
1964	9	500cc	OK
1965	1	125cc	OK
1965	1	250cc	OK
1965	1	500cc	OK
1965	1	50cc	OK
1965	2	125cc	OK
1965	2	250cc	OK
1965	2	350cc	OK
1965	2	500cc	OK
1965	2	50cc	OK
1965	3	125cc	OK
1965	3	250cc	OK
1965	3	350cc	OK
1965	3	500cc	OK
1965	3	50cc	OK
1965	4	125cc	OK
1965	4	250cc	OK
1965	4	350cc	OK
1965	4	500cc	OK
1965	4	50cc	OK
1965	5	250cc	OK
1965	5	500cc	OK
1965	5	50cc	OK
1965	6	250cc	OK
1965	6	350cc	OK
1965	6	500cc	OK
1965	7	125cc	OK
1965	7	250cc	OK
1965	7	350cc	OK
1965	7	500cc	OK
1965	8	125cc	OK
1965	8	250cc	OK
1965	8	350cc	OK
1965	8	500cc	OK
1965	9	250cc	OK
1965	9	350cc	OK
1965	9	500cc	OK
1965	10	125cc	OK
1965	10	250cc	OK
1965	10	350cc	OK
1965	10	500cc	OK
1966	1	125cc	OK
1966	1	250cc	OK
1966	1	350cc	OK
1966	1	500cc	OK
1966	1	50cc	OK
1966	2	125cc	OK
1966	2	250cc	OK
1966	2	350cc	OK
1966	2	500cc	OK
1966	2	50cc	OK
1966	3	250cc	OK
1966	3	350cc	OK
1966	3	500cc	OK
1966	4	125cc	OK
1966	4	250cc	OK
1966	4	500cc	OK
1966	5	125cc	OK
1966	5	250cc	OK
1966	5	350cc	OK
1966	5	500cc	OK
1966	6	125cc	OK
1966	6	250cc	OK
1966	6	350cc	OK
1966	6	500cc	OK
1966	7	125cc	OK
1966	7	250cc	OK
1966	7	350cc	OK
1966	7	500cc	OK
1966	8	125cc	OK
1966	8	250cc	OK
1966	8	350cc	OK
1966	8	500cc	OK
1966	9	125cc	OK
1966	9	250cc	OK
1966	9	350cc	OK
1966	9	500cc	OK
1966	9	50cc	OK
1967	1	125cc	OK
1967	1	250cc	OK
1967	1	350cc	OK
1967	1	500cc	OK
1967	1	50cc	OK
1967	2	125cc	OK
1967	2	250cc	OK
1967	2	350cc	OK
1967	2	500cc	OK
1967	2	50cc	OK
1967	3	125cc	OK
1967	3	250cc	OK
1967	3	350cc	OK
1967	3	500cc	OK
1967	3	50cc	OK
1967	4	250cc	OK
1967	4	500cc	OK
1967	4	50cc	OK
1967	5	125cc	OK
1967	5	250cc	OK
1967	5	350cc	OK
1967	5	500cc	OK
1967	6	125cc	OK
1967	6	250cc	OK
1967	6	350cc	OK
1967	6	500cc	OK
1967	7	125cc	OK
1967	7	250cc	OK
1967	7	500cc	OK
1967	8	125cc	OK
1967	8	250cc	OK
1967	8	350cc	OK
1967	8	500cc	OK
1967	9	125cc	OK
1967	9	250cc	OK
1967	9	350cc	OK
1967	9	500cc	OK
1967	10	125cc	OK
1967	10	250cc	OK
1967	10	500cc	OK
1968	1	125cc	OK
1968	1	250cc	OK
1968	1	350cc	OK
1968	1	500cc	OK
1968	1	50cc	OK
1968	2	125cc	OK
1968	2	250cc	OK
1968	2	500cc	OK
1968	2	50cc	OK
1968	3	125cc	OK
1968	3	250cc	OK
1968	3	350cc	OK
1968	3	500cc	OK
1968	3	50cc	OK
1968	4	125cc	OK
1968	4	250cc	OK
1968	4	350cc	OK
1968	4	500cc	OK
1968	4	50cc	OK
1968	5	250cc	OK
1968	5	500cc	OK
1968	5	50cc	OK
1968	6	125cc	OK
1968	6	250cc	OK
1968	6	350cc	OK
1968	6	500cc	OK
1968	7	125cc	OK
1968	7	250cc	OK
1968	7	350cc	OK
1968	7	500cc	OK
1968	8	125cc	OK
1968	8	250cc	OK
1968	8	500cc	OK
1968	9	125cc	OK
1968	9	250cc	OK
1968	9	350cc	OK
1968	9	500cc	OK
1968	10	125cc	OK
1968	10	250cc	OK
1968	10	350cc	OK
1968	10	500cc	OK
1969	1	125cc	OK
1969	1	250cc	OK
1969	1	350cc	OK
1969	1	500cc	OK
1969	1	50cc	OK
1969	2	125cc	OK
1969	2	250cc	OK
1969	2	350cc	OK
1969	2	500cc	OK
1969	2	50cc	OK
1969	3	125cc	OK
1969	3	250cc	OK
1969	3	500cc	OK
1969	3	50cc	OK
1969	4	125cc	OK
1969	4	250cc	OK
1969	4	350cc	OK
1969	4	500cc	OK
1969	5	125cc	OK
1969	5	250cc	OK
1969	5	350cc	OK
1969	5	500cc	OK
1969	5	50cc	OK
1969	6	125cc	OK
1969	6	250cc	OK
1969	6	500cc	OK
1969	6	50cc	OK
1969	7	125cc	OK
1969	7	250cc	OK
1969	7	350cc	OK
1969	7	500cc	OK
1969	7	50cc	OK
1969	8	125cc	OK
1969	8	250cc	OK
1969	8	350cc	OK
1969	8	500cc	OK
1969	8	50cc	OK
1969	9	125cc	OK
1969	9	250cc	OK
1969	9	350cc	OK
1969	9	500cc	OK
1969	10	250cc	OK
1969	10	350cc	OK
1969	10	500cc	OK
1969	10	50cc	OK
1969	11	125cc	OK
1969	11	250cc	OK
1969	11	350cc	OK
1969	11	500cc	OK
1969	11	50cc	OK
1969	12	125cc	OK
1969	12	250cc	OK
1969	12	350cc	OK
1969	12	500cc	OK
1969	12	50cc	OK
1970	1	125cc	OK
1970	1	250cc	OK
1970	1	350cc	OK
1970	1	500cc	OK
1970	1	50cc	OK
1970	2	125cc	OK
1970	2	250cc	OK
1970	2	500cc	OK
1970	2	50cc	OK
1970	3	125cc	OK
1970	3	250cc	OK
1970	3	350cc	OK
1970	3	500cc	OK
1970	3	50cc	OK
1970	4	125cc	OK
1970	4	250cc	OK
1970	4	350cc	OK
1970	4	500cc	OK
1970	5	125cc	OK
1970	5	250cc	OK
1970	5	350cc	OK
1970	5	500cc	OK
1970	5	50cc	OK
1970	6	125cc	OK
1970	6	250cc	OK
1970	6	500cc	OK
1970	6	50cc	OK
1970	7	125cc	OK
1970	7	250cc	OK
1970	7	350cc	OK
1970	7	500cc	OK
1970	7	50cc	OK
1970	8	125cc	OK
1970	8	250cc	OK
1970	8	350cc	OK
1970	8	500cc	OK
1970	9	250cc	OK
1970	9	350cc	OK
1970	9	500cc	OK
1970	9	50cc	OK
1970	10	125cc	OK
1970	10	250cc	OK
1970	10	350cc	OK
1970	10	500cc	OK
1970	10	50cc	OK
1970	11	125cc	OK
1970	11	250cc	OK
1970	11	350cc	OK
1970	11	500cc	OK
1970	11	50cc	OK
1971	1	125cc	OK
1971	1	250cc	OK
1971	1	350cc	OK
1971	1	500cc	OK
1971	1	50cc	OK
1971	2	125cc	OK
1971	2	250cc	OK
1971	2	350cc	OK
1971	2	500cc	OK
1971	2	50cc	OK
1971	3	125cc	OK
1971	3	250cc	OK
1971	3	350cc	OK
1971	3	500cc	OK
1971	4	125cc	OK
1971	4	250cc	OK
1971	4	350cc	OK
1971	4	500cc	OK
1971	4	50cc	OK
1971	5	125cc	OK
1971	5	250cc	OK
1971	5	500cc	OK
1971	5	50cc	OK
1971	6	125cc	OK
1971	6	250cc	OK
1971	6	350cc	OK
1971	6	500cc	OK
1971	6	50cc	OK
1971	7	125cc	OK
1971	7	250cc	OK
1971	7	350cc	OK
1971	7	500cc	OK
1971	7	50cc	OK
1971	8	125cc	OK
1971	8	250cc	OK
1971	8	350cc	OK
1971	8	500cc	OK
1971	9	250cc	OK
1971	9	350cc	OK
1971	9	500cc	OK
1971	10	125cc	OK
1971	10	250cc	OK
1971	10	350cc	OK
1971	10	500cc	OK
1971	10	50cc	OK
1971	11	125cc	OK
1971	11	250cc	OK
1971	11	350cc	OK
1971	11	500cc	OK
1971	11	50cc	OK
1972	1	125cc	OK
1972	1	250cc	OK
1972	1	350cc	OK
1972	1	500cc	OK
1972	1	50cc	OK
1972	2	125cc	OK
1972	2	250cc	OK
1972	2	350cc	OK
1972	2	500cc	OK
1972	3	125cc	OK
1972	3	250cc	OK
1972	3	350cc	OK
1972	3	500cc	OK
1972	4	125cc	OK
1972	4	250cc	OK
1972	4	350cc	OK
1972	4	500cc	OK
1972	4	50cc	OK
1972	5	125cc	OK
1972	5	250cc	OK
1972	5	350cc	OK
1972	5	500cc	OK
1972	6	125cc	OK
1972	6	250cc	OK
1972	6	350cc	OK
1972	6	500cc	OK
1972	6	50cc	OK
1972	7	125cc	OK
1972	7	250cc	OK
1972	7	350cc	OK
1972	7	500cc	OK
1972	7	50cc	OK
1972	8	125cc	OK
1972	8	250cc	OK
1972	8	500cc	OK
1972	8	50cc	OK
1972	9	125cc	OK
1972	9	250cc	OK
1972	9	350cc	OK
1972	9	500cc	OK
1972	9	50cc	OK
1972	10	125cc	OK
1972	10	250cc	OK
1972	10	350cc	OK
1972	10	500cc	OK
1972	11	125cc	OK
1972	11	250cc	OK
1972	11	350cc	OK
1972	11	500cc	OK
1972	11	50cc	OK
1972	12	125cc	OK
1972	12	250cc	OK
1972	12	350cc	OK
1972	12	500cc	OK
1972	13	125cc	OK
1972	13	250cc	OK
1972	13	350cc	OK
1972	13	500cc	OK
1972	13	50cc	OK
1973	1	125cc	OK
1973	1	250cc	OK
1973	1	350cc	OK
1973	1	500cc	OK
1973	2	125cc	OK
1973	2	250cc	OK
1973	2	350cc	OK
1973	2	500cc	OK
1973	3	125cc	OK
1973	3	250cc	OK
1973	3	350cc	OK
1973	3	500cc	OK
1973	3	50cc	OK
1973	4	125cc	OK
1973	4	250cc	OK
1973	4	350cc	OK
1973	4	500cc	OK
1973	5	125cc	OK
1973	5	250cc	OK
1973	5	350cc	OK
1973	5	500cc	OK
1973	5	50cc	OK
1973	6	125cc	OK
1973	6	250cc	OK
1973	6	350cc	OK
1973	6	500cc	OK
1973	6	50cc	OK
1973	7	125cc	OK
1973	7	250cc	OK
1973	7	500cc	OK
1973	7	50cc	OK
1973	8	125cc	OK
1973	8	250cc	OK
1973	8	350cc	OK
1973	8	500cc	OK
1973	9	125cc	OK
1973	9	250cc	OK
1973	9	350cc	OK
1973	9	500cc	OK
1973	9	50cc	OK
1973	10	125cc	OK
1973	10	250cc	OK
1973	10	350cc	OK
1973	10	500cc	OK
1973	11	125cc	OK
1973	11	250cc	OK
1973	11	350cc	OK
1973	11	500cc	OK
1973	11	50cc	OK
1974	1	125cc	OK
1974	1	350cc	OK
1974	1	500cc	OK
1974	1	50cc	OK
1974	2	125cc	OK
1974	2	250cc	OK
1974	2	350cc	OK
1974	2	500cc	OK
1974	2	50cc	OK
1974	3	125cc	OK
1974	3	350cc	OK
1974	3	500cc	OK
1974	4	125cc	OK
1974	4	250cc	OK
1974	4	350cc	OK
1974	4	500cc	OK
1974	4	50cc	OK
1974	5	250cc	OK
1974	5	350cc	OK
1974	5	500cc	OK
1974	6	125cc	OK
1974	6	250cc	OK
1974	6	350cc	OK
1974	6	500cc	OK
1974	6	50cc	OK
1974	7	125cc	OK
1974	7	250cc	OK
1974	7	500cc	OK
1974	7	50cc	OK
1974	8	125cc	OK
1974	8	250cc	OK
1974	8	350cc	OK
1974	8	500cc	OK
1974	8	50cc	OK
1974	9	250cc	OK
1974	9	350cc	OK
1974	9	500cc	OK
1974	9	50cc	OK
1974	10	125cc	OK
1974	10	250cc	OK
1974	10	500cc	OK
1974	10	50cc	OK
1975	1	125cc	OK
1975	1	250cc	OK
1975	1	350cc	OK
1975	1	500cc	OK
1975	2	125cc	OK
1975	2	350cc	OK
1975	2	500cc	OK
1975	3	125cc	OK
1975	3	250cc	OK
1975	3	350cc	OK
1975	3	500cc	OK
1975	3	50cc	OK
1975	4	125cc	OK
1975	4	250cc	OK
1975	4	350cc	OK
1975	4	500cc	OK
1975	4	50cc	OK
1975	5	250cc	OK
1975	5	350cc	OK
1975	5	500cc	OK
1975	6	125cc	OK
1975	6	250cc	OK
1975	6	350cc	OK
1975	6	500cc	OK
1975	6	50cc	OK
1975	7	125cc	OK
1975	7	250cc	OK
1975	7	500cc	OK
1975	7	50cc	OK
1975	8	125cc	OK
1975	8	250cc	OK
1975	8	500cc	OK
1975	8	50cc	OK
1975	9	250cc	OK
1975	9	350cc	OK
1975	9	500cc	OK
1975	9	50cc	OK
1975	10	125cc	OK
1975	10	250cc	OK
1975	10	350cc	OK
1975	10	500cc	OK
1976	1	250cc	OK
1976	1	350cc	OK
1976	1	500cc	OK
1976	1	50cc	OK
1976	2	125cc	OK
1976	2	350cc	OK
1976	2	500cc	OK
1976	3	125cc	OK
1976	3	250cc	OK
1976	3	350cc	OK
1976	3	500cc	OK
1976	3	50cc	OK
1976	4	250cc	OK
1976	4	350cc	OK
1976	4	500cc	OK
1976	5	125cc	OK
1976	5	250cc	OK
1976	5	350cc	OK
1976	5	500cc	OK
1976	5	50cc	OK
1976	6	125cc	OK
1976	6	250cc	OK
1976	6	500cc	OK
1976	6	50cc	OK
1976	7	125cc	OK
1976	7	250cc	OK
1976	7	500cc	OK
1976	7	50cc	OK
1976	8	125cc	OK
1976	8	250cc	OK
1976	8	350cc	OK
1976	8	500cc	OK
1976	8	50cc	OK
1976	9	250cc	OK
1976	9	350cc	OK
1976	9	500cc	OK
1976	10	125cc	OK
1976	10	250cc	OK
1976	10	350cc	OK
1976	10	500cc	OK
1976	10	50cc	OK
1977	1	125cc	OK
1977	1	250cc	OK
1977	1	350cc	OK
1977	1	500cc	OK
1977	2	125cc	OK
1977	2	500cc	OK
1977	3	125cc	OK
1977	3	250cc	OK
1977	3	350cc	OK
1977	3	500cc	OK
1977	3	50cc	OK
1977	4	125cc	OK
1977	4	250cc	OK
1977	4	350cc	OK
1977	4	500cc	OK
1977	4	50cc	OK
1977	5	125cc	OK
1977	5	250cc	OK
1977	5	350cc	OK
1977	5	500cc	OK
1977	6	125cc	OK
1977	6	250cc	OK
1977	6	350cc	OK
1977	6	500cc	OK
1977	6	50cc	OK
1977	7	125cc	OK
1977	7	250cc	OK
1977	7	500cc	OK
1977	7	50cc	OK
1977	8	125cc	OK
1977	8	250cc	OK
1977	8	350cc	OK
1977	8	500cc	OK
1977	8	50cc	OK
1977	9	125cc	OK
1977	9	250cc	OK
1977	9	350cc	OK
1977	9	500cc	OK
1977	10	250cc	OK
1977	10	350cc	OK
1977	10	500cc	OK
1977	11	125cc	OK
1977	11	250cc	OK
1977	11	350cc	OK
1977	11	500cc	OK
1978	1	125cc	OK
1978	1	250cc	OK
1978	1	350cc	OK
1978	1	500cc	OK
1978	2	125cc	OK
1978	2	250cc	OK
1978	2	500cc	OK
1978	2	50cc	OK
1978	3	125cc	OK
1978	3	350cc	OK
1978	3	500cc	OK
1978	4	125cc	OK
1978	4	250cc	OK
1978	4	350cc	OK
1978	4	500cc	OK
1978	5	125cc	OK
1978	5	350cc	OK
1978	5	500cc	OK
1978	5	50cc	OK
1978	6	125cc	OK
1978	6	250cc	OK
1978	6	350cc	OK
1978	6	500cc	OK
1978	6	50cc	OK
1978	7	125cc	OK
1978	7	250cc	OK
1978	7	500cc	OK
1978	7	50cc	OK
1978	8	125cc	OK
1978	8	250cc	OK
1978	8	350cc	OK
1978	8	500cc	OK
1978	9	125cc	OK
1978	9	250cc	OK
1978	9	350cc	OK
1978	9	500cc	OK
1978	10	125cc	OK
1978	10	250cc	OK
1978	10	350cc	OK
1978	10	500cc	OK
1978	11	125cc	OK
1978	11	250cc	OK
1978	11	350cc	OK
1978	11	500cc	OK
1978	11	50cc	OK
1979	1	125cc	OK
1979	1	250cc	OK
1979	1	350cc	OK
1979	1	500cc	OK
1979	2	125cc	OK
1979	2	350cc	OK
1979	2	500cc	OK
1979	3	125cc	OK
1979	3	250cc	OK
1979	3	350cc	OK
1979	3	500cc	OK
1979	3	50cc	OK
1979	4	125cc	OK
1979	4	250cc	OK
1979	4	350cc	OK
1979	4	500cc	OK
1979	4	50cc	OK
1979	5	125cc	OK
1979	5	250cc	OK
1979	5	350cc	OK
1979	5	500cc	OK
1979	5	50cc	OK
1979	6	125cc	OK
1979	6	250cc	OK
1979	6	350cc	OK
1979	6	500cc	OK
1979	6	50cc	OK
1979	7	125cc	OK
1979	7	250cc	OK
1979	7	350cc	OK
1979	7	500cc	OK
1979	7	50cc	OK
1979	8	125cc	OK
1979	8	250cc	OK
1979	8	500cc	OK
1979	8	50cc	OK
1979	9	125cc	OK
1979	9	250cc	OK
1979	9	500cc	OK
1979	10	250cc	OK
1979	10	350cc	OK
1979	10	500cc	OK
1979	11	125cc	OK
1979	11	250cc	OK
1979	11	350cc	OK
1979	11	500cc	OK
1979	12	250cc	OK
1979	12	350cc	OK
1979	12	500cc	OK
1979	12	50cc	OK
1980	1	125cc	ERROR
1980	1	250cc	OK
1980	1	350cc	OK
1980	1	500cc	OK
1980	1	50cc	OK
1980	2	125cc	OK
1980	2	250cc	OK
1980	2	500cc	OK
1980	2	50cc	OK
1980	3	125cc	OK
1980	3	250cc	OK
1980	3	350cc	OK
1980	3	500cc	OK
1980	4	125cc	OK
1980	4	250cc	OK
1980	4	350cc	OK
1980	4	500cc	OK
1980	4	50cc	OK
1980	5	125cc	OK
1980	5	250cc	OK
1980	5	500cc	OK
1980	5	50cc	OK
1980	6	125cc	OK
1980	6	250cc	OK
1980	6	500cc	OK
1980	7	250cc	OK
1980	7	350cc	OK
1980	7	500cc	OK
1980	8	125cc	OK
1980	8	250cc	OK
1980	8	350cc	OK
1980	8	500cc	OK
1980	8	50cc	OK
1981	1	125cc	OK
1981	1	350cc	OK
1981	1	500cc	OK
1981	2	125cc	OK
1981	2	250cc	OK
1981	2	350cc	OK
1981	2	500cc	OK
1981	2	50cc	OK
1981	3	125cc	OK
1981	3	250cc	OK
1981	3	350cc	OK
1981	3	500cc	ERROR
1981	3	50cc	OK
1981	4	125cc	OK
1981	4	250cc	OK
1981	4	500cc	ERROR
1981	5	125cc	OK
1981	5	350cc	OK
1981	5	500cc	OK
1981	5	50cc	OK
1981	6	125cc	OK
1981	6	250cc	OK
1981	6	350cc	OK
1981	6	500cc	OK
1981	6	50cc	OK
1981	7	250cc	OK
1981	7	500cc	OK
1981	7	50cc	OK
1981	8	125cc	OK
1981	8	250cc	OK
1981	8	500cc	OK
1981	8	50cc	OK
1981	9	125cc	OK
1981	9	250cc	OK
1981	9	350cc	OK
1981	9	500cc	ERROR
1981	10	125cc	OK
1981	10	250cc	OK
1981	10	500cc	ERROR
1981	11	125cc	OK
1981	11	250cc	OK
1981	11	500cc	OK
1982	1	125cc	OK
1982	1	350cc	OK
1982	1	500cc	OK
1982	2	125cc	OK
1982	2	350cc	OK
1982	2	500cc	OK
1982	3	125cc	OK
1982	3	250cc	OK
1982	3	350cc	OK
1982	3	500cc	OK
1982	4	125cc	OK
1982	4	250cc	OK
1982	4	500cc	OK
1982	4	50cc	OK
1982	5	125cc	OK
1982	5	250cc	OK
1982	5	350cc	OK
1982	5	500cc	OK
1982	5	50cc	OK
1982	6	125cc	OK
1982	6	250cc	OK
1982	6	350cc	OK
1982	6	500cc	OK
1982	6	50cc	OK
1982	7	125cc	OK
1982	7	250cc	OK
1982	7	500cc	OK
1982	8	125cc	OK
1982	8	250cc	OK
1982	8	500cc	OK
1982	8	50cc	OK
1982	9	125cc	OK
1982	9	250cc	OK
1982	9	350cc	OK
1982	9	500cc	OK
1982	10	125cc	OK
1982	10	250cc	OK
1982	10	500cc	OK
1982	11	250cc	OK
1982	11	500cc	OK
1982	11	50cc	OK
1982	12	250cc	OK
1982	12	350cc	OK
1982	12	500cc	OK
1982	12	50cc	OK
1983	1	250cc	OK
1983	1	500cc	OK
1983	2	125cc	OK
1983	2	250cc	OK
1983	2	500cc	OK
1983	2	50cc	OK
1983	3	125cc	OK
1983	3	250cc	OK
1983	3	500cc	OK
1983	3	50cc	OK
1983	4	125cc	OK
1983	4	250cc	OK
1983	4	500cc	OK
1983	4	50cc	OK
1983	5	125cc	ERROR
1983	5	250cc	OK
1983	5	500cc	OK
1983	5	50cc	OK
1983	6	125cc	OK
1983	6	250cc	OK
1983	6	500cc	OK
1983	7	125cc	OK
1983	7	250cc	OK
1983	7	500cc	OK
1983	7	50cc	OK
1983	8	125cc	OK
1983	8	250cc	OK
1983	8	500cc	OK
1983	8	50cc	OK
1983	9	125cc	OK
1983	9	250cc	OK
1983	9	500cc	OK
1983	10	125cc	OK
1983	10	250cc	OK
1983	10	500cc	OK
1983	11	125cc	OK
1983	11	250cc	OK
1983	11	500cc	OK
1983	12	125cc	ERROR
1983	12	500cc	OK
1983	12	50cc	OK
1984	1	250cc	OK
1984	1	500cc	OK
1984	2	125cc	OK
1984	2	250cc	OK
1984	2	500cc	OK
1984	2	80cc	OK
1984	3	125cc	OK
1984	3	250cc	OK
1984	3	500cc	OK
1984	3	80cc	OK
1984	4	250cc	OK
1984	4	500cc	OK
1984	4	80cc	OK
1984	5	125cc	OK
1984	5	250cc	OK
1984	5	500cc	OK
1984	5	80cc	OK
1984	6	125cc	OK
1984	6	250cc	OK
1984	6	500cc	OK
1984	7	250cc	OK
1984	7	500cc	OK
1984	7	80cc	OK
1984	8	125cc	ERROR
1984	8	250cc	OK
1984	8	500cc	OK
1984	8	80cc	OK
1984	9	250cc	OK
1984	9	500cc	OK
1984	9	80cc	OK
1984	10	125cc	OK
1984	10	250cc	OK
1984	10	500cc	OK
1984	11	125cc	OK
1984	11	250cc	OK
1984	11	500cc	OK
1984	12	125cc	ERROR
1984	12	250cc	OK
1984	12	500cc	OK
1984	12	80cc	OK
1985	1	250cc	OK
1985	1	500cc	OK
1985	2	125cc	OK
1985	2	250cc	OK
1985	2	500cc	OK
1985	2	80cc	OK
1985	3	125cc	OK
1985	3	250cc	OK
1985	3	500cc	ERROR
1985	3	80cc	OK
1985	4	125cc	OK
1985	4	250cc	OK
1985	4	500cc	OK
1985	4	80cc	OK
1985	5	125cc	OK
1985	5	250cc	OK
1985	5	500cc	OK
1985	6	250cc	OK
1985	6	500cc	OK
1985	6	80cc	OK
1985	7	125cc	OK
1985	7	250cc	OK
1985	7	500cc	OK
1985	7	80cc	OK
1985	8	125cc	ERROR
1985	8	250cc	OK
1985	8	500cc	OK
1985	9	125cc	OK
1985	9	250cc	OK
1985	9	500cc	OK
1985	9	80cc	OK
1985	10	125cc	OK
1985	10	250cc	OK
1985	10	500cc	OK
1985	11	125cc	OK
1985	11	250cc	OK
1985	11	500cc	OK
1985	12	125cc	OK
1985	12	250cc	OK
1985	12	500cc	OK
1985	12	80cc	OK
1986	1	125cc	OK
1986	1	250cc	OK
1986	1	500cc	OK
1986	1	80cc	OK
1986	2	125cc	OK
1986	2	250cc	OK
1986	2	500cc	OK
1986	2	80cc	OK
1986	3	125cc	OK
1986	3	250cc	OK
1986	3	500cc	OK
1986	3	80cc	OK
1986	4	125cc	OK
1986	4	250cc	OK
1986	4	500cc	OK
1986	4	80cc	OK
1986	5	250cc	OK
1986	5	500cc	OK
1986	5	80cc	OK
1986	6	125cc	OK
1986	6	250cc	OK
1986	6	500cc	OK
1986	6	80cc	OK
1986	7	125cc	OK
1986	7	250cc	OK
1986	7	500cc	OK
1986	8	125cc	OK
1986	8	250cc	OK
1986	8	500cc	OK
1986	9	125cc	OK
1986	9	250cc	OK
1986	9	500cc	OK
1986	9	80cc	OK
1986	10	125cc	OK
1986	10	250cc	OK
1986	10	500cc	OK
1986	11	125cc	OK
1986	11	250cc	OK
1986	11	500cc	OK
1986	11	80cc	OK
1987	1	250cc	OK
1987	1	500cc	OK
1987	2	125cc	OK
1987	2	250cc	OK
1987	2	500cc	OK
1987	2	80cc	OK
1987	3	125cc	OK
1987	3	250cc	OK
1987	3	500cc	OK
1987	3	80cc	OK
1987	4	125cc	OK
1987	4	250cc	OK
1987	4	500cc	OK
1987	4	80cc	OK
1987	5	125cc	OK
1987	5	250cc	OK
1987	5	500cc	OK
1987	5	80cc	OK
1987	6	250cc	OK
1987	6	500cc	OK
1987	6	80cc	OK
1987	7	125cc	OK
1987	7	250cc	OK
1987	7	500cc	OK
1987	7	80cc	OK
1987	8	125cc	OK
1987	8	250cc	OK
1987	8	500cc	OK
1987	9	125cc	OK
1987	9	250cc	OK
1987	9	500cc	OK
1987	9	80cc	OK
1987	10	125cc	OK
1987	10	250cc	OK
1987	10	500cc	OK
1987	11	125cc	OK
1987	11	250cc	OK
1987	11	500cc	OK
1987	11	80cc	OK
1987	12	125cc	OK
1987	12	250cc	OK
1987	12	500cc	OK
1987	12	80cc	OK
1987	13	125cc	OK
1987	13	250cc	OK
1987	13	500cc	OK
1987	13	80cc	OK
1987	14	250cc	OK
1987	14	500cc	OK
1987	15	250cc	OK
1987	15	500cc	OK
1988	1	250cc	OK
1988	1	500cc	OK
1988	2	250cc	OK
1988	2	500cc	OK
1988	3	125cc	OK
1988	3	250cc	OK
1988	3	500cc	OK
1988	3	80cc	OK
1988	4	250cc	OK
1988	4	500cc	OK
1988	4	80cc	OK
1988	5	125cc	OK
1988	5	250cc	OK
1988	5	500cc	OK
1988	5	80cc	OK
1988	6	125cc	OK
1988	6	250cc	OK
1988	6	500cc	OK
1988	6	80cc	OK
1988	7	125cc	OK
1988	7	250cc	OK
1988	7	500cc	OK
1988	8	125cc	OK
1988	8	250cc	OK
1988	8	500cc	OK
1988	8	80cc	OK
1988	9	125cc	OK
1988	9	250cc	OK
1988	9	500cc	OK
1988	10	125cc	OK
1988	10	250cc	OK
1988	10	500cc	OK
1988	10	80cc	OK
1988	11	125cc	OK
1988	11	250cc	OK
1988	11	500cc	ERROR
1988	12	125cc	OK
1988	12	250cc	OK
1988	12	500cc	ERROR
1988	13	125cc	OK
1988	13	250cc	OK
1988	13	500cc	OK
1988	14	125cc	OK
1988	14	250cc	OK
1988	14	500cc	OK
1988	14	80cc	OK
1988	15	250cc	OK
1988	15	500cc	OK
1989	1	125cc	OK
1989	1	250cc	OK
1989	1	500cc	OK
1989	2	125cc	OK
1989	2	250cc	OK
1989	2	500cc	OK
1989	3	250cc	OK
1989	3	500cc	OK
1989	4	125cc	OK
1989	4	250cc	OK
1989	4	500cc	OK
1989	4	80cc	OK
1989	5	125cc	OK
1989	5	250cc	OK
1989	5	500cc	OK
1989	5	80cc	OK
1989	6	125cc	OK
1989	6	250cc	OK
1989	6	500cc	OK
1989	6	80cc	OK
1989	7	125cc	OK
1989	7	250cc	OK
1989	7	500cc	OK
1989	8	250cc	OK
1989	8	500cc	OK
1989	8	80cc	OK
1989	9	125cc	OK
1989	9	250cc	OK
1989	9	500cc	OK
1989	9	80cc	OK
1989	10	125cc	OK
1989	10	250cc	OK
1989	10	500cc	OK
1989	11	125cc	OK
1989	11	250cc	OK
1989	11	500cc	OK
1989	12	125cc	OK
1989	12	250cc	OK
1989	12	500cc	OK
1989	13	125cc	OK
1989	13	250cc	OK
1989	13	500cc	OK
1989	14	125cc	OK
1989	14	250cc	OK
1989	14	500cc	OK
1989	14	80cc	OK
1989	15	250cc	NO_RACE
1989	15	500cc	OK
1990	1	125cc	OK
1990	1	250cc	OK
1990	1	500cc	OK
1990	2	250cc	OK
1990	2	500cc	OK
1990	3	125cc	OK
1990	3	250cc	OK
1990	3	500cc	OK
1990	4	125cc	OK
1990	4	250cc	OK
1990	4	500cc	OK
1990	5	125cc	OK
1990	5	250cc	OK
1990	5	500cc	OK
1990	6	125cc	OK
1990	6	250cc	OK
1990	6	500cc	OK
1990	7	125cc	OK
1990	7	250cc	OK
1990	7	500cc	OK
1990	8	125cc	OK
1990	8	250cc	OK
1990	8	500cc	OK
1990	9	125cc	OK
1990	9	250cc	OK
1990	9	500cc	OK
1990	10	125cc	OK
1990	10	250cc	OK
1990	10	500cc	OK
1990	11	125cc	OK
1990	11	250cc	OK
1990	11	500cc	OK
1990	12	125cc	OK
1990	12	250cc	OK
1990	12	500cc	OK
1990	13	125cc	OK
1990	13	250cc	OK
1990	13	500cc	OK
1990	14	125cc	OK
1990	14	250cc	OK
1990	14	500cc	OK
1990	15	125cc	OK
1990	15	250cc	OK
1990	15	500cc	OK
1991	1	125cc	OK
1991	1	250cc	OK
1991	1	500cc	OK
1991	2	125cc	OK
1991	2	250cc	OK
1991	2	500cc	OK
1991	3	250cc	OK
1991	3	500cc	OK
1991	4	125cc	OK
1991	4	250cc	OK
1991	4	500cc	OK
1991	5	125cc	OK
1991	5	250cc	OK
1991	5	500cc	OK
1991	6	125cc	OK
1991	6	250cc	OK
1991	6	500cc	OK
1991	7	125cc	OK
1991	7	250cc	OK
1991	7	500cc	OK
1991	8	125cc	OK
1991	8	250cc	OK
1991	8	500cc	OK
1991	9	125cc	OK
1991	9	250cc	OK
1991	9	500cc	OK
1991	10	125cc	OK
1991	10	250cc	OK
1991	10	500cc	OK
1991	11	125cc	OK
1991	11	250cc	OK
1991	11	500cc	OK
1991	12	125cc	OK
1991	12	250cc	OK
1991	12	500cc	OK
1991	13	125cc	OK
1991	13	250cc	OK
1991	13	500cc	OK
1991	14	250cc	OK
1991	14	500cc	OK
1991	15	125cc	OK
1991	15	250cc	OK
1991	15	500cc	OK
1992	1	125cc	OK
1992	1	250cc	OK
1992	1	500cc	OK
1992	2	125cc	OK
1992	2	250cc	OK
1992	2	500cc	OK
1992	3	125cc	OK
1992	3	250cc	OK
1992	3	500cc	OK
1992	4	125cc	OK
1992	4	250cc	OK
1992	4	500cc	OK
1992	5	125cc	OK
1992	5	250cc	OK
1992	5	500cc	OK
1992	6	125cc	OK
1992	6	250cc	OK
1992	6	500cc	OK
1992	7	125cc	OK
1992	7	250cc	OK
1992	7	500cc	OK
1992	8	125cc	OK
1992	8	250cc	OK
1992	8	500cc	OK
1992	9	125cc	OK
1992	9	250cc	OK
1992	9	500cc	OK
1992	10	125cc	OK
1992	10	250cc	OK
1992	10	500cc	OK
1992	11	125cc	OK
1992	11	250cc	OK
1992	11	500cc	OK
1992	12	125cc	OK
1992	12	250cc	OK
1992	12	500cc	OK
1992	13	125cc	OK
1992	13	250cc	OK
1992	13	500cc	OK
1993	1	125cc	OK
1993	1	250cc	OK
1993	1	500cc	OK
1993	2	125cc	OK
1993	2	250cc	OK
1993	2	500cc	OK
1993	3	125cc	OK
1993	3	250cc	OK
1993	3	500cc	OK
1993	4	125cc	OK
1993	4	250cc	OK
1993	4	500cc	OK
1993	5	125cc	OK
1993	5	250cc	OK
1993	5	500cc	OK
1993	6	125cc	OK
1993	6	250cc	OK
1993	6	500cc	OK
1993	7	125cc	OK
1993	7	250cc	OK
1993	7	500cc	OK
1993	8	125cc	OK
1993	8	250cc	OK
1993	8	500cc	OK
1993	9	125cc	OK
1993	9	250cc	OK
1993	9	500cc	OK
1993	10	125cc	OK
1993	10	250cc	OK
1993	10	500cc	OK
1993	11	125cc	OK
1993	11	250cc	OK
1993	11	500cc	OK
1993	12	125cc	OK
1993	12	250cc	OK
1993	12	500cc	OK
1993	13	125cc	OK
1993	13	250cc	OK
1993	13	500cc	OK
1993	14	125cc	OK
1993	14	250cc	OK
1993	14	500cc	OK
1994	1	125cc	OK
1994	1	250cc	OK
1994	1	500cc	OK
1994	2	125cc	OK
1994	2	250cc	OK
1994	2	500cc	OK
1994	3	125cc	OK
1994	3	250cc	OK
1994	3	500cc	OK
1994	4	125cc	OK
1994	4	250cc	OK
1994	4	500cc	OK
1994	5	125cc	OK
1994	5	250cc	ERROR
1994	5	500cc	OK
1994	6	125cc	OK
1994	6	250cc	OK
1994	6	500cc	OK
1994	7	125cc	OK
1994	7	250cc	OK
1994	7	500cc	OK
1994	8	125cc	OK
1994	8	250cc	OK
1994	8	500cc	OK
1994	9	125cc	OK
1994	9	250cc	OK
1994	9	500cc	OK
1994	10	125cc	OK
1994	10	250cc	OK
1994	10	500cc	OK
1994	11	125cc	OK
1994	11	250cc	OK
1994	11	500cc	OK
1994	12	125cc	OK
1994	12	250cc	OK
1994	12	500cc	OK
1994	13	125cc	OK
1994	13	250cc	OK
1994	13	500cc	OK
1994	14	125cc	OK
1994	14	250cc	OK
1994	14	500cc	OK
1995	1	125cc	OK
1995	1	250cc	OK
1995	1	500cc	OK
1995	2	125cc	OK
1995	2	250cc	OK
1995	2	500cc	OK
1995	3	125cc	OK
1995	3	250cc	OK
1995	3	500cc	OK
1995	4	125cc	OK
1995	4	250cc	OK
1995	4	500cc	OK
1995	5	125cc	OK
1995	5	250cc	OK
1995	5	500cc	OK
1995	6	125cc	OK
1995	6	250cc	OK
1995	6	500cc	OK
1995	7	125cc	OK
1995	7	250cc	OK
1995	7	500cc	OK
1995	8	125cc	OK
1995	8	250cc	OK
1995	8	500cc	OK
1995	9	125cc	OK
1995	9	250cc	OK
1995	9	500cc	OK
1995	10	125cc	OK
1995	10	250cc	OK
1995	10	500cc	OK
1995	11	125cc	OK
1995	11	250cc	OK
1995	11	500cc	OK
1995	12	125cc	OK
1995	12	250cc	OK
1995	12	500cc	OK
1995	13	125cc	OK
1995	13	250cc	OK
1995	13	500cc	OK
1996	1	125cc	OK
1996	1	250cc	OK
1996	1	500cc	OK
1996	2	125cc	OK
1996	2	250cc	OK
1996	2	500cc	OK
1996	3	125cc	OK
1996	3	250cc	OK
1996	3	500cc	OK
1996	4	125cc	OK
1996	4	250cc	OK
1996	4	500cc	OK
1996	5	125cc	OK
1996	5	250cc	OK
1996	5	500cc	OK
1996	6	125cc	OK
1996	6	250cc	OK
1996	6	500cc	OK
1996	7	125cc	OK
1996	7	250cc	OK
1996	7	500cc	OK
1996	8	125cc	OK
1996	8	250cc	OK
1996	8	500cc	OK
1996	9	125cc	OK
1996	9	250cc	OK
1996	9	500cc	OK
1996	10	125cc	OK
1996	10	250cc	OK
1996	10	500cc	OK
1996	11	125cc	OK
1996	11	250cc	OK
1996	11	500cc	OK
1996	12	125cc	OK
1996	12	250cc	OK
1996	12	500cc	OK
1996	13	125cc	OK
1996	13	250cc	OK
1996	13	500cc	OK
1996	14	125cc	OK
1996	14	250cc	OK
1996	14	500cc	OK
1996	15	125cc	OK
1996	15	250cc	OK
1996	15	500cc	OK
1997	1	125cc	OK
1997	1	250cc	OK
1997	1	500cc	OK
1997	2	125cc	OK
1997	2	250cc	OK
1997	2	500cc	OK
1997	3	125cc	OK
1997	3	250cc	OK
1997	3	500cc	OK
1997	4	125cc	OK
1997	4	250cc	OK
1997	4	500cc	OK
1997	5	125cc	OK
1997	5	250cc	OK
1997	5	500cc	OK
1997	6	125cc	OK
1997	6	250cc	OK
1997	6	500cc	OK
1997	7	125cc	OK
1997	7	250cc	OK
1997	7	500cc	OK
1997	8	125cc	OK
1997	8	250cc	OK
1997	8	500cc	OK
1997	9	125cc	ERROR
1997	9	250cc	OK
1997	9	500cc	OK
1997	10	125cc	OK
1997	10	250cc	OK
1997	10	500cc	OK
1997	11	125cc	ERROR
1997	11	250cc	OK
1997	11	500cc	OK
1997	12	125cc	OK
1997	12	250cc	OK
1997	12	500cc	OK
1997	13	125cc	OK
1997	13	250cc	OK
1997	13	500cc	OK
1997	14	125cc	OK
1997	14	250cc	OK
1997	14	500cc	ERROR
1997	15	125cc	OK
1997	15	250cc	OK
1997	15	500cc	OK
1998	1	125cc	OK
1998	1	250cc	OK
1998	1	500cc	OK
1998	2	125cc	OK
1998	2	250cc	OK
1998	2	500cc	OK
1998	3	125cc	OK
1998	3	250cc	OK
1998	3	500cc	OK
1998	4	125cc	OK
1998	4	250cc	OK
1998	4	500cc	OK
1998	5	125cc	OK
1998	5	250cc	OK
1998	5	500cc	OK
1998	6	125cc	OK
1998	6	250cc	OK
1998	6	500cc	OK
1998	7	125cc	OK
1998	7	250cc	OK
1998	7	500cc	OK
1998	8	125cc	OK
1998	8	250cc	OK
1998	8	500cc	OK
1998	9	125cc	OK
1998	9	250cc	OK
1998	9	500cc	OK
1998	10	125cc	OK
1998	10	250cc	OK
1998	10	500cc	OK
1998	11	125cc	OK
1998	11	250cc	OK
1998	11	500cc	OK
1998	12	125cc	OK
1998	12	250cc	OK
1998	12	500cc	OK
1998	13	125cc	OK
1998	13	250cc	OK
1998	13	500cc	OK
1998	14	125cc	OK
1998	14	250cc	OK
1998	14	500cc	OK
1999	1	125cc	OK
1999	1	250cc	OK
1999	1	500cc	OK
1999	2	125cc	OK
1999	2	250cc	OK
1999	2	500cc	OK
1999	3	125cc	OK
1999	3	250cc	OK
1999	3	500cc	OK
1999	4	125cc	OK
1999	4	250cc	OK
1999	4	500cc	OK
1999	5	125cc	OK
1999	5	250cc	OK
1999	5	500cc	OK
1999	6	125cc	OK
1999	6	250cc	OK
1999	6	500cc	OK
1999	7	125cc	OK
1999	7	250cc	OK
1999	7	500cc	OK
1999	8	125cc	OK
1999	8	250cc	OK
1999	8	500cc	OK
1999	9	125cc	OK
1999	9	250cc	OK
1999	9	500cc	OK
1999	10	125cc	OK
1999	10	250cc	OK
1999	10	500cc	OK
1999	11	125cc	OK
1999	11	250cc	OK
1999	11	500cc	OK
1999	12	125cc	OK
1999	12	250cc	OK
1999	12	500cc	OK
1999	13	125cc	OK
1999	13	250cc	OK
1999	13	500cc	OK
1999	14	125cc	OK
1999	14	250cc	OK
1999	14	500cc	OK
1999	15	125cc	OK
1999	15	250cc	OK
1999	15	500cc	OK
1999	16	125cc	OK
1999	16	250cc	OK
1999	16	500cc	OK
2000	1	125cc	OK
2000	1	250cc	OK
2000	1	500cc	OK
2000	2	125cc	OK
2000	2	250cc	OK
2000	2	500cc	OK
2000	3	125cc	OK
2000	3	250cc	OK
2000	3	500cc	OK
2000	4	125cc	OK
2000	4	250cc	OK
2000	4	500cc	OK
2000	5	125cc	OK
2000	5	250cc	OK
2000	5	500cc	OK
2000	6	125cc	OK
2000	6	250cc	OK
2000	6	500cc	OK
2000	7	125cc	OK
2000	7	250cc	OK
2000	7	500cc	OK
2000	8	125cc	OK
2000	8	250cc	OK
2000	8	500cc	OK
2000	9	125cc	OK
2000	9	250cc	OK
2000	9	500cc	OK
2000	10	125cc	OK
2000	10	250cc	OK
2000	10	500cc	OK
2000	11	125cc	OK
2000	11	250cc	OK
2000	11	500cc	OK
2000	12	125cc	OK
2000	12	250cc	OK
2000	12	500cc	OK
2000	13	125cc	OK
2000	13	250cc	OK
2000	13	500cc	OK
2000	14	125cc	OK
2000	14	250cc	OK
2000	14	500cc	OK
2000	15	125cc	OK
2000	15	250cc	OK
2000	15	500cc	OK
2000	16	125cc	OK
2000	16	250cc	OK
2000	16	500cc	OK
2001	1	125cc	OK
2001	1	250cc	OK
2001	1	500cc	OK
2001	2	125cc	OK
2001	2	250cc	OK
2001	2	500cc	OK
2001	3	125cc	OK
2001	3	250cc	OK
2001	3	500cc	OK
2001	4	125cc	OK
2001	4	250cc	OK
2001	4	500cc	OK
2001	5	125cc	OK
2001	5	250cc	OK
2001	5	500cc	OK
2001	6	125cc	OK
2001	6	250cc	OK
2001	6	500cc	OK
2001	7	125cc	OK
2001	7	250cc	OK
2001	7	500cc	OK
2001	8	125cc	OK
2001	8	250cc	OK
2001	8	500cc	OK
2001	9	125cc	OK
2001	9	250cc	OK
2001	9	500cc	OK
2001	10	125cc	OK
2001	10	250cc	OK
2001	10	500cc	OK
2001	11	125cc	OK
2001	11	250cc	OK
2001	11	500cc	OK
2001	12	125cc	OK
2001	12	250cc	OK
2001	12	500cc	OK
2001	13	125cc	OK
2001	13	250cc	OK
2001	13	500cc	OK
2001	14	125cc	OK
2001	14	250cc	OK
2001	14	500cc	OK
2001	15	125cc	OK
2001	15	250cc	OK
2001	15	500cc	OK
2001	16	125cc	OK
2001	16	250cc	OK
2001	16	500cc	OK
2002	1	125cc	OK
2002	1	250cc	OK
2002	1	MotoGP	OK
2002	2	125cc	OK
2002	2	250cc	OK
2002	2	MotoGP	OK
2002	3	125cc	OK
2002	3	250cc	OK
2002	3	MotoGP	OK
2002	4	125cc	OK
2002	4	250cc	OK
2002	4	MotoGP	OK
2002	5	125cc	OK
2002	5	250cc	OK
2002	5	MotoGP	OK
2002	6	125cc	OK
2002	6	250cc	OK
2002	6	MotoGP	OK
2002	7	125cc	OK
2002	7	250cc	OK
2002	7	MotoGP	OK
2002	8	125cc	OK
2002	8	250cc	OK
2002	8	MotoGP	OK
2002	9	125cc	OK
2002	9	250cc	OK
2002	9	MotoGP	OK
2002	10	125cc	OK
2002	10	250cc	OK
2002	10	MotoGP	OK
2002	11	125cc	OK
2002	11	250cc	OK
2002	11	MotoGP	OK
2002	12	125cc	OK
2002	12	250cc	OK
2002	12	MotoGP	OK
2002	13	125cc	OK
2002	13	250cc	OK
2002	13	MotoGP	OK
2002	14	125cc	OK
2002	14	250cc	OK
2002	14	MotoGP	OK
2002	15	125cc	OK
2002	15	250cc	OK
2002	15	MotoGP	OK
2002	16	125cc	OK
2002	16	250cc	OK
2002	16	MotoGP	OK
2003	1	125cc	OK
2003	1	250cc	OK
2003	1	MotoGP	OK
2003	2	125cc	OK
2003	2	250cc	OK
2003	2	MotoGP	OK
2003	3	125cc	OK
2003	3	250cc	OK
2003	3	MotoGP	OK
2003	4	125cc	OK
2003	4	250cc	OK
2003	4	MotoGP	OK
2003	5	125cc	OK
2003	5	250cc	OK
2003	5	MotoGP	OK
2003	6	125cc	OK
2003	6	250cc	OK
2003	6	MotoGP	OK
2003	7	125cc	OK
2003	7	250cc	OK
2003	7	MotoGP	OK
2003	8	125cc	OK
2003	8	250cc	OK
2003	8	MotoGP	OK
2003	9	125cc	OK
2003	9	250cc	OK
2003	9	MotoGP	OK
2003	10	125cc	OK
2003	10	250cc	OK
2003	10	MotoGP	OK
2003	11	125cc	OK
2003	11	250cc	OK
2003	11	MotoGP	OK
2003	12	125cc	OK
2003	12	250cc	OK
2003	12	MotoGP	OK
2003	13	125cc	OK
2003	13	250cc	OK
2003	13	MotoGP	OK
2003	14	125cc	OK
2003	14	250cc	OK
2003	14	MotoGP	OK
2003	15	125cc	OK
2003	15	250cc	OK
2003	15	MotoGP	OK
2003	16	125cc	OK
2003	16	250cc	OK
2003	16	MotoGP	OK
2004	1	125cc	OK
2004	1	250cc	OK
2004	1	MotoGP	OK
2004	2	125cc	OK
2004	2	250cc	OK
2004	2	MotoGP	OK
2004	3	125cc	OK
2004	3	250cc	OK
2004	3	MotoGP	OK
2004	4	125cc	OK
2004	4	250cc	ERROR
2004	4	MotoGP	OK
2004	5	125cc	OK
2004	5	250cc	OK
2004	5	MotoGP	OK
2004	6	125cc	OK
2004	6	250cc	OK
2004	6	MotoGP	OK
2004	7	125cc	OK
2004	7	250cc	OK
2004	7	MotoGP	OK
2004	8	125cc	OK
2004	8	250cc	OK
2004	8	MotoGP	OK
2004	9	125cc	OK
2004	9	250cc	OK
2004	9	MotoGP	OK
2004	10	125cc	OK
2004	10	250cc	OK
2004	10	MotoGP	OK
2004	11	125cc	OK
2004	11	250cc	OK
2004	11	MotoGP	OK
2004	12	125cc	OK
2004	12	250cc	OK
2004	12	MotoGP	OK
2004	13	125cc	OK
2004	13	250cc	OK
2004	13	MotoGP	OK
2004	14	125cc	OK
2004	14	250cc	OK
2004	14	MotoGP	OK
2004	15	125cc	OK
2004	15	250cc	OK
2004	15	MotoGP	OK
2004	16	125cc	OK
2004	16	250cc	OK
2004	16	MotoGP	OK
2005	1	125cc	ERROR
2005	1	250cc	OK	Sunny	Dry	13	18	24
2005	1	MotoGP	OK	Sunny	Dry	15	17	32
2005	2	125cc	OK	Cloudy	Dry	16	56	23
2005	2	250cc	OK	Partly cloudy	Dry	16	60	17
2005	2	MotoGP	OK	Partly cloudy	Dry	17	56	19
2005	3	125cc	OK	Cloudy	Wet	22	94	22
2005	3	250cc	OK	Raining	Wet	24	89	24
2005	3	MotoGP	OK	Cloudy	Wet	19	88	21
2005	4	125cc	OK	Cloudy	Dry	12	80	16
2005	4	250cc	OK	Partly cloudy	Dry	13	74	18
2005	4	MotoGP	OK	Cloudy	Wet	15	68	21
2005	5	125cc	OK	Partly cloudy	Dry	24	31	32
2005	5	250cc	OK	Sunny	Dry	26	22	36
2005	5	MotoGP	OK	Partly cloudy	Dry	27	20	42
2005	6	125cc	OK	Cloudy	Dry	27	14	30
2005	6	250cc	OK	Cloudy	Dry	26	13	29
2005	6	MotoGP	OK	Partly cloudy	Dry	32	12	36
2005	7	125cc	OK	Cloudy	Dry	22	38	31
2005	7	250cc	OK	Cloudy	Dry	19	40	22
2005	7	MotoGP	OK	Sunny	Dry	23	32	30
2005	8	MotoGP	OK	Sunny	Dry	23	29	52
2005	9	125cc	OK
2005	9	250cc	OK	Raining	Wet	15	72	15
2005	9	MotoGP	OK	Raining	Wet	15	77	13
2005	10	125cc	OK	Sunny	Dry	20	27	26
2005	10	250cc	OK	Sunny	Dry	23	18	30
2005	10	MotoGP	OK	Sunny	Dry	21	23	29
2005	11	125cc	OK	Cloudy	Dry	19	34	24
2005	11	250cc	OK	Cloudy	Dry	19	41	21
2005	11	MotoGP	OK
2005	12	125cc	OK	Sunny	Dry	32	11	36
2005	12	250cc	OK	Sunny	Dry	36	11	39
2005	12	MotoGP	OK	Sunny	Dry	34	14	39
2005	13	125cc	OK	Partly cloudy	Dry	27	30	35
2005	13	250cc	OK	Partly cloudy	Dry	38	14	50
2005	13	MotoGP	OK	Partly cloudy	Dry	40	10	51
2005	14	125cc	OK	Sunny	Dry	36	11	46
2005	14	250cc	OK	Sunny	Dry	36	11	48
2005	14	MotoGP	OK	Sunny	Dry	39	10	45
2005	15	125cc	OK	Sunny	Dry	16	34	20
2005	15	250cc	OK	Sunny	Dry	16	36	25
2005	15	MotoGP	OK	Sunny	Dry	16	43	27
2005	16	125cc	OK	Sunny	Dry	15	24	13
2005	16	250cc	OK	Sunny	Dry	18	18	26
2005	16	MotoGP	OK	Sunny	Dry	19	20	25
2005	17	125cc	OK	Sunny	Dry	18	18	24
2005	17	250cc	OK	Sunny	Dry	20	15	28
2005	17	MotoGP	OK	Sunny	Dry	21	14	32
2006	1	125cc	OK	Sunny	Dry	16	31	20
2006	1	250cc	OK	Sunny	Dry	20	23	30
2006	1	MotoGP	OK	Sunny	Dry	22	16	33
2006	2	125cc	OK	Sunny	Dry	25	13	41
2006	2	250cc	OK	Sunny	Dry	26	13	44
2006	2	MotoGP	OK	Sunny	Dry	26	12	41
2006	3	125cc	OK	Cloudy	Dry	13	43	17
2006	3	250cc	OK	Partly cloudy	Dry	16	25	21
2006	3	MotoGP	OK	Cloudy	Dry	16	27	21
2006	4	125cc	OK	Partly cloudy	Dry	21	22	23
2006	4	250cc	OK	Sunny	Dry	24	16	23
2006	4	MotoGP	OK	Sunny	Dry	31	12	26
2006	5	125cc	OK	Partly cloudy	Dry	16	55	16
2006	5	250cc	OK	Cloudy	Dry	18	39	19
2006	5	MotoGP	OK	Partly cloudy	Wet	20	27	29
2006	6	125cc	OK	Sunny	Dry	16	24	19
2006	6	250cc	OK	Sunny	Dry	19	15	27
2006	6	MotoGP	OK	Sunny	Dry	20	14	29
2006	7	125cc	OK	Sunny	Dry	24	36	44
2006	7	250cc	OK	Sunny	Dry	26	31	45
2006	7	MotoGP	OK	Sunny	Dry	27	21	47
2006	8	125cc	OK	Partly cloudy	Dry	18	32	22
2006	8	250cc	OK	Sunny	Dry	22	16	25
2006	8	MotoGP	OK	Partly cloudy	Dry	23	16	29
2006	9	125cc	OK
2006	9	250cc	OK	Partly cloudy	Dry	20	42	31
2006	9	MotoGP	OK	Sunny	Dry	27	20	45
2006	10	125cc	OK	Sunny	Dry	22	16	33
2006	10	250cc	OK	Sunny	Dry	19	17	28
2006	10	MotoGP	OK	Sunny	Dry	20	17	38
2006	11	MotoGP	OK	Sunny	Dry	39	10	56
2006	12	125cc	OK	Sunny	Dry	23	26	26
2006	12	250cc	OK	Sunny	Dry	23	22	32
2006	12	MotoGP	OK	Partly cloudy	Dry	24	21	36
2006	13	125cc	OK	Sunny	Dry	29	40	43
2006	13	250cc	OK	Sunny	Dry	32	25	47
2006	13	MotoGP	OK	Sunny	Dry	33	23	49
2006	14	125cc	OK	Sunny	Dry	22	23	30
2006	14	250cc	OK	Sunny	Dry	24	15	35
2006	14	MotoGP	OK	Partly cloudy	Wet	23	13	33
2006	15	125cc	OK	Sunny	Dry	26	17	36
2006	15	250cc	OK	Sunny	Dry	27	14	45
2006	15	MotoGP	OK	Sunny	Dry	27	11	43
2006	16	125cc	OK	Cloudy	Dry	21	55	27
2006	16	250cc	OK	Cloudy	Dry	20	70	23
2006	16	MotoGP	OK	Cloudy	Dry	20	55	26
2006	17	125cc	OK	Sunny	Dry	31	11	40
2006	17	250cc	OK	Sunny	Dry	32	10	40
2006	17	MotoGP	OK	Sunny	Dry	32	11	43
2007	1	125cc	OK	Sunny	Dry	28	14	45
2007	1	250cc	OK	Sunny	Dry	28	16	47
2007	1	MotoGP	OK	Sunny	Dry	29	11	45
2007	2	125cc	OK	Sunny	Dry	16	37	24
2007	2	250cc	OK	Sunny	Dry	17	12	32
2007	2	MotoGP	OK	Sunny	Dry	19	20	31
2007	3	125cc	OK	Sunny	Dry	22	16	36
2007	3	250cc	OK	Sunny	Dry	24	13	39
2007	3	MotoGP	OK	Sunny	Dry	23	13	38
2007	4	125cc	OK	Sunny	Dry	21	27	29
2007	4	250cc	OK	Sunny	Dry	22	21	31
2007	4	MotoGP	OK	Sunny	Dry	23	21	32
2007	5	125cc	OK	Partly cloudy	Dry	19	23	20
2007	5	250cc	OK	Partly cloudy	Dry	15	37	21
2007	5	MotoGP	OK	Raining	Wet	13	73	16
2007	6	125cc	OK	Partly cloudy	Dry	21	25	24
2007	6	250cc	OK	Partly cloudy	Dry	23	22	27
2007	6	MotoGP	OK	Sunny	Dry	24	20	29
2007	7	125cc	OK	Sunny	Dry	25	14	36
2007	7	250cc	OK	Sunny	Dry	29	12	38
2007	7	MotoGP	OK	Sunny	Dry	31	13	43
2007	8	125cc	OK	Cloudy	Dry	15	70	20
2007	8	250cc	OK	Raining	Wet	14	94	20
2007	8	MotoGP	OK	Cloudy	Wet	14	90	18
2007	9	125cc	OK	Sunny	Dry	16	71	22
2007	9	250cc	OK	Sunny	Dry	19	45	29
2007	9	MotoGP	OK	Sunny	Dry	21	38	32
2007	10	125cc	OK	Sunny	Dry	32	32	41
2007	10	250cc	OK	Sunny	Dry	32	31	38
2007	10	MotoGP	OK	Sunny	Dry	33	28	41
2007	11	MotoGP	OK	Sunny	Dry	30	39	46
2007	12	125cc	OK	Sunny	Dry	25	45	33
2007	12	250cc	OK	Sunny	Dry	25	43	32
2007	12	MotoGP	OK	Sunny	Dry	26	40	35
2007	13	125cc	OK	Sunny	Dry	24	54	32
2007	13	250cc	OK	Sunny	Dry	25	52	38
2007	13	MotoGP	OK	Sunny	Dry	26	48	42
2007	14	125cc	OK	Partly cloudy	Dry	27	46	30
2007	14	250cc	OK	Partly cloudy	Dry	26	55	36
2007	14	MotoGP	OK	Sunny	Dry	28	42	34
2007	15	125cc	OK	Raining	Wet	19	96	22
2007	15	250cc	OK	Raining	Wet	20	95	23
2007	15	MotoGP	OK	Cloudy	Dry	21	90	24
2007	16	125cc	OK	Sunny	Dry	15	57	24
2007	16	250cc	OK	Sunny	Dry	18	50	29
2007	16	MotoGP	OK	Sunny	Dry	20	47	31
2007	17	125cc	OK	Cloudy	Dry	32	54	36
2007	17	250cc	OK	Partly cloudy	Dry	33	48	38
2007	17	MotoGP	OK	Partly cloudy	Dry	32	51	38
2007	18	125cc	OK	Sunny	Dry	17	48	19
2007	18	250cc	OK	Sunny	Dry	18	48	20
2007	18	MotoGP	OK	Sunny	Dry	19	43	25
2008	1	125cc	OK	Sunny	Dry	20	59	28
2008	1	250cc	OK	Sunny	Dry	19	59	25
2008	1	MotoGP	OK	Sunny	Dry	18	58	19
2008	2	125cc	OK	Sunny	Dry	18	55	20
2008	2	250cc	OK	Partly cloudy	Dry	18	48	21
2008	2	MotoGP	OK	Sunny	Dry	19	26	23
2008	3	125cc	OK	Partly cloudy	Dry	18	56	22
2008	3	250cc	OK	Partly cloudy	Dry	18	62	20
2008	3	MotoGP	OK	Sunny	Dry	18	53	21
2008	4	125cc	OK	Cloudy	Wet	20	82	21
2008	4	250cc	OK	Cloudy	Wet	20	77	21
2008	4	MotoGP	OK	Cloudy	Wet	21	72	21
2008	5	125cc	OK	Partly cloudy	Dry	15	42	21
2008	5	250cc	OK	Cloudy	Wet	15	50	15
2008	5	MotoGP	OK	Raining	Dry	20	38	26
2008	6	125cc	OK	Sunny	Dry	28	35	35
2008	6	250cc	OK	Sunny	Dry	29	29	39
2008	6	MotoGP	OK	Sunny	Dry	29	30	42
2008	7	125cc	OK	Sunny	Dry	25	34	33
2008	7	250cc	OK	Sunny	Dry	24	24	26
2008	7	MotoGP	OK	Partly cloudy	Dry	27	34	39
2008	8	125cc	OK	Partly cloudy	Dry	20	46	31
2008	8	250cc	OK	Partly cloudy	Dry	21	19	30
2008	8	MotoGP	OK	Partly cloudy	Dry	20	22	26
2008	9	125cc	OK	Raining	Dry	19	81	20
2008	9	250cc	OK	Cloudy	Wet	20	71	23
2008	9	MotoGP	OK	Partly cloudy	Dry	20	62	24
2008	10	125cc	OK	Cloudy	Dry	16	57	19
2008	10	250cc	OK	Raining	Wet	15	75	18
2008	10	MotoGP	OK	Raining	Wet	14	82	17
2008	11	MotoGP	OK	Sunny	Dry	21	42	34
2008	12	125cc	OK	Sunny	Dry	20	43	31
2008	12	250cc	OK	Partly cloudy	Dry	21	39	30
2008	12	MotoGP	OK	Cloudy	Dry	20	33	29
2008	13	125cc	OK	Sunny	Dry	28	41	34
2008	13	250cc	OK	Sunny	Dry	35	28	43
2008	13	MotoGP	OK	Sunny	Dry	35	29	48
2008	14	125cc	OK	Cloudy	Dry	26	52	25
2008	14	250cc	NO_RACE
2008	14	MotoGP	OK	Raining	Wet	21	89	20
2008	15	125cc	OK	Cloudy	Dry	17	57	20
2008	15	250cc	OK	Cloudy	Dry	18	54	22
2008	15	MotoGP	OK	Cloudy	Dry	19	51	23
2008	16	125cc	OK	Sunny	Dry	20	36	33
2008	16	250cc	OK	Sunny	Dry	18	37	33
2008	16	MotoGP	OK	Sunny	Dry	17	45	27
2008	17	125cc	OK	Sunny	Dry	38	28	44
2008	17	250cc	OK	Sunny	Dry	41	21	48
2008	17	MotoGP	OK	Cloudy	Dry	39	25	42
2008	18	125cc	OK	Sunny	Dry	21	46	26
2008	18	250cc	OK	Sunny	Dry	25	34	31
2008	18	MotoGP	OK	Sunny	Dry	26	41	34
2009	1	125cc	OK	Raining	Dry	25	41	28
2009	1	250cc	OK	Cloudy	Dry	24	41	25
2009	1	MotoGP	OK	Partly cloudy	Dry	22	79	26
2009	2	125cc	OK	Sunny	Dry	17	57	28
2009	2	250cc	OK	Sunny	Dry	21	33	32
2009	2	MotoGP	OK	Sunny	Dry	22	25	31
2009	3	125cc	OK	Sunny	Dry	24	36	34
2009	3	250cc	OK	Sunny	Dry	26	31	40
2009	3	MotoGP	OK	Sunny	Dry	27	31	45
2009	4	125cc	OK	Raining	Wet	12	83	12
2009	4	250cc	OK	Cloudy	Wet	13	82	13
2009	4	MotoGP	OK	Partly cloudy	Wet	16	58	19
2009	5	125cc	OK	Cloudy	Dry	18	52	19
2009	5	250cc	OK	Raining	Wet	15	76	16
2009	5	MotoGP	OK	Partly cloudy	Wet	18	66	20
2009	6	125cc	OK	Partly cloudy	Dry	30	19	37
2009	6	250cc	OK	Sunny	Dry	37	16	47
2009	6	MotoGP	OK	Sunny	Dry	36	12	46
2009	7	125cc	OK	Partly cloudy	Dry	21	65	24
2009	7	250cc	OK	Partly cloudy	Dry	22	63	26
2009	7	MotoGP	OK	Partly cloudy	Dry	24	48	30
2009	8	MotoGP	OK	Sunny	Dry	22	43	42
2009	9	125cc	OK	Sunny	Dry	18	57	26
2009	9	250cc	OK	Cloudy	Wet	16	60	23
2009	9	MotoGP	OK	Partly cloudy	Dry	19	48	27
2009	10	125cc	OK	Raining	Dry	19	58	22
2009	10	250cc	OK	Cloudy	Wet	18	65	19
2009	10	MotoGP	OK	Raining	Wet	18	64	21
2009	11	125cc	OK	Sunny	Dry	26	44	35
2009	11	250cc	OK	Sunny	Dry	27	38	43
2009	11	MotoGP	OK	Sunny	Dry	29	32	45
2009	12	125cc	OK	Sunny	Dry	20	40	24
2009	12	250cc	OK	Partly cloudy	Dry	21	35	28
2009	12	MotoGP	OK	Partly cloudy	Dry	20	35	27
2009	13	125cc	OK	Sunny	Dry	23	36	38
2009	13	250cc	OK	Sunny	Dry	24	34	40
2009	13	MotoGP	OK	Sunny	Dry	24	32	41
2009	14	125cc	OK	Sunny	Dry	26	41	39
2009	14	250cc	OK	Partly cloudy	Dry	23	62	33
2009	14	MotoGP	OK	Sunny	Dry	27	44	38
2009	15	125cc	OK	Partly cloudy	Dry	15	45	27
2009	15	250cc	OK	Partly cloudy	Dry	14	45	26
2009	15	MotoGP	OK	Partly cloudy	Dry	16	45	31
2009	16	125cc	OK	Partly cloudy	Dry	33	44	48
2009	16	250cc	OK	Partly cloudy	Dry	31	49	47
2009	16	MotoGP	OK	Partly cloudy	Wet	27	79	22
2009	17	125cc	OK	Sunny	Dry	15	36	21
2009	17	250cc	OK	Sunny	Dry	19	27	28
2009	17	MotoGP	OK	Sunny	Dry	19	24	29
2010	1	125cc	OK	Cloudy	Dry	25	18	27
2010	1	Moto2	OK	Cloudy	Dry	24	25	26
2010	1	MotoGP	OK	Cloudy	Dry	24	30	26
2010	2	125cc	OK	Sunny	Dry	27	39	40
2010	2	Moto2	OK	Partly cloudy	Dry	26	31	41
2010	2	MotoGP	OK	Sunny	Dry	27	30	44
2010	3	125cc	OK	Sunny	Dry	23	37	39
2010	3	Moto2	OK	Sunny	Dry	31	21	46
2010	3	MotoGP	OK	Sunny	Dry	32	21	51
2010	4	125cc	OK	Sunny	Dry	25	43	43
2010	4	Moto2	OK	Sunny	Dry	30	32	50
2010	4	MotoGP	OK	Sunny	Dry	32	27	54
2010	5	125cc	OK	Partly cloudy	Dry	20	25	38
2010	5	Moto2	OK	Partly cloudy	Dry	16	26	20
2010	5	MotoGP	OK	Partly cloudy	Dry	17	27	29
2010	6	125cc	OK	Sunny	Dry	19	50	22
2010	6	Moto2	OK	Sunny	Dry	20	44	33
2010	6	MotoGP	OK	Sunny	Dry	23	23	48
2010	7	125cc	OK	Sunny	Dry	31	21	44
2010	7	Moto2	OK	Sunny	Dry	32	16	49
2010	7	MotoGP	OK	Sunny	Dry	34	17	49
2010	8	125cc	OK	Cloudy	Wet	17	72	22
2010	8	Moto2	OK	Partly cloudy	Dry	19	56	27
2010	8	MotoGP	OK	Partly cloudy	Dry	20	44	29
2010	9	MotoGP	OK	Sunny	Dry	23	44	40
2010	10	125cc	OK	Cloudy	Wet	22	88	24
2010	10	Moto2	OK	Partly cloudy	Dry	25	57	36
2010	10	MotoGP	OK	Sunny	Dry	26	43	40
2010	11	125cc	OK	Sunny	Dry	33	35	50
2010	11	Moto2	OK	Sunny	Dry	34	26	52
2010	11	MotoGP	OK	Partly cloudy	Dry	35	26	56
2010	12	125cc	OK	Sunny	Dry	25	35	34
2010	12	Moto2	OK	Sunny	Dry	26	37	37
2010	12	MotoGP	OK	Sunny	Dry	27	43	39
2010	13	125cc	OK	Sunny	Dry	18	37	27
2010	13	Moto2	OK	Sunny	Dry	21	33	31
2010	13	MotoGP	OK	Sunny	Dry	23	32	39
2010	14	125cc	OK	Partly cloudy	Dry	24	40	34
2010	14	Moto2	OK	Partly cloudy	Dry	23	43	34
2010	14	MotoGP	OK	Partly cloudy	Dry	23	44	34
2010	15	125cc	OK	Partly cloudy	Dry	33	44	44
2010	15	Moto2	OK	Partly cloudy	Dry	33	34	44
2010	15	MotoGP	OK	Partly cloudy	Dry	33	27	43
2010	16	125cc	OK	Partly cloudy	Dry	15	55	21
2010	16	Moto2	OK	Partly cloudy	Dry	15	55	27
2010	16	MotoGP	OK	Partly cloudy	Dry	15	53	29
2010	17	125cc	OK	Partly cloudy	Dry	19	41	28
2010	17	Moto2	OK	Cloudy	Dry	18	28	21
2010	17	MotoGP	OK	Partly cloudy	Dry	19	41	26
2010	18	125cc	OK	Partly cloudy	Dry	18	47	21
2010	18	Moto2	OK	Sunny	Dry	22	34	28
2010	18	MotoGP	OK	Sunny	Dry	22	33	27
2011	1	125cc	OK	Partly cloudy	Dry	23	11	25
2011	1	Moto2	OK	Partly cloudy	Dry	20	23	21
2011	1	MotoGP	OK	Partly cloudy	Dry	19	31	20
2011	2	125cc	OK	Cloudy	Wet	17	90	20
2011	2	Moto2	OK	Cloudy	Wet	17	89	18
2011	2	MotoGP	OK	Raining	Wet	17	90	15
2011	3	125cc	OK	Partly cloudy	Dry	20	44	40
2011	3	Moto2	OK	Partly cloudy	Dry	18	58	25
2011	3	MotoGP	OK	Partly cloudy	Dry	20	38	38
2011	4	125cc	OK	Partly cloudy	Dry	14	51	22
2011	4	Moto2	OK	Partly cloudy	Dry	16	43	20
2011	4	MotoGP	OK	Partly cloudy	Dry	17	35	29
2011	5	125cc	OK	Partly cloudy	Dry	19	68	25
2011	5	Moto2	OK	Partly cloudy	Dry	22	49	32
2011	5	MotoGP	OK	Partly cloudy	Dry	20	49	25
2011	6	125cc	OK	Raining	Wet	11	79	11
2011	6	Moto2	OK	Raining	Wet	11	82	12
2011	6	MotoGP	OK	Raining	Wet	11	85	10
2011	7	125cc	OK	Cloudy	Dry	15	58	17
2011	7	Moto2	OK	Raining	Wet	13	84	13
2011	7	MotoGP	OK	Cloudy	Dry	14	82	16
2011	8	125cc	OK	Sunny	Dry	21	33	40
2011	8	Moto2	OK	Sunny	Dry	27	25	46
2011	8	MotoGP	OK	Sunny	Dry	29	22	54
2011	9	125cc	OK	Partly cloudy	Dry	24	34	33
2011	9	Moto2	OK	Cloudy	Dry	23	43	30
2011	9	MotoGP	OK	Cloudy	Dry	21	49	29
2011	10	MotoGP	OK	Sunny	Dry	23	39	44
2011	11	125cc	OK	Sunny	Dry	24	44	36
2011	11	Moto2	OK	Sunny	Dry	24	40	35
2011	11	MotoGP	OK	Partly cloudy	Dry	24	37	37
2011	12	125cc	OK	Sunny	Dry	23	48	36
2011	12	Moto2	OK	Sunny	Dry	26	33	45
2011	12	MotoGP	OK	Sunny	Dry	27	34	51
2011	13	125cc	OK	Partly cloudy	Dry	28	54	31
2011	13	Moto2	OK	Cloudy	Dry	27	55	34
2011	13	MotoGP	OK	Partly cloudy	Dry	28	62	35
2011	14	125cc	OK	Cloudy	Dry	19	59	23
2011	14	Moto2	OK	Cloudy	Dry	19	57	24
2011	14	MotoGP	OK	Partly cloudy	Dry	19	50	26
2011	15	125cc	OK	Cloudy	Dry	17	73	25
2011	15	Moto2	OK	Cloudy	Dry	19	59	29
2011	15	MotoGP	OK	Cloudy	Dry	19	55	29
2011	16	125cc	OK	Cloudy	Wet-Dry	14	61	29
2011	16	Moto2	OK	Partly cloudy	Dry	16	54	32
2011	16	MotoGP	OK	Raining	Dry	14	72	26
2011	17	125cc	OK	Partly cloudy	Dry	34	49	55
2011	17	Moto2	OK	Partly cloudy	Dry	34	53	48
2011	17	MotoGP	ERROR
2011	18	125cc	OK	Cloudy	Dry	17	47	16
2011	18	Moto2	OK	Raining	Dry	17	50	16
2011	18	MotoGP	OK	Raining	Wet	17	49	16
2012	1	Moto2	OK	Partly cloudy	Dry	25	55	24
2012	1	Moto3	OK	Partly cloudy	Dry	25	55	28
2012	1	MotoGP	OK	Partly cloudy	Dry	24	53	23
2012	2	Moto2	OK	Raining	Dry	14	73	15
2012	2	Moto3	OK	Cloudy	Dry	14	72	14
2012	2	MotoGP	OK	Raining	Dry	14	78	15
2012	3	Moto2	OK	Partly cloudy	Dry	17	62	32
2012	3	Moto3	OK	Partly cloudy	Dry	17	62	34
2012	3	MotoGP	OK	Partly cloudy	Dry	17	59	35
2012	4	Moto2	OK	Raining	Wet	13	96	14
2012	4	Moto3	OK	Raining	Wet	15	75	11
2012	4	MotoGP	OK	Raining	Wet	13	96	19
2012	5	Moto2	OK	Partly cloudy	Dry	26	47	40
2012	5	Moto3	OK	Cloudy	Dry	26	47	33
2012	5	MotoGP	OK	Partly cloudy	Dry	27	49	40
2012	6	Moto2	OK	Cloudy	Dry	15	69	17
2012	6	Moto3	OK	Cloudy	Dry	18	48	30
2012	6	MotoGP	OK	Cloudy	Dry	15	71	23
2012	7	Moto2	OK	Partly cloudy	Dry	22	51	26
2012	7	Moto3	OK	Partly cloudy	Dry	21	61	32
2012	7	MotoGP	OK	Partly cloudy	Dry	23	44	37
2012	8	Moto2	OK	Partly cloudy	Dry	27	47	43
2012	8	Moto3	OK	Cloudy	Wet	21	61	32
2012	8	MotoGP	OK	Raining	Dry	26	47	37
2012	9	Moto2	OK	Partly cloudy	Dry	25	44	43
2012	9	Moto3	OK	Partly cloudy	Dry	24	47	40
2012	9	MotoGP	OK	Partly cloudy	Dry	25	43	45
2012	10	MotoGP	OK	Sunny	Dry	18	65	24
2012	11	Moto2	OK	Clear	Dry	26	34	42
2012	11	Moto3	OK	Sunny	Dry	25	41	33
2012	11	MotoGP	OK	Partly cloudy	Dry	25	36	39
2012	12	Moto2	OK	Cloudy	Dry	19	81	21
2012	12	Moto3	OK	Cloudy	Wet	17	97	21
2012	12	MotoGP	OK	Cloudy	Dry	18	79	23
2012	13	Moto2	OK	Partly cloudy	Dry	21	66	27
2012	13	Moto3	OK	Partly cloudy	Dry	20	70	16
2012	13	MotoGP	OK	Partly cloudy	Dry	23	56	36
2012	14	Moto2	OK	Clear	Dry	17	54	22
2012	14	Moto3	OK	Clear	Dry	15	67	16
2012	14	MotoGP	OK	Clear	Dry	18	51	23
2012	15	Moto2	OK	Partly cloudy	Dry	21	51	23
2012	15	Moto3	OK	Clear	Dry	22	42	25
2012	15	MotoGP	OK	Cloudy	Dry	20	55	23
2012	16	Moto2	OK	Raining	Wet	26	99	31
2012	16	Moto3	OK	Cloudy	Dry	32	60	48
2012	16	MotoGP	OK	Raining	Wet	25	96	31
2012	17	Moto2	OK	Partly cloudy	Dry	15	59	26
2012	17	Moto3	OK	Cloudy	Dry	14	63	22
2012	17	MotoGP	OK	Partly cloudy	Dry	15	58	26
2012	18	Moto2	OK	Raining	Wet	13	76	15
2012	18	Moto3	OK	Cloudy	Wet	12	84	12
2012	18	MotoGP	OK	Cloudy	Wet	13	81	15
2013	1	Moto2	OK	Clear	Dry	22	68	23
2013	1	Moto3	OK	Clear	Dry	22	60	25
2013	1	MotoGP	OK	Clear	Dry	21	66	23
2013	2	Moto2	OK	Partly cloudy	Dry	22	50	39
2013	2	Moto3	OK	Partly cloudy	Dry	19	62	27
2013	2	MotoGP	OK	Partly cloudy	Dry	23	46	38
2013	3	Moto2	OK	Clear	Dry	26	40	45
2013	3	Moto3	OK	Clear	Dry	23	43	33
2013	3	MotoGP	OK	Clear	Dry	27	38	47
2013	4	Moto2	OK	Cloudy	Dry	12	91	14
2013	4	Moto3	OK	Cloudy	Dry	12	89	11
2013	4	MotoGP	OK	Raining	Wet	12	93	18
2013	5	Moto2	OK	Partly cloudy	Dry	21	61	37
2013	5	Moto3	OK	Partly cloudy	Dry	20	62	38
2013	5	MotoGP	OK	Partly cloudy	Dry	21	62	42
2013	6	Moto2	OK	Clear	Dry	31	29	51
2013	6	Moto3	OK	Partly cloudy	Dry	25	47	34
2013	6	MotoGP	OK	Clear	Dry	31	29	52
2013	7	Moto2	OK	Clear	Dry	18	47	18
2013	7	Moto3	OK	Partly cloudy	Dry	15	62	18
2013	7	MotoGP	OK	Clear	Dry	18	49	18
2013	8	Moto2	OK	Partly cloudy	Dry	22	52	40
2013	8	Moto3	OK	Partly cloudy	Dry	19	64	31
2013	8	MotoGP	OK	Partly cloudy	Dry	23	48	42
2013	9	MotoGP	OK	Clear	Dry	23	48	49
2013	10	Moto2	OK	Partly cloudy	Dry	27	44	40
2013	10	Moto3	OK	Clear	Dry	26	54	37
2013	10	MotoGP	OK	Partly cloudy	Dry	27	42	39
2013	11	Moto2	OK	Cloudy	Dry	17	70	25
2013	11	Moto3	OK	Cloudy	Dry	17	70	22
2013	11	MotoGP	OK	Cloudy	Dry	17	70	23
2013	12	Moto2	OK	Partly cloudy	Dry	16	59	24
2013	12	Moto3	OK	Partly cloudy	Dry	18	53	30
2013	12	MotoGP	OK	Partly cloudy	Dry	18	55	29
2013	13	Moto2	OK	Partly cloudy	Dry	25	53	35
2013	13	Moto3	OK	Partly cloudy	Dry	25	51	31
2013	13	MotoGP	OK	Cloudy	Dry	24	56	31
2013	14	Moto2	OK	Partly cloudy	Dry	23	41	30
2013	14	Moto3	OK	Partly cloudy	Dry	21	60	20
2013	14	MotoGP	OK	Partly cloudy	Dry	23	43	30
2013	15	Moto2	OK	Partly cloudy	Dry	31	58	44
2013	15	Moto3	OK	Partly cloudy	Dry	29	68	40
2013	15	MotoGP	OK	Partly cloudy	Dry	31	58	44
2013	16	Moto2	OK	Partly cloudy	Dry	28	30	38
2013	16	Moto3	OK	Cloudy	Dry	25	31	29
2013	16	MotoGP	OK	Partly cloudy	Dry	28	30	34
2013	17	Moto2	OK	Clear	Dry	19	34	32
2013	17	Moto3	OK	Clear	Dry	17	64	27
2013	17	MotoGP	OK	Clear	Dry	20	33	31
2013	18	Moto2	OK	Partly cloudy	Dry	23	28	23
2013	18	Moto3	OK	Partly cloudy	Dry	19	42	22
2013	18	MotoGP	OK	Partly cloudy	Dry	23	28	26
2014	1	Moto2	OK	Clear	Dry	20	54	19
2014	1	Moto3	OK	Clear	Dry	23	34	22
2014	1	MotoGP	OK	Clear	Dry	20	60	18
2014	2	Moto2	OK	Cloudy	Dry	25	76	28
2014	2	Moto3	OK	Cloudy	Dry	22	87	25
2014	2	MotoGP	OK	Cloudy	Dry	26	71	32
2014	3	Moto2	OK	Partly cloudy	Dry	23	60	21
2014	3	Moto3	OK	Partly cloudy	Dry	21	64	21
2014	3	MotoGP	OK	Partly cloudy	Dry	24	60	37
2014	4	Moto2	OK	Clear	Dry	27	26	44
2014	4	Moto3	OK	Clear	Dry	23	39	29
2014	4	MotoGP	OK	Clear	Dry	28	25	50
2014	5	Moto2	OK	Clear	Dry	23	38	40
2014	5	Moto3	OK	Clear	Dry	21	42	34
2014	5	MotoGP	OK	Clear	Dry	23	35	42
2014	6	Moto2	OK	Clear	Dry	24	27	41
2014	6	Moto3	OK	Clear	Dry	21	41	33
2014	6	MotoGP	OK	Partly cloudy	Dry	26	22	45
2014	7	Moto2	OK	Clear	Dry	25	46	45
2014	7	Moto3	OK	Clear	Dry	23	63	34
2014	7	MotoGP	OK	Partly cloudy	Dry	22	61	34
2014	8	Moto2	OK	Cloudy	Wet	18	72	25
2014	8	Moto3	OK	Partly cloudy	Dry	19	70	25
2014	8	MotoGP	OK	Cloudy	Wet	19	69	25
2014	9	Moto2	OK	Cloudy	Dry	22	43	32
2014	9	Moto3	OK	Partly cloudy	Dry	21	45	31
2014	9	MotoGP	OK	Cloudy	Wet-Dry	21	66	27
2014	10	Moto2	OK	Cloudy	Dry	29	62	43
2014	10	Moto3	OK	Cloudy	Dry	26	71	33
2014	10	MotoGP	OK	Cloudy	Dry	29	61	46
2014	11	Moto2	OK	Partly cloudy	Dry	17	66	26
2014	11	Moto3	OK	Cloudy	Dry	16	68	23
2014	11	MotoGP	OK	Cloudy	Dry	17	71	23
2014	12	Moto2	OK	Partly cloudy	Dry	16	75	26
2014	12	Moto3	OK	Partly cloudy	Dry	19	56	28
2014	12	MotoGP	OK	Partly cloudy	Dry	18	67	29
2014	13	Moto2	OK	Clear	Dry	24	48	34
2014	13	Moto3	OK	Clear	Dry	23	53	30
2014	13	MotoGP	OK	Clear	Dry	25	45	37
2014	14	Moto2	OK	Cloudy	Dry	19	89	21
2014	14	Moto3	OK	Cloudy	Wet	17	100	20
2014	14	MotoGP	OK	Raining	Dry	18	93	20
2014	15	Moto2	OK	Cloudy	Dry	20	55	28
2014	15	Moto3	OK	Partly cloudy	Dry	19	55	28
2014	15	MotoGP	OK	Cloudy	Dry	19	57	27
2014	16	Moto2	OK	Partly cloudy	Dry	16	84	29
2014	16	Moto3	OK	Cloudy	Dry	24	33	27
2014	16	MotoGP	OK	Partly cloudy	Dry	16	84	29
2014	17	Moto2	OK	Clear	Dry	34	56	55
2014	17	Moto3	OK	Clear	Dry	33	56	49
2014	17	MotoGP	OK	Partly cloudy	Dry	36	50	54
2014	18	Moto2	OK	Cloudy	Dry	18	48	22
2014	18	Moto3	OK	Cloudy	Dry	16	61	18
2014	18	MotoGP	OK	Partly cloudy	Dry	18	45	22
2015	1	Moto2	OK	Clear	Dry	22	83	29
2015	1	Moto3	OK	Clear	Dry	23	71	34
2015	1	MotoGP	OK	Clear	Dry	22	83	28
2015	2	Moto2	OK	Raining	Dry	23	85	26
2015	2	Moto3	OK	Cloudy	Dry	22	90	22
2015	2	MotoGP	OK	Partly cloudy	Dry	27	62	36
2015	3	Moto2	OK	Partly cloudy	Dry	25	74	34
2015	3	Moto3	OK	Cloudy	Dry	24	85	30
2015	3	MotoGP	OK	Partly cloudy	Dry	29	71	36
2015	4	Moto2	OK	Partly cloudy	Dry	27	40	32
2015	4	Moto3	OK	Partly cloudy	Dry	23	53	25
2015	4	MotoGP	OK	Partly cloudy	Dry	26	41	30
2015	5	Moto2	OK	Clear	Dry	18	45	30
2015	5	Moto3	OK	Clear	Dry	17	46	24
2015	5	MotoGP	OK	Clear	Dry	18	45	32
2015	6	Moto2	OK	Clear	Dry	25	49	46
2015	6	Moto3	OK	Clear	Dry	22	51	35
2015	6	MotoGP	OK	Clear	Dry	25	48	48
2015	7	Moto2	OK	Clear	Dry	27	48	45
2015	7	Moto3	OK	Clear	Dry	26	46	37
2015	7	MotoGP	OK	Clear	Dry	28	46	49
2015	8	Moto2	OK	Partly cloudy	Dry	21	68	30
2015	8	Moto3	OK	Cloudy	Dry	19	81	25
2015	8	MotoGP	OK	Partly cloudy	Dry	20	66	30
2015	9	Moto2	OK	Partly cloudy	Dry	27	39	40
2015	9	Moto3	OK	Partly cloudy	Dry	25	45	32
2015	9	MotoGP	OK	Partly cloudy	Dry	27	38	42
2015	10	Moto2	OK	Cloudy	Wet	27	74	32
2015	10	Moto3	OK	Light rain	Wet	25	86	26
2015	10	MotoGP	OK	Cloudy	Dry	28	70	35
2015	11	Moto2	OK	Partly cloudy	Dry	25	56	37
2015	11	Moto3	OK	Cloudy	Dry	22	68	26
2015	11	MotoGP	OK	Partly cloudy	Dry	26	54	39
2015	12	Moto2	OK	Cloudy	Wet	17	82	19
2015	12	Moto3	OK	Raining	Wet	16	97	18
2015	12	MotoGP	OK	Raining	Wet	16	85	18
2015	13	Moto2	OK	Partly cloudy	Dry	26	59	32
2015	13	Moto3	OK	Clear	Dry	26	49	27
2015	13	MotoGP	OK	Light rain	Dry	27	34	31
2015	14	Moto2	OK	Partly cloudy	Dry	21	57	34
2015	14	Moto3	OK	Partly cloudy	Dry	16	72	20
2015	14	MotoGP	OK	Partly cloudy	Dry	23	50	39
2015	15	Moto2	OK	Light rain	Wet	19	95	21
2015	15	Moto3	OK	Light rain	Wet	19	95	22
2015	15	MotoGP	OK	Light rain	Wet	19	93	21
2015	16	Moto2	OK	Partly cloudy	Dry	15	60	42
2015	16	Moto3	OK	Partly cloudy	Dry	15	59	36
2015	16	MotoGP	OK	Partly cloudy	Dry	15	59	42
2015	17	Moto2	OK	Cloudy	Dry	35	45	46
2015	17	Moto3	OK	Cloudy	Dry	33	50	43
2015	17	MotoGP	OK	Cloudy	Dry	35	48	47
2015	18	Moto2	OK	Clear	Dry	20	68	29
2015	18	Moto3	OK	Partly cloudy	Dry	20	75	22
2015	18	MotoGP	OK	Clear	Dry	23	63	29
2016	1	Moto2	OK	Clear	Dry	22	68	24
2016	1	Moto3	OK	Clear	Dry	22	61	29
2016	1	MotoGP	OK	Clear	Dry	21	71	23
2016	2	Moto2	OK	Cloudy	Dry	24	90	28
2016	2	Moto3	OK	Light rain	Wet	23	97	27
2016	2	MotoGP	OK	Cloudy	Dry	25	89	30
2016	3	Moto2	OK	Cloudy	Dry	23	73	28
2016	3	Moto3	OK	Partly cloudy	Dry	23	68	28
2016	3	MotoGP	OK	Partly cloudy	Dry	26	62	34
2016	4	Moto2	OK	Clear	Dry	22	65	33
2016	4	Moto3	OK	Clear	Dry	18	86	25
2016	4	MotoGP	OK	Clear	Dry	25	37	40
2016	5	Moto2	OK	Cloudy	Dry	21	39	27
2016	5	Moto3	OK	Partly cloudy	Dry	19	44	21
2016	5	MotoGP	OK	Partly cloudy	Dry	22	40	35
2016	6	Moto2	OK	Clear	Dry	26	41	43
2016	6	Moto3	OK	Clear	Dry	25	41	39
2016	6	MotoGP	OK	Clear	Dry	26	40	48
2016	7	Moto2	OK	Clear	Dry	25	50	42
2016	7	Moto3	OK	Clear	Dry	23	53	34
2016	7	MotoGP	OK	Clear	Dry	27	44	48
2016	8	Moto2	OK	Partly cloudy	Dry	20	61	23
2016	8	Moto3	OK	Partly cloudy	Dry	18	67	28
2016	8	MotoGP	OK	Light rain	Wet	17	88	20
2016	9	Moto2	OK	Light rain	Wet	18	100	19
2016	9	Moto3	OK	Heavy rain	Wet	17	100	18
2016	9	MotoGP	OK	Cloudy	Wet	21	86	24
2016	10	Moto2	OK	Partly cloudy	Dry	26	50	40
2016	10	Moto3	OK	Partly cloudy	Dry	24	55	35
2016	10	MotoGP	OK	Partly cloudy	Dry	27	38	46
2016	11	Moto2	OK	Raining	Wet	16	100	17
2016	11	Moto3	OK	Raining	Wet	16	100	17
2016	11	MotoGP	OK	Cloudy	Wet	17	100	18
2016	12	Moto2	OK	Cloudy	Dry	18	74	18
2016	12	Moto3	OK	Cloudy	Dry	18	76	16
2016	12	MotoGP	OK	Cloudy	Dry	18	72	18
2016	13	Moto2	OK	Partly cloudy	Dry	27	58	34
2016	13	Moto3	OK	Cloudy	Dry	25	64	29
2016	13	MotoGP	OK	Partly cloudy	Dry	28	59	43
2016	14	Moto2	OK	Partly cloudy	Dry	22	62	32
2016	14	Moto3	OK	Partly cloudy	Dry	21	67	27
2016	14	MotoGP	OK	Partly cloudy	Dry	22	58	36
2016	15	Moto2	OK	Clear	Dry	23	30	36
2016	15	Moto3	OK	Clear	Dry	23	34	35
2016	15	MotoGP	OK	Clear	Dry	25	37	36
2016	16	Moto2	OK	Partly cloudy	Dry	12	62	34
2016	16	Moto3	OK	Partly cloudy	Dry	12	58	31
2016	16	MotoGP	OK	Partly cloudy	Dry	12	62	33
2016	17	Moto2	OK	Raining	Wet	31	82	35
2016	17	Moto3	OK	Cloudy	Dry	32	60	40
2016	17	MotoGP	OK	Raining	Wet	25	97	28
2016	18	Moto2	OK	Clear	Dry	20	45	25
2016	18	Moto3	OK	Partly cloudy	Dry	21	43	22
2016	18	MotoGP	OK	Partly cloudy	Dry	22	42	25
2017	1	Moto2	OK	Partly cloudy	Dry	22	92	23
2017	1	Moto3	OK	Partly cloudy	Dry	22	92	24
2017	1	MotoGP	OK	Cloudy	Dry	21	96	22
2017	2	Moto2	OK	Cloudy	Dry	20	58	26
2017	2	Moto3	OK	Cloudy	Dry	21	68	24
2017	2	MotoGP	OK	Cloudy	Dry	20	60	25
2017	3	Moto2	OK	Clear	Dry	21	34	33
2017	3	Moto3	OK	Clear	Dry	20	37	30
2017	3	MotoGP	OK	Clear	Dry	23	31	40
2017	4	Moto2	OK	Clear	Dry	27	35	40
2017	4	Moto3	OK	Clear	Dry	25	44	35
2017	4	MotoGP	OK	Clear	Dry	28	25	41
2017	5	Moto2	OK	Partly cloudy	Dry	20	52	36
2017	5	Moto3	OK	Partly cloudy	Dry	18	52	34
2017	5	MotoGP	OK	Partly cloudy	Dry	21	50	37
2017	6	Moto2	OK	Cloudy	Dry	23	63	31
2017	6	Moto3	OK	Cloudy	Dry	22	65	27
2017	6	MotoGP	OK	Partly cloudy	Dry	25	58	42
2017	7	Moto2	OK	Clear	Dry	32	27	50
2017	7	Moto3	OK	Clear	Dry	32	29	45
2017	7	MotoGP	OK	Clear	Dry	33	20	54
2017	8	Moto2	OK	Cloudy	Dry	17	80	23
2017	8	Moto3	OK	Partly cloudy	Dry	19	67	25
2017	8	MotoGP	OK	Cloudy	Wet	18	76	25
2017	9	Moto2	OK	Cloudy	Dry	20	58	29
2017	9	Moto3	OK	Partly cloudy	Dry	20	59	29
2017	9	MotoGP	OK	Cloudy	Dry	18	65	26
2017	10	Moto2	OK	Cloudy	Dry	20	80	22
2017	10	Moto3	OK	Cloudy	Wet	19	89	21
2017	10	MotoGP	OK	Light rain	Wet	21	70	24
2017	11	Moto2	OK	Partly cloudy	Dry	21	52	33
2017	11	Moto3	OK	Partly cloudy	Dry	20	56	25
2017	11	MotoGP	OK	Partly cloudy	Dry	23	46	30
2017	12	Moto2	OK	Clear	Dry	23	42	40
2017	12	Moto3	OK	Clear	Dry	23	44	40
2017	12	MotoGP	OK	Clear	Dry	25	36	40
2017	13	Moto2	OK	Raining	Wet	17	96	17
2017	13	Moto3	OK	Light rain	Wet	18	95	18
2017	13	MotoGP	OK	Light rain	Wet	18	97	19
2017	14	Moto2	OK	Clear	Dry	26	50	37
2017	14	Moto3	OK	Clear	Dry	22	66	30
2017	14	MotoGP	OK	Clear	Dry	27	44	40
2017	15	Moto2	OK	Raining	Wet	14	97	15
2017	15	Moto3	OK	Raining	Wet	15	99	16
2017	15	MotoGP	OK	Raining	Wet	14	97	15
2017	16	Moto2	OK	Partly cloudy	Dry	16	81	29
2017	16	Moto3	OK	Partly cloudy	Dry	15	83	24
2017	16	MotoGP	OK	Partly cloudy	Dry	16	79	29
2017	17	Moto2	OK	Partly cloudy	Dry	33	59	46
2017	17	Moto3	OK	Partly cloudy	Dry	34	54	49
2017	17	MotoGP	OK	Raining	Dry	25	89	33
2017	18	Moto2	OK	Clear	Dry	22	29	25
2017	18	Moto3	OK	Clear	Dry	20	36	20
2017	18	MotoGP	OK	Clear	Dry	25	22	26
