id	firstName	lastName	country	number
maverick-vinales	Maverick	Viñales	SPA	25
andrea-dovizioso	Andrea	Dovizioso	ITA	4
valentino-rossi	Valentino	Rossi	ITA	46
marc-marquez	Marc	Marquez	SPA	93
dani-pedrosa	Dani	Pedrosa	SPA	26
aleix-espargaro	Aleix	Espargaro	SPA	41
scott-redding	Scott	Redding	GBR	45
jack-miller	Jack	Miller	AUS	43
alex-rins	Alex	Rins	SPA	42
jonas-folger	Jonas	Folger	GER	94
jorge-lorenzo	Jorge	Lorenzo	SPA	99
loris-baz	Loris	Baz	FRA	76
hector-barbera	Hector	Barbera	SPA	8
karel-abraham	Karel	Abraham	CZE	17
tito-rabat	Tito	Rabat	SPA	53
pol-espargaro	Pol	Espargaro	SPA	44
bradley-smith	Bradley	Smith	GBR	38
sam-lowes	Sam	Lowes	GBR	22
danilo-petrucci	Danilo	Petrucci	ITA	9
andrea-iannone	Andrea	Iannone	ITA	29
alvaro-bautista	Alvaro	Bautista	SPA	19
johann-zarco	Johann	Zarco	FRA	5
cal-crutchlow	Cal	Crutchlow	GBR	35
franco-morbidelli	Franco	Morbidelli	ITA	21
thomas-luthi	Thomas	Luthi	SWI	12
takaaki-nakagami	Takaaki	Nakagami	JPN	30
miguel-oliveira	Miguel	Oliveira	POR	44
alex-marquez	Alex	Marquez	SPA	73
luca-marini	Luca	Marini	ITA	10
fabio-quartararo	Fabio	Quartararo	FRA	40
lorenzo-baldassarri	Lorenzo	Baldassarri	ITA	7
xavi-vierge	Xavi	Vierge	SPA	97
axel-pons	Axel	Pons	SPA	49
dominique-aegerter	Dominique	Aegerter	SWI	77
francesco-bagnaia	Francesco	Bagnaia	ITA	42
danny-kent	Danny	Kent	GBR	52
jesko-raffin	Jesko	Raffin	SWI	2
xavier-simeon	Xavier	Simeon	BEL	19
marcel-schrotter	Marcel	Schrotter	GER	23
simone-corsi	Simone	Corsi	ITA	24
yonny-hernandez	Yonny	Hernandez	COL	68
tetsuta-nagashima	Tetsuta	Nagashima	JPN	45
brad-binder	Brad	Binder	RSA	41
isaac-vinales	Isaac	Viñales	SPA	32
sandro-cortese	Sandro	Cortese	GER	11
julian-simon	Julian	Simon	SPA	60
mattia-pasini	Mattia	Pasini	ITA	54
ricard-cardus	Ricard	Cardus	SPA	88
edgar-pons	Edgar	Pons	SPA	57
andrea-locatelli	Andrea	Locatelli	ITA	5
khairul-idham-pawi	Khairul Idham	Pawi	MAL	89
stefano-manzi	Stefano	Manzi	ITA	62
jorge-navarro	Jorge	Navarro	SPA	9
hafizh-syahrin	Hafizh	Syahrin	MAL	55
saeed-al-sulaiti	Saeed	Al Sulaiti	QAT	8
remy-gardner	Remy	Gardner	AUS	87
joan-mir	Joan	Mir	SPA	36
john-mcphee	John	McPhee	GBR	17
jorge-martin	Jorge	Martin	SPA	88
aron-canet	Aron	Canet	SPA	44
romano-fenati	Romano	Fenati	ITA	5
andrea-migno	Andrea	Migno	ITA	16
niccolo-antonelli	Niccolo	Antonelli	ITA	23
fabio-di-giannantonio	Fabio	Di Giannantonio	ITA	21
marcos-ramirez	Marcos	Ramirez	SPA	42
adam-norrodin	Adam	Norrodin	MAL	7
ayumu-sasaki	Ayumu	Sasaki	JPN	71
livio-loi	Livio	Loi	BEL	11
darryn-binder	Darryn	Binder	RSA	40
nicolo-bulega	Nicolò	Bulega	ITA	8
tatsuki-suzuki	Tatsuki	Suzuki	JPN	24
enea-bastianini	Enea	Bastianini	ITA	33
jules-danilo	Jules	Danilo	FRA	95
nakarin-atiratphuvapat	Nakarin	Atiratphuvapat	THA	41
kaito-toba	Kaito	Toba	JPN	27
jakub-kornfeil	Jakub	Kornfeil	CZE	84
maria-herrera	Maria	Herrera	SPA	6
manuel-pagliani	Manuel	Pagliani	ITA	96
lorenzo-dalla-porta	Lorenzo	Dalla Porta	ITA	48
tony-arbolino	Tony	Arbolino	ITA	14
marco-bezzecchi	Marco	Bezzecchi	ITA	12
bo-bendsneyder	Bo	Bendsneyder	NED	64
patrik-pulkkinen	Patrik	Pulkkinen	FIN	4
juan-francisco-guevara	Juan Francisco	Guevara	SPA	58
philipp-oettl	Philipp	Oettl	GER	65
albert-arenas	Albert	Arenas	SPA	75
axel-bassani	Axel	Bassani	ITA	47
gabriel-rodrigo	Gabriel	Rodrigo	ARG	19
gabriel-martinez-abrego	Gabriel	Martinez-Abrego	MEX	18
takuya-tsuda	Takuya	Tsuda	JPN	12
federico-fuligni	Federico	Fuligni	ITA	22
iker-lecuona	Iker	Lecuona	SPA	27
raul-fernandez	Raul	Fernandez	SPA	31
vicente-perez	Vicente	Perez	SPA	63
sylvain-guintoli	Sylvain	Guintoli	FRA	50
tarran-mackenzie	Tarran	Mackenzie	GBR	6
michele-pirro	Michele	Pirro	ITA	51
augusto-fernandez	Augusto	Fernandez	SPA	37
edoardo-sintoni	Edoardo	Sintoni	ITA	30
aleix-viu	Aleix	Viu	SPA	81
ryan-van-de-lagemaat	Ryan	Van De Lagemaat	NED	28
mika-kallio	Mika	Kallio	FIN	36
hector-garzo	Hector	Garzo	SPA	14
tim-georgi	Tim	Georgi	GER	77
karel-hanika	Karel	Hanika	CZE	98
joe-roberts	Joe	Roberts	USA	20
dennis-foggia	Dennis	Foggia	ITA	10
jaume-masia	Jaume	Masia	SPA	15
maximilian-kofler	Maximilian	Kofler	AUT	13
alex-de-angelis	Alex	De Angelis	RSM	15
jake-dixon	Jake	Dixon	GBR	94
tom-booth-amos	Tom	Booth-Amos	GBR	69
jake-archer	Jake	Archer	GBR	47
alex-fabbri	Alex	Fabbri	RSM	57
kevin-zannoni	Kevin	Zannoni	ITA	51
steven-odendaal	Steven	Odendaal	RSA	4
aaron-polanco	Aaron	Polanco	SPA	37
katsuyuki-nakasuga	Katsuyuki	Nakasuga	JPN	21
hiroshi-aoyama	Hiroshi	Aoyama	JPN	7
kohta-nozane	Kohta	Nozane	JPN	31
ikuhiro-enokido	Ikuhiro	Enokido	JPN	33
ryo-mizuno	Ryo	Mizuno	JPN	34
tom-toparis	Tom	Toparis	AUS	70
broc-parkes	Broc	Parkes	AUS	23
michael-van-der-mark	Michael	Van Der Mark	NED	60
dimas-ekky-pratama	Dimas	Ekky Pratama	INA	26
kasma-daniel-kasmayudin	Kasma Daniel	Kasmayudin	MAL	9
eric-granado	Eric	Granado	BRA	51
kazuki-masaki	Kazuki	Masaki	JPN	39
eugene-laverty	Eugene	Laverty	IRL	50
stefan-bradl	Stefan	Bradl	GER	6
luis-salom	Luis	Salom	SPA	39
ratthapark-wilairot	Ratthapark	Wilairot	THA	14
robin-mulhauser	Robin	Mulhauser	SWI	70
alessandro-tonucci	Alessandro	Tonucci	ITA	33
efren-vazquez	Efren	Vazquez	SPA	8
hiroki-ono	Hiroki	Ono	JPN	76
alexis-masbou	Alexis	Masbou	FRA	10
stefano-valtulini	Stefano	Valtulini	ITA	43
lorenzo-petrarca	Lorenzo	Petrarca	ITA	77
fabio-spiranelli	Fabio	Spiranelli	ITA	3
davide-pizzoli	Davide	Pizzoli	ITA	37
enzo-boulom	Enzo	Boulom	FRA	99
danny-eslick	Danny	Eslick	USA	69
ramdan-rosli	Ramdan	Rosli	MAL	93
danny-webb	Danny	Webb	GBR	22
maximilian-kappler	Maximilian	Kappler	GER	97
anthony-west	Anthony	West	AUS	95
alex-lowes	Alex	Lowes	GBR	22
javier-fores	Javier	Fores	SPA	12
nicky-hayden	Nicky	Hayden	USA	69
alan-techer	Alan	Techer	FRA	89
mike-jones	Mike	Jones	AUS	7
naomichi-uramoto	Naomichi	Uramoto	JPN	63
taro-sekiguchi	Taro	Sekiguchi	JPN	84
shizuka-okazaki	Shizuka	Okazaki	JPN	13
alessandro-nocco	Alessandro	Nocco	ITA	20
matt-barton	Matt	Barton	AUS	14
hafiq-azmi	Hafiq	Azmi	MAL	38
hugo-clere	Hugo	Clere	FRA	16
daniel-saez	Daniel	Saez	SPA	26
mike-di-meglio	Mike	Di Meglio	FRA	63
marco-melandri	Marco	Melandri	ITA	33
louis-rossi	Louis	Rossi	FRA	96
randy-krummenacher	Randy	Krummenacher	SWI	4
azlan-shah	Azlan	Shah	MAL	25
thitipong-warokorn	Thitipong	Warokorn	THA	10
florian-alt	Florian	Alt	GER	66
zaqhwan-zaidi	Zaqhwan	Zaidi	MAL	51
matteo-ferrari	Matteo	Ferrari	ITA	12
zulfahmi-khairuddin	Zulfahmi	Khairuddin	MAL	63
loris-cresson	Loris	Cresson	BEL	61
niklas-ajo	Niklas	Ajo	FIN	31
ana-carrasco	Ana	Carrasco	SPA	22
louis-bulle	Louis	Bulle	FRA	20
anthony-groppi	Anthony	Groppi	ITA	73
jasper-iwema	Jasper	Iwema	NED	13
jorel-boerboom	Jorel	Boerboom	NED	25
kevin-hanus	Kevin	Hanus	GER	86
michael-laverty	Michael	Laverty	GBR	70
claudio-corti	Claudio	Corti	ITA	71
jonas-geitner	Jonas	Geitner	GER	45
toni-elias	Toni	Elias	SPA	24
federico-caricasulo	Federico	Caricasulo	ITA	64
bradley-ray	Bradley	Ray	GBR	28
luke-hedger	Luke	Hedger	GBR	26
taz-taylor	Taz	Taylor	GBR	66
adrian-gyutai	Adrian	Gyutai	HUN	90
sena-yamada	Sena	Yamada	JPN	81
takumi-takahashi	Takumi	Takahashi	JPN	72
kousuke-akiyoshi	Kousuke	Akiyoshi	JPN	64
tomoyoshi-koyama	Tomoyoshi	Koyama	JPN	71
yuki-takahashi	Yuki	Takahashi	JPN	72
joshua-hook	Joshua	Hook	AUS	16
keisuke-kurihara	Keisuke	Kurihara	JPN	27
damian-cudlin	Damian	Cudlin	AUS	55
olly-simpson	Olly	Simpson	AUS	35
lucas-mahias	Lucas	Mahias	FRA	90
colin-edwards	Colin	Edwards	USA	5
esteve-rabat	Esteve	Rabat	SPA	53
jordi-torres	Jordi	Torres	SPA	81
roman-ramos	Roman	Ramos	SPA	97
nicolas-terol	Nicolas	Terol	SPA	18
mashel-al-naimi	Mashel	Al Naimi	QAT	98
gino-rea	Gino	Rea	GBR	8
josh-herrin	Josh	Herrin	USA	2
scott-deroue	Scott	Deroue	NED	9
luca-grunwald	Luca	Grünwald	GER	43
bryan-schouten	Bryan	Schouten	NED	51
gabriel-ramos	Gabriel	Ramos	VEN	4
arthur-sissis	Arthur	Sissis	AUS	61
sebastian-porto	Sebastian	Porto	ARG	99
michael-ruben-rinaldi	Michael Ruben	Rinaldi	ITA	34
michel-fabrizio	Michel	Fabrizio	ITA	84
simone-mazzola	Simone	Mazzola	ITA	16
thomas-van-leeuwen	Thomas	Van Leeuwen	NED	71
nina-prinz	Nina	Prinz	GER	33
leon-camier	Leon	Camier	GBR	2
riccardo-russo	Riccardo	Russo	ITA	84
miroslav-popov	Miroslav	Popov	CZE	59
jeremy-mcwilliams	Jeremy	McWilliams	GBR	9
dakota-mamola	Dakota	Mamola	BEL	80
joe-irving	Joe	Irving	GBR	66
florian-marino	Florian	Marino	FRA	20
kenny-noyes	Kenny	Noyes	USA	9
chalermpol-polamai	Chalermpol	Polamai	THA	65
hikari-okubo	Hikari	Okubo	JPN	83
aiden-wagner	Aiden	Wagner	AUS	41
max-croker	Max	Croker	AUS	42
roberto-rolfo	Roberto	Rolfo	ITA	44
decha-kraisart	Decha	Kraisart	THA	46
hafiza-rofa	Hafiza	Rofa	MAL	88
randy-de-puniet	Randy	De Puniet	FRA	14
ben-spies	Ben	Spies	USA	11
lukas-pesek	Lukas	Pesek	CZE	52
bryan-staring	Bryan	Staring	AUS	67
sergio-gadea	Sergio	Gadea	SPA	33
kyle-smith	Kyle	Smith	GBR	9
doni-tata-pradita	Doni Tata	Pradita	INA	7
alberto-moncayo	Alberto	Moncayo	SPA	17
rafid-topan-sucipto	Rafid Topan	Sucipto	INA	97
toni-finsterbusch	Toni	Finsterbusch	GER	9
hyuga-watanabe	Hyuga	Watanabe	JPN	29
blake-young	Blake	Young	USA	79
dani-rivas	Dani	Rivas	SPA	27
alex-marinelarena	Alex	Mariñelarena	SPA	92
christophe-arciero	Christophe	Arciero	FRA	18
michael-coletti	Michael	Coletti	ITA	93
javier-del-amor	Javier	Del Amor	SPA	77
ivan-silva	Ivan	Silva	SPA	22
luca-amato	Luca	Amato	GER	21
james-rispoli	James	Rispoli	USA	43
martin-bauer	Martin	Bauer	AUT	45
jason-o-halloran	Jason	O'Halloran	AUS	22
kyle-ryde	Kyle	Ryde	GBR	37
wayne-ryan	Wayne	Ryan	GBR	98
ezequiel-iturrioz	Ezequiel	Iturrioz	ARG	34
luca-scassa	Luca	Scassa	ITA	23
fadli-immammuddin	Fadli	Immammuddin	INA	62
aizat-malik	Aizat	Malik	MAL	79
luca-gruenwald	Luca	Gruenwald	GER	43
lachlan-kavney	Lachlan	Kavney	AUS	75
casey-stoner	Casey	Stoner	AUS	1
james-ellison	James	Ellison	GBR	77
angel-rodriguez	Angel	Rodriguez	SPA	47
marco-colandrea	Marco	Colandrea	SWI	10
alexander-lundh	Alexander	Lundh	SWE	7
elena-rosell	Elena	Rosell	SPA	82
max-neukirchner	Max	Neukirchner	GER	76
nasser-hasan-al-malki	Nasser Hasan	Al Malki	QAT	96
hector-faubel	Hector	Faubel	SPA	55
ivan-moreno	Ivan	Moreno	SPA	21
adrian-martin	Adrian	Martin	SPA	26
kenta-fujii	Kenta	Fujii	JPN	51
simone-grotzkyj	Simone	Grotzkyj	ITA	15
luigi-morciano	Luigi	Morciano	ITA	3
giulian-pedone	Giulian	Pedone	SWI	30
josep-rodriguez	Josep	Rodriguez	SPA	28
joan-olive	Joan	Olive	SPA	6
manuel-tatasciore	Manuel	Tatasciore	ITA	73
armando-pontone	Armando	Pontone	ITA	80
chris-vermeulen	Chris	Vermeulen	AUS	7
alessandro-andreozzi	Alessandro	Andreozzi	ITA	22
fraser-rogers	Fraser	Rogers	GBR	79
julian-miralles	Julian	Miralles	SPA	40
franco-battaini	Franco	Battaini	ITA	2
kevin-wahr	Kevin	Wahr	GER	11
markus-reiterberger	Markus	Reiterberger	GER	21
massimo-roccoli	Massimo	Roccoli	ITA	55
kevin-calia	Kevin	Calia	ITA	74
riccardo-moretti	Riccardo	Moretti	ITA	20
steve-rapp	Steve	Rapp	USA	15
aaron-yates	Aaron	Yates	USA	20
jonathan-rea	Jonathan	Rea	GBR	56
david-salom	David	Salom	SPA	44
yuudai-kamei	Yuudai	Kamei	JPN	82
lincoln-gilding	Lincoln	Gilding	AUS	75
sam-clarke	Sam	Clarke	AUS	36
marco-simoncelli	Marco	Simoncelli	ITA	58
loris-capirossi	Loris	Capirossi	ITA	65
jules-cluzel	Jules	Cluzel	FRA	16
kenan-sofuoglu	Kenan	Sofuoglu	TUR	54
valentin-debise	Valentin	Debise	FRA	53
alex-baldolini	Alex	Baldolini	ITA	25
robertino-pietri	Robertino	Pietri	VEN	39
raffaele-de-rosa	Raffaele	De Rosa	ITA	35
kevin-coghlan	Kevin	Coghlan	GBR	49
santiago-hernandez	Santiago	Hernandez	COL	64
taylor-mackenzie	Taylor	Mackenzie	GBR	17
daniel-kartheininger	Daniel	Kartheininger	GER	12
harry-stafford	Harry	Stafford	GBR	21
francesco-mauriello	Francesco	Mauriello	ITA	43
joan-perello	Joan	Perello	SPA	36
john-hopkins	John	Hopkins	USA	21
lukasz-wargala	Lukasz	Wargala	POL	99
daniel-ruiz	Daniel	Ruiz	SPA	34
peter-sebestyen	Peter	Sebestyen	HUN	56
sarath-kumar	Sarath	Kumar	IND	69
alexander-cudlin	Alexander	Cudlin	AUS	8
kevin-szalai	Kevin	Szalai	FRA	91
kevin-thobois	Kevin	Thobois	FRA	92
carmelo-morales	Carmelo	Morales	SPA	31
sturla-fagerhaug	Sturla	Fagerhaug	NOR	50
jerry-van-de-bunt	Jerry	Van De Bunt	NED	67
ernst-dubbink	Ernst	Dubbink	NED	61
mattia-tarozzi	Mattia	Tarozzi	ITA	70
tommaso-lorenzetti	Tommaso	Lorenzetti	ITA	24
massimo-parziani	Massimo	Parziani	ITA	88
felix-forstenhaeusler	Felix	Forstenhaeusler	GER	78
marvin-fritz	Marvin	Fritz	GER	70
ben-bostrom	Ben	Bostrom	USA	23
ladislav-chmelik	Ladislav	Chmelik	CZE	24
martin-cardenas	Martin	Cardenas	COL	10
jd-beach	JD	Beach	USA	73
jacob-gagne	Jacob	Gagne	USA	32
alessandro-giorgi	Alessandro	Giorgi	ITA	27
damien-raemy	Damien	Raemy	SWI	90
pedro-rodriguez	Pedro	Rodriguez	SPA	37
shinichi-ito	Shinichi	Ito	JPN	72
hikari-ookubo	Hikari	Ookubo	JPN	82
syunya-mori	Syunya	Mori	JPN	65
takehiro-yamamoto	Takehiro	Yamamoto	JPN	79
luca-fabrizio	Luca	Fabrizio	ITA	89
jun-ohnishi	Jun	Ohnishi	JPN	80
blake-leigh-smith	Blake	Leigh-Smith	AUS	56
kris-mclaren	Kris	McLaren	AUS	43
nicky-diles	Nicky	Diles	AUS	47
mohamad-zamri-baba	Mohamad	Zamri Baba	MAL	87
apiwat-wongthananon	Apiwat	Wongthananon	THA	23
farid-badrul	Farid	Badrul	MAL	64
josh-hayes	Josh	Hayes	USA	41
oscar-climent	Oscar	Climent	SPA	61
shoya-tomizawa	Shoya	Tomizawa	JPN	48
alex-debon	Alex	Debon	SPA	6
gabor-talmacsi	Gabor	Talmacsi	HUN	2
fonsi-nieto	Fonsi	Nieto	SPA	10
arne-tode	Arne	Tode	GER	41
anthony-delhalle	Anthony	Delhalle	FRA	96
vladimir-ivanov	Vladimir	Ivanov	UKR	61
niccolo-canepa	Niccolo	Canepa	ITA	59
bernat-martinez	Bernat	Martinez	SPA	76
yannick-guerra	Yannick	Guerra	SPA	88
vladimir-leonov	Vladimir	Leonov	RUS	21
luca-marconi	Luca	Marconi	ITA	87
quentin-jacquet	Quentin	Jacquet	FRA	80
marco-ravaioli	Marco	Ravaioli	ITA	72
lorenzo-savadori	Lorenzo	Savadori	ITA	32
amadeo-llados	Amadeo	Llados	SPA	92
johnny-rosell	Johnny	Rosell	SPA	59
gregory-di-carlo	Gregory	Di Carlo	FRA	81
morgan-berchet	Morgan	Berchet	FRA	83
tommaso-gabrielli	Tommaso	Gabrielli	ITA	96
deane-brown	Deane	Brown	GBR	75
james-lodge	James	Lodge	GBR	74
pepijn-bijsterbosch	Pepijn	Bijsterbosch	NED	66
roy-pouw	Roy	Pouw	NED	65
wataru-yoshikawa	Wataru	Yoshikawa	JPN	8
yusuke-teshima	Yusuke	Teshima	JPN	11
eduard-lopez	Eduard	Lopez	SPA	17
sascha-hommel	Sascha	Hommel	GER	32
eric-hubsch	Eric	Hubsch	GER	85
roger-lee-hayden	Roger Lee	Hayden	USA	95
patrik-vostarek	Patrik	Vostarek	CZE	81
jason-di-salvo	Jason	Di Salvo	USA	42
michael-ranseder	Michael	Ranseder	AUT	56
ferruccio-lamborghini	Ferruccio	Lamborghini	ITA	70
tatsuya-yamaguchi	Tatsuya	Yamaguchi	JPN	99
giovanni-bonati	Giovanni	Bonati	ITA	79
kazuki-watanabe	Kazuki	Watanabe	JPN	28
robin-barbosa	Robin	Barbosa	FRA	37
alejandro-pardo	Alejandro	Pardo	ITA	27
kouki-takahashi	Kouki	Takahashi	JPN	93
hiromichi-kunikawa	Hiromichi	Kunikawa	JPN	66
sasuke-shinozaki	Sasuke	Shinozaki	JPN	91
yuma-yahagi	Yuma	Yahagi	JPN	89
wayne-maxwell	Wayne	Maxwell	AUS	47
joel-taylor	Joel	Taylor	AUS	57
carlos-checa	Carlos	Checa	SPA	71
sete-gibernau	Sete	Gibernau	SPA	59
james-toseland	James	Toseland	GBR	52
roberto-locatelli	Roberto	Locatelli	ITA	15
bastien-chesaux	Bastien	Chesaux	SWI	8
imre-toth	Imre	Toth	HUN	10
aitor-rodriguez	Aitor	Rodriguez	SPA	77
cameron-beaubier	Cameron	Beaubier	USA	16
lorenzo-zanetti	Lorenzo	Zanetti	ITA	8
lukas-sembera	Lukas	Sembera	CZE	69
luca-vitali	Luca	Vitali	ITA	10
matthew-hoyle	Matthew	Hoyle	GBR	66
shuhei-aoyama	Shuhei	Aoyama	JPN	73
yuuichi-yanagisawa	Yuuichi	Yanagisawa	JPN	58
hiroomi-iwata	Hiroomi	Iwata	JPN	55
satoru-kamada	Satoru	Kamada	JPN	59
yuki-oogane	Yuki	Oogane	JPN	57
ivan-maestro	Ivan	Maestro	SPA	76
borja-maestro	Borja	Maestro	SPA	41
jordi-dalmau	Jordi	Dalmau	SPA	31
toby-markham	Toby	Markham	GBR	54
steven-le-coquen	Steven	Le Coquen	FRA	52
cyril-carrillo	Cyril	Carrillo	FRA	36
balazs-nemeth	Balazs	Nemeth	HUN	11
daniel-arcas	Daniel	Arcas	SPA	37
davide-stirpe	Davide	Stirpe	ITA	64
gennaro-sabatino	Gennaro	Sabatino	ITA	63
stevie-bonsey	Stevie	Bonsey	USA	51
karel-pesek	Karel	Pesek	CZE	86
joakim-stensmo	Joakim	Stensmo	SWE	66
eeki-kuparinen	Eeki	Kuparinen	FIN	81
luke-mossey	Luke	Mossey	GBR	64
ralf-waldmann	Ralf	Waldmann	GER	95
paul-jordan	Paul	Jordan	IRL	92
timothy-hastings	Timothy	Hastings	GBR	90
martin-glossop	Martin	Glossop	GBR	91
ivan-visak	Ivan	Visak	CRO	68
barrett-long	Barrett	Long	USA	29
adam-roberts	Adam	Roberts	CAN	30
ben-young	Ben	Young	USA	74
miles-thornton	Miles	Thornton	USA	75
gabriele-ferro	Gabriele	Ferro	ITA	65
jacub-jantulik	Jacub	Jantulik	SVK	70
christopher-moretti	Christopher	Moretti	ITA	88
brad-gross	Brad	Gross	AUS	97
andrew-lawson	Andrew	Lawson	AUS	54
levi-day	Levi	Day	AUS	98
elly-ilias	Elly	Ilias	MAL	28
muhammad-zulfahmi	Muhammad	Zulfahmi	MAL	23
william-dunlop	William	Dunlop	IRL	33
shinya-nakano	Shinya	Nakano	JPN	56
fabrizio-lai	Fabrizio	Lai	ITA	32
manuel-poggiali	Manuel	Poggiali	RSM	54
manuel-hernandez	Manuel	Hernandez	SPA	43
stefano-bianco	Stefano	Bianco	ITA	27
pablo-nieto	Pablo	Nieto	SPA	22
pere-tutusaus	Pere	Tutusaus	SPA	30
robin-lasser	Robin	Lasser	GER	21
dino-lombardi	Dino	Lombardi	ITA	13
hugo-van-den-berg	Hugo	Van Den Berg	NED	56
roberto-lacalendola	Roberto	Lacalendola	ITA	19
robert-muresan	Robert	Muresan	ROU	95
federico-sandi	Federico	Sandi	ITA	90
russel-gomez	Russel	Gomez	SPA	7
ho-wan-chow	Ho Wan	Chow	CHN	89
gioele-pellino	Gioele	Pellino	ITA	61
tobias-siegert	Tobias	Siegert	GER	41
tadayuki-okada	Tadayuki	Okada	JPN	8
lee-costello	Lee	Costello	GBR	67
connor-behan	Connor	Behan	GBR	66
luke-hinton	Luke	Hinton	GBR	65
frederik-watz	Frederik	Watz	SWE	64
robert-gull	Robert	Gull	SWE	84
joey-litjens	Joey	Litjens	NED	80
alen-gyorfi	Alen	Gyorfi	HUN	93
toni-wirsing	Toni	Wirsing	GER	94
sebastian-kreuziger	Sebastian	Kreuziger	GER	88
jamie-hacking	Jamie	Hacking	USA	12
michal-prasek	Michal	Prasek	CZE	97
andrea-touskova	Andrea	Touskova	CZE	98
pj-jacobsen	PJ	Jacobsen	USA	54
kristian-lee-turner	Kristian Lee	Turner	USA	90
takumi-endoh	Takumi	Endoh	JPN	69
yuuki-ito	Yuuki	Ito	JPN	68
kazuma-watanabe	Kazuma	Watanabe	JPN	62
iori-namihira	Iori	Namihira	JPN	57
enrique-jerez	Enrique	Jerez	SPA	28
jed-metcher	Jed	Metcher	AUS	91
rhys-moller	Rhys	Moller	AUS	70
nobuatsu-aoki	Nobuatsu	Aoki	JPN	9
cristian-trabalon	Cristian	Trabalon	SPA	25
alex-barros	Alex	Barros	BRA	4
alex-hofmann	Alex	Hofmann	GER	66
olivier-jacque	Olivier	Jacque	FRA	19
kenny-roberts-jr	Kenny	Roberts Jr	USA	10
makoto-tamada	Makoto	Tamada	JPN	6
andrew-pitt	Andrew	Pitt	AUS	88
dirk-heidolf	Dirk	Heidolf	GER	28
arturo-tizon	Arturo	Tizon	SPA	9
steve-bonsey	Steve	Bonsey	USA	51
roberto-tamburini	Roberto	Tamburini	ITA	20
alvaro-molina	Alvaro	Molina	SPA	31
santiago-barragan	Santiago	Barragan	SPA	53
jin-xiao	Jin	Xiao	CHN	63
romain-maitre	Romain	Maitre	FRA	46
julien-cartron	Julien	Cartron	FRA	48
kurtis-roberts	Kurtis	Roberts	USA	80
thomas-tallevi	Thomas	Tallevi	ITA	65
omar-menghi	Omar	Menghi	ITA	64
simone-sancioni	Simone	Sancioni	ITA	42
philipp-eitzinger	Philipp	Eitzinger	AUT	85
dan-linfoot	Dan	Linfoot	GBR	45
luke-jones	Luke	Jones	GBR	82
nikki-coates	Nikki	Coates	GBR	83
robbie-stewart	Robbie	Stewart	GBR	84
tom-hayward	Tom	Hayward	GBR	81
ronald-beitler	Ronald	Beitler	NED	69
randy-gevers	Randy	Gevers	NED	68
hans-smees	Hans	Smees	NED	72
patrick-vd-waarsenburg	Patrick	Vd Waarsenburg	NED	72
ferry-stoffer	Ferry	Stoffer	NED	88
thomas-walther	Thomas	Walther	GER	38
joshua-sommer	Joshua	Sommer	GER	18
georg-froehlich	Georg	Froehlich	GER	64
eric-huebsch	Eric	Huebsch	GER	65
sebastien-eckner	Sebastien	Eckner	GER	67
patrick-unger	Patrick	Unger	GER	66
chaz-davies	Chaz	Davies	GBR	57
miguel-duhamel	Miguel	Duhamel	CAN	17
karel-majek	Karel	Majek	CZE	91
federico-biaggi	Federico	Biaggi	ITA	80
akira-yanagawa	Akira	Yanagawa	JPN	87
seijin-oikawa	Seijin	Oikawa	JPN	76
youichi-ui	Youichi	Ui	JPN	75
yuki-hamamoto	Yuki	Hamamoto	JPN	77
nayuta-mizuno	Nayuta	Mizuno	JPN	69
yuuchi-yanagisawa	Yuuchi	Yanagisawa	JPN	57
glenn-scott	Glenn	Scott	AUS	68
jose-luis-cardoso	Jose Luis	Cardoso	SPA	30
arnaud-vincent	Arnaud	Vincent	FRA	21
michele-danese	Michele	Danese	ITA	41
jordi-carchano	Jordi	Carchano	SPA	24
jakub-smrz	Jakub	Smrz	CZE	96
alessio-palumbo	Alessio	Palumbo	ITA	85
luca-morelli	Luca	Morelli	ITA	22
lorenzo-baroni	Lorenzo	Baroni	ITA	23
vincent-braillard	Vincent	Braillard	SWI	26
mateo-tunez	Mateo	Tunez	SPA	21
michele-conti	Michele	Conti	ITA	16
andrea-ballerini	Andrea	Ballerini	ITA	8
sinan-sofuoglu	Sinan	Sofuoglu	TUR	40
shi-zhao-huang	Shi Zhao	Huang	CHN	62
chin-feng-ho	Chin Feng	Ho	CHN	59
zhu-wang	Zhu	Wang	CHN	60
yannick-deschamps	Yannick	Deschamps	FRA	85
mathieu-lussiana	Mathieu	Lussiana	FRA	82
fabricio-perren	Fabricio	Perren	ARG	37
franz-aschenbrenner	Franz	Aschenbrenner	GER	17
alessandro-brannetti	Alessandro	Brannetti	ITA	65
nicklas-cajback	Nicklas	Cajback	SWE	67
hiroaki-kuzuhara	Hiroaki	Kuzuhara	JPN	90
daniele-rossi	Daniele	Rossi	ITA	88
luca-verdini	Luca	Verdini	ITA	91
nico-vivarelli	Nico	Vivarelli	ITA	89
raymond-schouten	Raymond	Schouten	NED	70
bram-appelo	Bram	Appelo	NED	69
jan-roelofs	Jan	Roelofs	NED	71
gert-jan-kok	Gert-Jan	Kok	NED	93
luke-lawrence	Luke	Lawrence	GBR	75
anthony-rogers	Anthony	Rogers	GBR
kyle-kentish	Kyle	Kentish	GBR
meik-kevin-minnerop	Meik Kevin	Minnerop	GER	78
andreas-martensson	Andreas	Martensson	SWE	79
robin-laesser	Robin	Laesser	GER	61
clement-dunikowski	Clement	Dunikowski	FRA	83
kenni-aggerholm	Kenni	Aggerholm	DEN	84
michal-filla	Michal	Filla	CZE	82
thomas-mayer	Thomas	Mayer	GER	68
michal-sembera	Michal	Sembera	CZE	69
stefano-musco	Stefano	Musco	ITA	56
rong-zai-su	Rong Zai	Su	CHN	56
naoki-matsudo	Naoki	Matsudo	JPN	8
ryuji-yokoe	Ryuji	Yokoe	JPN	86
david-de-gea	David	De Gea	SPA	52
toshihisa-kuzuhara	Toshihisa	Kuzuhara	JPN	48
kazuya-otani	Kazuya	Otani	JPN	73
garry-mccoy	Garry	Mccoy	AUS	8
joao-fernandes	Joao	Fernandes	POR	32
troy-bayliss	Troy	Bayliss	AUS	12
max-biaggi	Max	Biaggi	ITA	3
ruben-xaus	Ruben	Xaus	SPA	11
kenny-roberts	Kenny	Roberts	USA
shane-byrne	Shane	Byrne	GBR	67
mirko-giansanti	Mirko	Giansanti	ITA	32
radomil-rous	Radomil	Rous	CZE	64
gregory-leblanc	Gregory	Leblanc	FRA	38
gabor-rizmayer	Gabor	Rizmayer	HUN	12
hugo-marchand	Hugo	Marchand	FRA	9
steve-jenkner	Steve	Jenkner	GER	17
yves-polzer	Yves	Polzer	AUT	42
dario-giuseppetti	Dario	Giuseppetti	GER	25
jurgen-vd-goorbergh	Jurgen	Vd Goorbergh	NED	16
tohru-ukawa	Tohru	Ukawa	JPN	72
zi-xian-he	Zi Xian	He	CHN	62
wai-on-cheung	Wai On	Cheung	CHN	38
erwan-nigon	Erwan	Nigon	FRA	63
mathieu-gines	Mathieu	Gines	FRA	74
alexis-michel	Alexis	Michel	FRA	90
david-checa	David	Checa	SPA	94
jarno-ronzoni	Jarno	Ronzoni	ITA	71
christian-elkin	Christian	Elkin	GBR
james-westmorland	James	Westmorland	GBR
thomas-walter	Thomas	Walter	GER	52
manuel-mickan	Manuel	Mickan	GER	98
david-bonache	David	Bonache	SPA	48
lukas-razek	Lukas	Razek	CZE	97
mamoru-akiya	Mamoru	Akiya	JPN	77
masaki-tokudome	Masaki	Tokudome	JPN	79
arata-mori	Arata	Mori	JPN	66
kazuki-hanafusa	Kazuki	Hanafusa	JPN	67
tom-hatton	Tom	Hatton	AUS	81
zheng-peng-li	Zheng Peng	Li	CHN	61
ryuichi-kiyonari	Ryuichi	Kiyonari	JPN	54
norick-abe	Norick	Abe	JPN
johan-stigefelt	Johan	Stigefelt	SWE
max-sabbatani	Max	Sabbatani	ITA
gregory-lefort	Gregory	Lefort	FRA
gino-borsoi	Gino	Borsoi	ITA
stefano-perugini	Stefano	Perugini	ITA
robbin-harms	Robbin	Harms	DAN
vesa-kallio	Vesa	Kallio	FIN
mattia-angeloni	Mattia	Angeloni	ITA
manuel-manna	Manuel	Manna	ITA
christian-gemmel	Christian	Gemmel	GER
eric-bataille	Eric	Bataille	FRA
neil-hodgson	Neil	Hodgson	GBR
alessio-aldrovandi	Alessio	Aldrovandi	ITA
chris-burns	Chris	Burns	GBR
david-fouloi	David	Fouloi	FRA
mikko-kyyhkynen	Mikko	Kyyhkynen	FIN
jordi-planas	Jordi	Planas	SPA
klaus-nohles	Klaus	Nöhles	GER
jarno-van-der-marel	Jarno	Van Der Marel	NED
adri-den-bekker	Adri	Den Bekker	NED
marketa-janakova	Marketa	Janakova	CZE
vaclav-bittman	Vaclav	Bittman	CZE
lee-dickinson	Lee	Dickinson	GBR
simone-sanna	Simone	Sanna	ITA
kris-weston	Kris	Weston	GBR
thomas-bridewell	Thomas	Bridewell	GBR
gregorio-lavilla	Gregorio	Lavilla	SPA
henk-vd-lagemaat	Henk	Vd Lagemaat	NED
yuzo-fujioka	Yuzo	Fujioka	JPN
choujun-kameya	Choujun	Kameya	JPN
suhathai-chaemsap	Suhathai	Chaemsap	THA
yukio-kagayama	Yukio	Kagayama	JPN
james-haydon	James	Haydon	GBR
marcellino-lucchi	Marcellino	Lucchi	ITA
joshua-waters	Joshua	Waters	AUS
matthew-kuhne	Matthew	Kuhne	AUS
noriyuki-haga	Noriyuki	Haga	JPN
tamaki-serizawa	Tamaki	Serizawa	JPN
daijiro-kato	Daijiro	Kato	JPN
tekkyu-kayo	Tekkyu	Kayo	JPN
jaroslav-hules	Jaroslav	Hules	CZE
katja-poensgen	Katja	Poensgen	GER
lucio-cecchinello	Lucio	Cecchinello	ITA
masao-azuma	Masao	Azuma	JPN
christopher-martin	Christopher	Martin	GBR
akio-tanaka	Akio	Tanaka	JPN
sadahito-suma	Sadahito	Suma	JPN
emilio-alzamora	Emilio	Alzamora	SPA
peter-lenart	Peter	Lenart	HUN
luis-castro	Luis	Castro	SPA
ismael-ortega	Ismael	Ortega	SPA
ruben-catalan	Ruben	Catalan	SPA
samuel-aubry	Samuel	Aubry	FRA
jimmy-petit	Jimmy	Petit	FRA
christian-pistoni	Christian	Pistoni	ITA
jan-blok	Jan	Blok	NED
arie-vos	Arie	Vos	NED
jarno-vd-marel	Jarno	Vd Marel	NED
jay-vincent	Jay	Vincent	GBR
paul-veazey	Paul	Veazey	GBR
midge-smart	Midge	Smart	GBR
lee-longden	Lee	Longden	GBR
chester-lusk	Chester	Lusk	GBR
igor-kalab	Igor	Kalab	CZE
luka-nedog	Luka	Nedog	SLO
hiroyuki-kikuchi	Hiroyuki	Kikuchi	JPN
miguel-praia	Miguel	Praia	POR
akira-ryo	Akira	Ryo	JPN
patrick-lakerveld	Patrick	Lakerveld	NED
regis-laconi	Regis	Laconi	FRA
tetsuya-harada	Tetsuya	Harada	JPN
osamu-miyazaki	Osamu	Miyazaki	JPN
daisaku-sakai	Daisaku	Sakai	JPN
raul-jara	Raul	Jara	SPA
noboru-ueda	Noboru	Ueda	JPN
pere-riba	Pere	Riba	SPA
haruchika-aoki	Haruchika	Aoki	JPN
leon-haslam	Leon	Haslam	GBR
jarno-janssen	Jarno	Janssen	NED
jarno-muller	Jarno	Müller	GER
shahrol-yuzy	Shahrol	Yuzy	MAL
vincent-philippe	Vincent	Philippe	FRA
jean-michel-bayle	Jean Michel	Bayle	FRA
yohann-tiberio	Yohann	Tiberio	FRA
gaspare-caffiero	Gaspare	Caffiero	ITA
gianluigi-scalvini	Gianluigi	Scalvini	ITA
peter-politiek	Peter	Politiek	NED
jarno-boesveld	Jarno	Boesveld	NED
gert-pieper	Gert	Pieper	NED
gerald-perdon	Gerald	Perdon	NED
andrew-whittley	Andrew	Whittley	GBR
ivan-goi	Ivan	Goi	ITA
claudius-klein	Claudius	Klein	GER
jascha-buech	Jascha	Buech	GER
matej-smrz	Matej	Smrz	CZE
david-garcia	David	Garcia	SPA
noboyuki-ohsaki	Noboyuki	Ohsaki	JPN
hideyuki-nakajoh	Hideyuki	Nakajoh	JPN
takashi-yasuda	Takashi	Yasuda	JPN
hideyuki-ogata	Hideyuki	Ogata	JPN
russell-holland	Russell	Holland	AUS
peter-holmes	Peter	Holmes	AUS
jeremy-crowe	Jeremy	Crowe	AUS
chuck-sorensen	Chuck	Sorensen	USA
alex-criville	Alex	Criville	SPA
lorenzo-lanzi	Lorenzo	Lanzi	ITA
jeronimo-vidal	Jeronimo	Vidal	SPA
shinichi-nakatomi	Shinichi	Nakatomi	JPN
diego-giugovaz	Diego	Giugovaz	ITA
julien-allemand	Julien	Allemand	FRA
angel-nieto-jr	Angel	Nieto Jr.	SPA
masafumi-ono	Masafumi	Ono	JPN
phillipp-hafeneger	Phillipp	Hafeneger	GER
chris-walker	Chris	Walker	GBR
barry-veneman	Barry	Veneman	NED
mark-willis	Mark	Willis	AUS
cesar-barros	Cesar	Barros	BRA
jonathan-van-vuuren	Jonathan	Van Vuuren	RSA
ismael-bonilla	Ismael	Bonilla	SPA
david-tomas	David	Tomas	SPA
stuart-edwards	Stuart	Edwards	GBR
damaso-nacher	Damaso	Nacher	SPA
luca-boscoscuro	Luca	Boscoscuro	ITA
riccardo-chiarello	Riccardo	Chiarello	ITA
herve-mora	Herve	Mora	FRA
guillaume-dietrich	Guillaume	Dietrich	FRA
tom-ouvrard	Tom	Ouvrard	FRA
marco-petrini	Marco	Petrini	ITA
xavier-herouin	Xavier	Herouin	FRA
julien-enjolras	Julien	Enjolras	FRA
luis-costa	Luis	Costa	SPA
ernesto-vidal	Ernesto	Vidal	SPA
adrian-araujo	Adrian	Araujo	SPA
arnold-litjens	Arnold	Litjens	NED
wilhelm-van-leeuwen	Wilhelm	Van Leeuwen	NED
ronnie-timmer	Ronnie	Timmer	NED
sebastien-gimbert	Sebastien	Gimbert	FRA
michale-herzberg	Michale	Herzberg	GBR
andreas-hahn	Andreas	Hahn	GER
tobias-kirmeier	Tobias	Kirmeier	GER
rene-knoefler	Rene	Knoefler	GER
norman-rank	Norman	Rank	GER
jascha-buch	Jascha	Buch	GER
tomas-miksovsky	Tomas	Miksovsky	CZE
brendan-clarke	Brendan	Clarke	AUS
javier-diaz	Javier	Diaz	SPA
michael-garcia	Michael	Garcia	SPA
jose-leite	José	Leite	POR
nobuyuki-ohsaki	Nobuyuki	Ohsaki	JPN
takayuki-onodera	Takayuki	Onodera	JPN
william-de-angelis	William	De Angelis	RSM
joshua-brookes	Joshua	Brookes	AUS
jay-taylor	Jay	Taylor	AUS
shaun-geronimi	Shaun	Geronimi	AUS
cristiano-vieira	Cristiano	Vieira	BRA
leandro-panades	Leandro	Panades	BRA
yoshiteru-konishi	Yoshiteru	Konishi	JPN
shane-norval	Shane	Norval	RSA
jamie-robinson	Jamie	Robinson	GBR
mike-baldinger	Mike	Baldinger	GER
reinhard-stolz	Reinhard	Stolz	GER
decha-krisart	Decha	Krisart	THA
katsuji-uezu	Katsuji	Uezu	JPN
adrian-coates	Adrian	Coates	GBR
lucas-oliver	Lucas	Oliver	SPA
david-ortega	David	Ortega	SPA
david-mico	David	Mico	SPA
sebastien-legrelle	Sebastien	Legrelle	BEL
ron-haslam	Ron	Haslam	GBR
ivan-clementi	Ivan	Clementi	ITA
julien-da-costa	Julien	Da Costa	FRA
bruno-vecchioni	Bruno	Vecchioni	FRA
eric-dubray	Eric	Dubray	FRA
paolo-tessari	Paolo	Tessari	ITA
ivan-martinez	Ivan	Martinez	SPA
harold-de-haan	Harold	De Haan	NED
john-mcguinness	John	McGuinness	GBR
anthony-gobert	Anthony	Gobert	AUS
phil-giles	Phil	Giles	GBR
gary-haslam	Gary	Haslam	GBR
jason-davis	Jason	Davis	GBR
stuart-easton	Stuart	Easton	GBR
paul-robinson	Paul	Robinson	GBR
luca-cadalora	Luca	Cadalora	ITA
dirk-reissmann	Dirk	Reissmann	GER
mathias-neukirchen	Mathias	Neukirchen	GER
andreas-gobel	Andreas	Göbel	GER
achim-kariger	Achim	Kariger	GER
vladimir-castka	Vladimir	Castka	SVK
michael-witzeneder	Michael	Witzeneder	AUT
uwe-bolteraurer	Uwe	Bolteraurer	AUT
laszlo-bancsiki	Laszlo	Bancsiki	HUN
felisberto-teixeira	Felisberto	Teixeira	POR
yasu-hatakeyama	Yasu	Hatakeyama	JPN
yoshinori-korogi	Yoshinori	Korogi	JPN
marco-tresoldi	Marco	Tresoldi	SWI
mick-doohan	Mick	Doohan	AUS
juan-borja	Juan	Borja	SPA
simon-crafar	Simon	Crafar	NZE
markus-ober	Markus	Ober	GER
mike-hale	Mike	Hale	USA
matias-rios	Matias	Rios	ARG
meng-heng-kuan	Meng	Heng Kuan	MAL
kazuto-sakata	Kazuto	Sakata	JPN
direk-archewong	Direk	Archewong	THA
m-meganathan	M.	Meganathan	MAL
noriyasu-numata	Noriyasu	Numata	JPN
michael-rutter	Michael	Rutter	GBR
tomomi-manako	Tomomi	Manako	JPN
ken-eguchi	Ken	Eguchi	JPN
kazuhiro-kubo	Kazuhiro	Kubo	JPN
minoru-nakamura	Minoru	Nakamura	JPN
frederic-petit	Frederic	Petit	FRA
john-kocinski	John	Kocinski	USA
jesus-perez	Jesús	Perez	SPA
naohiro-negishi	Naohiro	Negishi	JPN
manuel-luque	Manuel	Luque	SPA
bernhard-absmeier	Bernhard	Absmeier	GER
emilio-delgado	Emilio	Delgado	SPA
toshihiko-honma	Toshihiko	Honma	JPN
rob-filart	Rob	Filart	NED
herve-louiset	Herve	Louiset	FRA
mike-lougassi	Mike	Lougassi	FRA
jamie-whitham	Jamie	Whitham	GBR
filippo-cotti	Filippo	Cotti	ITA
daniel-ribalta	Daniel	Ribalta	SPA
victor-carrasco	Victor	Carrasco	SPA
rudie-markink	Rudie	Markink	NED
arno-visscher	Arno	Visscher	NED
hans-koopman	Hans	Koopman	NED
kenny-tibble	Kenny	Tibble	GBR
maurice-bolwerk	Maurice	Bolwerk	NED
maik-stief	Maik	Stief	GER
bernard-garcia	Bernard	Garcia	FRA
stefano-pennese	Stefano	Pennese	ITA
cristian-magnani	Cristian	Magnani	ITA
marc-garcia	Marc	Garcia	FRA
scott-smart	Scott	Smart	GBR
steve-martin	Steve	Martin	AUS
roger-harrison	Roger	Harrison	AUS
kevin-curtain	Kevin	Curtain	AUS
dennis-charlett	Dennis	Charlett	AUS
michael-teniswood	Michael	Teniswood	AUS
markus-barth	Markus	Barth	GER
beaumont-levy	Beaumont	Levy	RSA
renato-velludo	Renato	Velludo	BRA
leandro-mulet	Leandro	Mulet	ARG
leandro-giuggia	Leandro	Giuggia	ARG
kyoji-nanba	Kyoji	Nanba	JPN
doriano-romboni	Doriano	Romboni	ITA
fabio-carpani	Fabio	Carpani	ITA
takeshi-tsujimura	Takeshi	Tsujimura	JPN
jurgen-fuchs	Jurgen	Fuchs	GER
davide-bulega	Davide	Bulega	ITA
federico-gartner	Federico	Gartner	ARG
nobuyuki-osaki	Nobuyuki	Osaki	JPN
takashi-akita	Takashi	Akita	JPN
yoshiaki-katoh	Yoshiaki	Katoh	JPN
kazuhiro-takao	Kazuhiro	Takao	JPN
juan-enrique-maturana	Juan Enrique	Maturana	SPA
jose-ramon-ramirez	Jose Ramon	Ramirez	SPA
norihiko-fujiwara	Norihiko	Fujiwara	JPN
matt-wait	Matt	Wait	USA
luis-d-antin	Luis	D'Antin	SPA
william-costes	William	Costes	FRA
agustin-escobar	Agustin	Escobar	SPA
vicente-esparragoso	Vicente	Esparragoso	SPA
eskil-suter	Eskil	Suter	SWI
claudio-cipriani	Claudio	Cipriani	ITA
franck-poulle	Franck	Poulle	FRA
andrea-iommi	Andrea	Iommi	ITA
fernando-cristobal	Fernando	Cristóbal	SPA
josep-sarda	Josep	Sarda	SPA
jean-philippe-ruggia	Jean Philippe	Ruggia	FRA
andre-romein	Andre	Romein	NED
federico-cerroni	Federico	Cerroni	ITA
david-mateer	David	Mateer	GBR
adrian-schmidt	Adrian	Schmidt	GER
christian-manna	Christian	Manna	ITA
oliver-perschke	Oliver	Perschke	GER
katsuaki-fujiwara	Katsuaki	Fujiwara	JPN
matthieu-lagrive	Matthieu	Lagrive	FRA
michal-brezina	Michal	Brezina	CZE
bohuslav-seifert	Bohuslav	Seifert	CZE
igor-antonelli	Igor	Antonelli	ITA
andrea-zappa	Andrea	Zappa	ITA
david-horton	David	Horton	AUS
craig-frederickson	Craig	Frederickson	NZE
peter-galvin	Peter	Galvin	AUS
alessandro-romagnoli	Alessandro	Romagnoli	ITA
craig-connell	Craig	Connell	AUS
juan-pablo-gianini	Juan Pablo	Gianini	ARG
woolsey-coulter	Woolsey	Coulter	GBR
diego-ruaben	Diego	Ruaben	ARG
gabriel-borgmann	Gabriel	Borgmann	ARG
silvio-cesar-zequim	Silvio Cesar	Zequim	BRA
takuma-aoki	Takuma	Aoki	JPN
alberto-puig	Alberto	Puig	SPA
troy-corser	Troy	Corser	AUS
lucio-pedercini	Lucio	Pedercini	ITA
laurent-naveau	Laurent	Naveau	BEL
cristiano-migliorati	Cristiano	Migliorati	ITA
oliver-petrucciani	Oliver	Petrucciani	SWI
eustaquio-gavira	Eustaquio	Gavira	SPA
jorge-martinez	Jorge	Martinez	SPA
dirk-raudies	Dirk	Raudies	GER
manfred-geissler	Manfred	Geissler	GER
chao-chee-hou	Chao	Chee Hou	MAL
paholayuth-kalachan	Paholayuth	Kalachan	THA
peter-goddard	Peter	Goddard	AUS
kirk-mccarthy	Kirk	McCarthy	AUS
frederic-protat	Frederic	Protat	FRA
naoto-ogura	Naoto	Ogura	JPN
idalio-gavira	Idalio	Gavira	SPA
jun-inageda	Jun	Inageda	JPN
toshiaki-ozawa	Toshiaki	Ozawa	JPN
daryl-beattie	Daryl	Beattie	AUS
oscar-sainz	Oscar	Sainz	SPA
peter-oettl	Peter	Oettl	GER
francesco-monaco	Francesco	Monaco	ITA
walter-tortoroglio	Walter	Tortoroglio	ITA
roberto-bellei	Roberto	Bellei	ITA
thomas-stadler	Thomas	Stadler	AUT
bernd-holzleitner	Bernd	Holzleitner	AUT
harald-danninger	Harald	Danninger	AUT
gerwin-hofer	Gerwin	Hofer	AUT
claudio-vanzetta	Claudio	Vanzetta	SWI
frederic-boutin	Frederic	Boutin	FRA
nicolas-dussauge	Nicolas	Dussauge	FRA
benny-jerzenbeck	Benny	Jerzenbeck	GER
patrick-detot	Patrick	Detot	FRA
fabien-rousseau	Fabien	Rousseau	FRA
gerard-rike	Gerard	Rike	NED
jaap-hoogeveen	Jaap	Hoogeveen	NED
maurizio-cucchiarini	Maurizio	Cucchiarini	ITA
giuseppe-fiorillo	Giuseppe	Fiorillo	ITA
juergen-lingg	Juergen	Lingg	GER
stefan-kruse	Stefan	Kruse	GER
adilson-zaccari	Adilson	Zaccari	BRA
carlos-medeiros	Carlos	Medeiros	BRA
eraldo-tome	Eraldo	Tome	BRA
callum-ramsay	Callum	Ramsay	GBR
steve-sawford	Steve	Sawford	GBR
gary-may	Gary	May	GBR
			?
emanuel-buchner	Emanuel	Buchner	GER
david-guardiola	David	Guardiola	SPA
joan-montero	Joan	Montero	SPA
rudi-arianto	Rudi	Arianto	INA
william-strugnell	William	Strugnell	AUS
simon-weeks	Simon	Weeks	AUS
ben-reid	Ben	Reid	AUS
michael-clunie	Michael	Clunie	NZE
hayden-bool	Hayden	Bool	NZE
james-armstrong	James	Armstrong	AUS
scott-russell	Scott	Russell	USA
sean-emmett	Sean	Emmett	GBR
jean-pierre-jeandat	Jean Pierre	Jeandat	FRA
toshi-arakaki	Toshi	Arakaki	JPN
shahrun-nizam	Shahrun	Nizam	MAL
jose-barresi	Jose	Barresi	VEN
akira-saito	Akira	Saito	JPN
stefano-cruciani	Stefano	Cruciani	ITA
loek-bodelier	Loek	Bodelier	NED
yau-chuen-tang	Yau Chuen	Tang	MAL
christophe-cogan	Christophe	Cogan	FRA
darren-barton	Darren	Barton	GBR
petrus-canisius	Petrus	Canisius	INA
ahmed-jayadi	Ahmed	Jayadi	INA
eugene-mcmanus	Eugene	McManus	GBR
kensuke-haga	Kensuke	Haga	JPN
shigeru-ibaraki	Shigeru	Ibaraki	JPN
shinichi-sugaya	Shinichi	Sugaya	JPN
mokoto-ono	Mokoto	Ono	JPN
ken-ohashi	Ken	Ohashi	JPN
adrian-bosshard	Adrian	Bosshard	SWI
massimo-ottobre	Massimo	Ottobre	ITA
herri-torrontegui	Herri	Torrontegui	SPA
gabriele-debbia	Gabriele	Debbia	ITA
marco-papa	Marco	Papa	ITA
alessandro-antonello	Alessandro	Antonello	ITA
christian-boudinot	Christian	Boudinot	FRA
florian-ferracci	Florian	Ferracci	FRA
jean-marc-deletang	Jean-Marc	Deletang	FRA
gilles-ferstler	Gilles	Ferstler	FRA
bertrand-stey	Bertrand	Stey	FRA
gregory-fouet	Gregory	Fouet	FRA
terry-rymer	Terry	Rymer	GBR
gilbert-de-rover	Gilbert	De Rover	NED
niggi-schmassman	Niggi	Schmassman	SWI
michael-rudroff	Michael	Rudroff	GER
michael-schulten	Michael	Schulten	GER
chris-palmer	Chris	Palmer	GBR
robin-appleyard	Robin	Appleyard	GBR
pete-jennings	Pete	Jennings	GBR
paul-young	Paul	Young	AUS
karl-truchsess	Karl	Truchsess	AUT
richard-haidegger	Richard	Haidegger	AUT
johann-wolfsteiner	Johann	Wolfsteiner	AUT
georg-scharl	Georg	Scharl	AUT
luigi-ancona	Luigi	Ancona	ITA
ivan-cremonini	Ivan	Cremonini	ITA
francisco-riquelme	Francisco	Riquelme	SPA
stephane-mertens	Stephane	Mertens	BEL
chris-taylor	Chris	Taylor	USA
marcus-payten	Marcus	Payten	AUS
fernando-flores	Fernando	Flores	ARG
andrew-stroud	Andrew	Stroud	NZE
alan-watts	Alan	Watts	AUS
andrew-duke	Andrew	Duke	AUS
andrew-willy	Andrew	Willy	AUS
jason-van-vliet	Jason	Van Vliet	AUS
kevin-schwantz	Kevin	Schwantz	USA
loris-reggiani	Loris	Reggiani	ITA
martin-craggill	Martin	Craggill	AUS
bernard-haenggeli	Bernard	Haenggeli	SWI
bruno-bonhuil	Bruno	Bonhuil	FRA
adi-stadler	Adi	Stadler	GER
luis-carlos-maurel	Luis Carlos	Maurel	SPA
niall-mackenzie	Niall	Mackenzie	GBR
patrick-vd-goorbergh	Patrick	Vd Goorbergh	NED
bernd-kassner	Bernd	Kassner	GER
miguel-castilla	Miguel	Castilla	SPA
sadanori-hikita	Sadanori	Hikita	JPN
tomoko-igata	Tomoko	Igata	JPN
oliver-koch	Oliver	Koch	GER
ken-miyasaka	Ken	Miyasaka	JPN
vittorio-lopez	Vittorio	Lopez	ITA
stefan-prein	Stefan	Prein	GER
stefan-kurfiss	Stefan	Kurfiss	GER
glen-richards	Glen	Richards	AUS
chee-kieong-soong	Chee	Kieong Soong	MAL
tetsu-ito	Tetsu	Ito	JPN
masaki-morikane	Masaki	Morikane	JPN
yoshiyuki-sugai	Yoshiyuki	Sugai	JPN
masayuki-azami	Masayuki	Azami	JPN
brian-morrison	Brian	Morrison	GBR
alessandro-gramigni	Alessandro	Gramigni	ITA
ramon-mesa	Ramón	Mesa	SPA
javier-marsella	Javier	Marsella	SPA
antonio-sanchez	Antonio	Sanchez	SPA
jose-dubon	Jose	Dubon	SPA
francisco-padro	Francisco	Padro	SPA
markus-gemperle	Markus	Gemperle	SWI
pierfrancesco-chili	Pierfrancesco	Chili	ITA
scott-gray	Scott	Gray	USA
jim-filice	Jim	Filice	USA
cristian-caliumi	Cristian	Caliumi	ITA
simone-giannecchini	Simone	Giannecchini	ITA
fank-van-zutphen	Fank	Van Zutphen	NED
rudy-mulder	Rudy	Mulder	NED
massimiliano-d-agnano	Massimiliano	D'Agnano	ITA
bas-den-breejen	Bas	Den Breejen	NED
marcel-nooren	Marcel	Nooren	NED
peter-den-heyer	Peter	Den Heyer	NED
pierre-monneret	Pierre	Monneret	FRA
steve-patrickson	Steve	Patrickson	GBR
christian-kellner	Christian	Kellner	GER
jose-kuhn	Jose	Kuhn	FRA
bohumil-stasa-jr	Bohumil	Stasa Jr.	CZE
benjamin-weiss	Benjamin	Weiss	GER
lee-pullan	Lee	Pullan	GBR
damian-pereyra	Damian	Pereyra	ARG
pablo-zeballos	Pablo	Zeballos	ARG
gaston-ruaben	Gaston	Ruaben	ARG
raul-loscos	Raul	Loscos	SPA
alexander-folger	Alexander	Folger	GER
doug-chandler	Doug	Chandler	USA
john-reynolds	John	Reynolds	GBR
scott-doohan	Scott	Doohan	AUS
juan-lopez-mella	Juan	Lopez Mella	SPA
andy-leuthe	Andy	Leuthe	LUX
vittorio-scatola	Vittorio	Scatola	ITA
cees-doorakkers	Cees	Doorakkers	NED
wilco-zeelenberg	Wilco	Zeelenberg	NED
andy-preining	Andy	Preining	AUT
rene-bongers	Rene	Bongers	AUS
alan-patterson	Alan	Patterson	GBR
krisse-kaas	Krisse	Kaas	FIN
enrique-de-juan	Enrique	De Juan	SPA
rodney-fee	Rodney	Fee	CAN
noel-ferro	Noel	Ferro	FRA
fausto-gresini	Fausto	Gresini	ITA
bruno-casanova	Bruno	Casanova	ITA
hans-spaan	Hans	Spaan	NED
carlos-giro-jr	Carlos	Giro Jr.	SPA
kevin-mitchell	Kevin	Mitchell	GBR
manfred-baumann	Manfred	Baumann	AUT
jean-foray	Jean	Foray	FRA
lothar-neukirchner	Lothar	Neukirchner	GER
kunihiro-amano	Kunihiro	Amano	JPN
hervi-moineau	Hervi	Moineau	FRA
emilio-cuppini	Emilio	Cuppini	ITA
rick-van-etten	Rick	Van Etten	NED
juanlino-kirindongo	Juanlino	Kirindongo	NED
ermanno-bastianini	Ermanno	Bastianini	ITA
yasuaki-takahashi	Yasuaki	Takahashi	JPN
frank-baldinger	Frank	Baldinger	GER
udo-mark	Udo	Mark	GER
evren-bischoff	Evren	Bischoff	GER
sebastian-scarnato	Sebastian	Scarnato	FRA
donnie-hough	Donnie	Hough	USA
nick-hopkins	Nick	Hopkins	GBR
michael-liedl	Michael	Liedl	GER
fausto-ricci	Fausto	Ricci	ITA
chris-d-aluisio	Chris	D'Aluisio	USA
max-gambino	Max	Gambino	ITA
takahito-mori	Takahito	Mori	USA
kevin-murray	Kevin	Murray	USA
nestor-amoroso	Nestor	Amoroso	ARG
sergio-granton	Sergio	Granton	ARG
luis-lavado	Luis	Lavado	VEN
luis-alvaro	Luis	Alvaro	SPA
wayne-rainey	Wayne	Rainey	USA
matt-mladin	Matt	Mladin	AUS
tsumoto-udagawa	Tsumoto	Udagawa	JPN
serge-david	Serge	David	SWI
renzo-colleoni	Renzo	Colleoni	ITA
andreas-meklau	Andreas	Meklau	AUT
jean-luc-romanens	Jean Luc	Romanens	SWI
alan-scott	Alan	Scott	USA
carlos-cardus	Carlos	Cardús	SPA
helmut-bradl	Helmut	Bradl	GER
jochen-schmid	Jochen	Schmid	GER
paolo-casoli	Paolo	Casoli	ITA
noboiuki-wakai	Noboiuki	Wakai	JPN
massimo-pennacchioli	Massimo	Pennacchioli	ITA
stephen-whitehouse	Stephen	Whitehouse	AUS
kinya-wada	Kinya	Wada	JPN
arie-molenaar	Arie	Molenaar	NED
thierry-crine	Thierry	Crine	FRA
volker-bahr	Volker	Bahr	GER
kevin-magee	Kevin	Magee	AUS
stefano-caracchi	Stefano	Caracchi	ITA
corrado-catalano	Corrado	Catalano	ITA
jehan-d-orgeix	Jehan	D'Orgeix	FRA
alex-sirera	Alex	Sirera	SPA
jose-luis-rabadan	José Luís	Rabadan	SPA
ezio-gianola	Ezio	Gianola	ITA
maurizio-vitali	Maurizio	Vitali	ITA
giovanni-palmieri	Giovanni	Palmieri	SWI
aki-ajo	Aki	Ajo	FIN
alfred-waibel	Alfred	Waibel	GER
alexander-schaden	Alexander	Schaden	GER
ron-reniers	Ron	Reniers	NED
juan-garriga	Juan	Garriga	SPA
david-jefferies	David	Jefferies	GBR
claudio-tonnini	Claudio	Tonnini	RSM
sinya-sato	Sinya	Sato	JPN
daniela-tognoli	Daniela	Tognoli	ITA
carl-fogarty	Carl	Fogarty	GBR
nigel-bosworth	Nigel	Bosworth	GBR
kevin-mawdsley	Kevin	Mawdsley	GBR
marek-moravek	Marek	Moravek	CZE
bohumil-stasa	Bohumil	Stasa	TCH
freddie-spencer	Freddie	Spencer	USA
romolo-balbi	Romolo	Balbi	ITA
john-cornwell	John	Cornwell	CAN
dario-marchetti	Dario	Marchetti	ITA
randy-mamola	Randy	Mamola	USA
keiji-ohishi	Keiji	Ohishi	JPN
satoshi-tsujimoto	Satoshi	Tsujimoto	JPN
keiichiro-iwahashi	Keiichiro	Iwahashi	JPN
eddie-lawson	Eddie	Lawson	USA
yves-briguet	Yves	Briguet	SWI
bernard-cazade	Bernard	Cazade	FRA
erkka-korpiaho	Erkka	Korpiaho	FIN
yutaka-fujiwara	Yutaka	Fujiwara	JPN
heinz-luthi	Heinz	Lüthi	SWI
alain-bronec	Alain	Bronec	FRA
hubert-abold	Hubert	Abold	GER
takao-shimizu	Takao	Shimizu	JPN
gimmi-bosio	Gimmi	Bosio	ITA
dominique-sarron	Dominique	Sarron	FRA
simon-buckmaster	Simon	Buckmaster	GBR
carlos-lavado	Carlos	Lavado	VEN
harald-eckl	Harald	Eckl	GER
andrew-thompson	Andrew	Thompson	AUS
hisashi-unemoto	Hisashi	Unemoto	JPN
linda-walsh	Linda	Walsh	AUS
malcolm-yeo	Malcolm	Yeo	AUS
eddie-laycock	Eddie	Laycock	IRL
masao-shimizu	Masao	Shimizu	JPN
katsuyoshi-kozono	Katsuyoshi	Kozono	JPN
josef-doppler	Josef	Doppler	AUT
claude-arciero	Claude	Arciero	FRA
peter-graves	Peter	Graves	GBR
wayne-gardner	Wayne	Gardner	AUS
armando-narduzzi	Armando	Narduzzi	ITA
michele-gallina	Michele	Gallina	ITA
javier-rodriguez	Javier	Rodriguez	SPA
oliver-kohlinger	Oliver	Kohlinger	GER
fokko-kuiper	Fokko	Kuiper	NED
jos-van-dongen	Jos	Van Dongen	NED
tibor-kis	Tibor	Kis	HUN
attila-szabo	Attila	Szabo	HUN
s-prein	S.	Prein	?
johnny-wickstroem	Johnny	Wickstroem	FIN
w-catania	W.	Catania	SWI
russell-wood	Russell	Wood	RSA
mike-wilson	Mike	Wilson	RSA
martin-paetzold	Martin	Paetzold	RSA
gavin-ramsay	Gavin	Ramsay	RSA
manie-maritz	Manie	Maritz	?
brendon-crookes	Brendon	Crookes	RSA
sito-pons	Sito	Pons	SPA
adrien-morillas	Adrien	Morillas	FRA
didier-de-radigues	Didier	De Radigues	BEL
kunio-machii	Kunio	Machii	JPN
hikaru-miyagi	Hikaru	Miyagi	JPN
tasuro-arata	Tasuro	Arata	JPN
tadahiko-taira	Tadahiko	Taira	JPN
masumitsu-taguchi	Masumitsu	Taguchi	JPN
martin-wimmer	Martin	Wimmer	GER
takehiko-kurokawa	Takehiko	Kurokawa	JPN
leon-van-der-heyden	Leon	Van Der Heyden	NED
yoshomasa-kato	Yoshomasa	Kato	JPN
urs-jucker	Urs	Jücker	SWI
peter-linden	Peter	Linden	SWE
masato-shima	Masato	Shima	JPN
soichiro-satoh	Soichiro	Satoh	JPN
yosuke-yamakawa	Yosuke	Yamakawa	JPN
masayuki-hirose	Masayuki	Hirose	JPN
koji-takada	Koji	Takada	JPN
hideaki-ueno	Hideaki	Ueno	JPN
thierry-feuz	Thierry	Feuz	SWI
manuel-herreros	Manuel	Herreros	SPA
steve-spray	Steve	Spray	GBR
jaime-mariano	Jaime	Mariano	SPA
gavin-johnston	Gavin	Johnston	AUS
warren-palesy	Warren	Palesy	AUS
michael-haisman	Michael	Haisman	AUS
scott-buckley	Scott	Buckley	NZE
ian-newton	Ian	Newton	GBR
rene-dunki	René	Dünki	SWI
ken-fisher	Ken	Fisher	AUS
tony-daly	Tony	Daly	AUS
tony-sims	Tony	Sims	AUS
peter-scott	Peter	Scott	AUS
rich-oliver	Rich	Oliver	USA
robbie-petersen	Robbie	Petersen	USA
nick-lenatsch	Nick	Lenatsch	USA
rick-kirk	Rick	Kirk	USA
mike-sullivan	Mike	Sullivan	USA
harald-becker	Harald	Becker	GER
ian-mcconnachie	Ian	McConnachie	GBR
francisco-debon	Francisco	Debon	SPA
renato-colleoni	Renato	Colleoni	ITA
william-doran	William	Doran	GBR
serafino-foti	Serafino	Foti	ITA
stefan-bragger	Stefan	Brägger	SWI
wolfgang-fritz	Wolfgang	Fritz	GER
helmut-schutz	Helmut	Schutz	GER
janez-pintar	Janez	Pintar	YUG
michele-valdo	Michele	Valdo	ITA
steve-hislop	Steve	Hislop	GBR
shinji-katayama	Shinji	Katayama	JPN
osamu-hiwatashi	Osamu	Hiwatashi	JPN
jacques-cornu	Jacques	Cornu	SWI
junzo-suzuki	Junzo	Suzuki	JPN
yukio-nukumi	Yukio	Nukumi	JPN
alan-carter	Alan	Carter	GBR
toshinobu-shiomori	Toshinobu	Shiomori	JPN
akio-mitoma	Akio	Mitoma	JPN
erich-neumair	Erich	Neumair	AUT
yoshifumi-ichimiya	Yoshifumi	Ichimiya	JPN
yukiho-hinokio	Yukiho	Hinokio	JPN
fuyuki-yamazaki	Fuyuki	Yamazaki	JPN
shinichi-fujiyama	Shinichi	Fujiyama	JPN
bady-hassaine	Bady	Hassaine	ALG
stefan-dorflinger	Stefan	Dörflinger	SWI
taru-rinne	Taru	Rinne	FIN
christian-sarron	Christian	Sarron	FRA
reinhold-roth	Reinhold	Roth	GER
andrea-borgonovo	Andrea	Borgonovo	ITA
daniel-coe	Daniel	Coe	USA
hansjorg-butz	Hansjörg	Butz	GER
alberto-rota	Alberto	Rota	ITA
darren-milner	Darren	Milner	AUS
flemming-kistrup	Flemming	Kistrup	DAN
mike-leitner	Mike	Leitner	AUT
herve-duffard	Herve	Duffard	FRA
jose-saez	Jose	Saez	SPA
robin-milton	Robin	Milton	GBR
domenico-brigaglia	Domenico	Brigaglia	ITA
rachel-nicotte	Rachel	Nicotte	FRA
zdravko-matulja	Zdravko	Matulja	YUG
esko-kuparinen	Esko	Kuparinen	FIN
martin-trosch	Martin	Trösch	GER
luis-miguel-reyes	Luis Miguel	Reyes	SPA
jean-claude-selini	Jean Claude	Selini	FRA
patrick-igoa	Patrick	Igoa	FRA
trevor-manley	Trevor	Manley	AUS
ricky-rice	Ricky	Rice	AUS
david-moore	David	Moore	AUS
david-evelyn	David	Evelyn	AUS
terry-paviell	Terry	Paviell	AUS
colin-clark	Colin	Clark	AUS
peter-mcfayden	Peter	McFayden	AUS
david-mayne	David	Mayne	AUS
bubba-shobert	Bubba	Shobert	USA
shunji-yatsushiro	Shunji	Yatsushiro	JPN
marco-gentile	Marco	Gentile	ITA
fernando-gonzalez	Fernando	Gonzalez	SPA
alessandro-valesi	Alessandro	Valesi	ITA
junya-arai	Junya	Arai	JPN
masaru-kobayashi	Masaru	Kobayashi	JPN
daniel-amatriain	Daniel	Amatriain	SPA
fabio-barchitta	Fabio	Barchitta	ITA
august-auinger	August	Auinger	AUT
jean-francois-balde	Jean Francois	Baldé	FRA
garry-cowan	Garry	Cowan	IRL
yoshiari-hori	Yoshiari	Hori	JPN
kenichi-yoshida	Kenichi	Yoshida	JPN
kazuaki-yamashita	Kazuaki	Yamashita	JPN
kazuja-yamada	Kazuja	Yamada	JPN
kazunari-wada	Kazunari	Wada	JPN
kris-galatowicz	Kris	Galatowicz	GBR
lucio-pietroniro	Lucio	Pietroniro	BEL
gerhard-waibel	Gerhard	Waibel	GER
michael-dowson	Michael	Dowson	AUS
roy-leslie	Roy	Leslie	AUS
ivan-palazzese	Ivan	Palazzese	VEN
xavier-cardelus	Xavier	Cardelus	AND
brent-jones	Brent	Jones	NZE
ian-saunders	Ian	Saunders	GBR
alex-bedford	Alex	Bedford	GBR
rafael-roses	Rafael	Roses	SPA
michael-brown	Michael	Brown	AUS
steve-brouggy	Steve	Brouggy	AUS
bruno-kneubuhler	Bruno	Kneubühler	SWI
vincenzo-cascino	Vincenzo	Cascino	?
massimo-broccoli	Massimo	Broccoli	ITA
claude-albert	Claude	Albert	FRA
antonio-oliveros	Antonio	Oliveros	SPA
ricard-jove	Ricard	Jove	SPA
reinhard-strack	Reinhard	Strack	GER
gastone-grassetti	Gastone	Grassetti	ITA
bogdan-nikolov	Bogdan	Nikolov	BUL
gabriele-gnani	Gabriele	Gnani	ITA
paolo-priori	Paolo	Priori	ITA
jorg-seel	Jörg	Seel	GER
bert-smit	Bert	Smit	NED
reiner-koster	Reiner	Koster	SWI
paul-bordes	Paul	Bordes	FRA
rainer-scheidhauer	Rainer	Scheidhauer	GER
alojz-pavlic	Alojz	Pavlic	YUG
mathias-ehinger	Mathias	Ehinger	?
alois-meyer	Alois	Meyer	GER
fred-merkel	Fred	Merkel	USA
josef-fischer	Josef	Fischer	AUT
giuseppe-ascareggi	Giuseppe	Ascareggi	ITA
roberto-sassone	Roberto	Sassone	ITA
jacques-bernard	Jacques	Bernard	BEL
heinz-paschen	Heinz	Paschen	GER
rob-mcelnea	Rob	Mcelnea	GBR
ernst-gschwender	Ernst	Gschwender	GER
peter-schleef	Peter	Schleef	GER
klaus-dieter-kindle	Klaus-Dieter	Kindle	?
serge-julin	Serge	Julin	BEL
andres-sanchez	Andres	Sanchez	SPA
janos-szabo	Janos	Szabo	HUN
gunter-schirnhofer	Günter	Schirnhofer	GER
bernd-volkel	Bernd	Völkel	?
hagen-klein	Hagen	Klein	GER
a-berghammer	A.	Berghammer	AUT
manfred-herweh	Manfred	Herweh	GER
virginio-ferrari	Virginio	Ferrari	ITA
massimo-matteoni	Massimo	Matteoni	ITA
thomas-engl	Thomas	Engl	?
xavier-arumi	Xavier	Arumi	?
f-beck	F.	Beck	SWI
rene-delaby	Rene	Deláby	BEL
manfred-fischer	Manfred	Fischer	GER
andrie-nijenhuis	Andrie	Nijenhuis	NED
othmar-schuler	Othmar	Schuler	SWI
joaquim-gali	Joaquim	Gali	SPA
hakan-olsson	Hakan	Olsson	SWE
fabio-biliotti	Fabio	Biliotti	ITA
roger-burnett	Roger	Burnett	GBR
rob-orme	Rob	Orme	GBR
torbjorn-bastiansen	Torbjorn	Bastiansen	NOR
arpad-harmati	Arpad	Harmati	HUN
chris-baert	Chris	Baert	BEL
anton-mang	Anton	Mang	GER
seigo-kikuchi	Seigo	Kikuchi	JPN
youichi-yamamoto	Youichi	Yamamoto	JPN
keiji-tamura	Keiji	Tamura	JPN
donnie-mcleod	Donnie	Mcleod	GBR
hideshi-tomita	Hideshi	Tomita	JPN
jean-michel-mattioli	Jean Michel	Mattioli	FRA
urs-luzi	Urs	Lüzi	SWI
mike-baldwin	Mike	Baldwin	USA
randy-renfrow	Randy	Renfrow	USA
raymond-roche	Raymond	Roche	FRA
steve-manley	Steve	Manley	GBR
maarten-duyzers	Maarten	Duyzers	NED
thierry-rapicault	Thierry	Rapicault	FRA
guy-bertin	Guy	Bertin	FRA
joan-bolart	Joan	Bolart	ESP
claudio-macciotta	Claudio	Macciotta	ITA
karoly-juhasz	Károly	Juhász	HUN
jorge-cabanes	Jorge	Cabanes	SPA
siegfried-minich	Siegfried	Minich	AUT
pierpaolo-bianchi	Pierpaolo	Bianchi	ITA
jussi-hautaniemi	Jussi	Hautaniemi	FIN
esa-kytola	Esa	Kytölä	FIN
cyril-julian	Cyril	Julian	?
rudolf-kunz	Rudolf	Kunz	GER
ralf-hobl	Ralf	Hobl	?
salvatore-milano	Salvatore	Milano	ITA
wolfgang-von-muralt	Wolfgang	Von Muralt	SWI
hermann-holder	Hermann	Holder	GER
hans-lindner	Hans	Lindner	AUT
ivan-troisi	Ivan	Troisi	VEN
gustav-reiner	Gustav	Reiner	GER
norbert-peschke	Norbert	Peschke	GER
johan-ten-napel	Johan	Ten Napel	NED
gilles-riva	Gilles	Riva	FRA
lars-johansson	Lars	Johansson	SWE
fernando-gonzales-de-n	Fernando	Gonzales De N.	SPA
eduardo-aleman	Eduardo	Aleman	VEN
ricardo-blanco	Ricardo	Blanco	ARG
takumi-ito	Takumi	Ito	JPN
hiroyuki-kawasaki	Hiroyuki	Kawasaki	JPN
takayoshi-yamamoto	Takayoshi	Yamamoto	JPN
toshihiro-wakayama	Toshihiro	Wakayama	JPN
richard-scott	Richard	Scott	NZE
tony-carey	Tony	Carey	IRL
philippe-pagano	Philippe	Pagano	FRA
paul-lewis	Paul	Lewis	AUS
titer-balaz	Titer	Balaz	TCH
olivier-liegeois	Olivier	Liégeois	BEL
richard-bay	Richard	Bay	FRA
gerold-fisher	Gerold	Fisher	GER
konrad-hefele	Konrad	Hefele	GER
jean-louis-guignabodet	Jean Louis	Guignabodet	FRA
willy-perez	Willy	Perez	ARG
michael-gschwender	Michael	Gschwender	?
josef-hutter	Josef	Hutter	AUT
graham-singer	Graham	Singer	?
claudio-granata	Claudio	Granata	ITA
herve-guilleux	Herve	Guilleux	FRA
wilhelm-horhager	Wilhelm	Horhager	GER
theo-timmer	Theo	Timmer	NED
kenny-irons	Kenny	Irons	GBR
zdravko-leljak	Zdravko	Leljak	YUG
brane-rokavec	Brane	Rokavec	YUG
joey-dunlop	Joey	Dunlop	GBR
roger-marshall	Roger	Marshall	GBR
andy-machin	Andy	Machin	GBR
dennis-batchelor	Dennis	Batchelor	GBR
leandro-becheroni	Leandro	Becheroni	ITA
stefano-bianchi	Stefano	Bianchi	ITA
otto-machinek	Otto	Machinek	AUT
lionel-robert	Lionel	Robert	FRA
gerhardt-vogt	Gerhardt	Vogt	GER
horst-seel	Horst	Seel	GER
dave-petersen	Dave	Petersen	ZIM
henk-van-der-mark	Henk	Van Der Mark	NED
boet-van-dulmen	Boet	Van Dulmen	NED
pierre-bolle	Pierre	Bolle	FRA
antonio-boronat	Antonio	Boronat	SPA
roland-freymond	Roland	Freymond	SWI
angel-nieto	Angel	Nieto	SPA
domingo-gil	Domingo	Gil	SPA
juan-esteve	Juan	Esteve	SPA
ramon-gali	Ramon	Gali	SPA
rob-punt	Rob	Punt	NED
antonio-neto	Antonio	Neto	BRA
gerd-kafka	Gerd	Kafka	AUT
philippe-robinet	Philippe	Robinet	FRA
antonio-garcia	Antonio	Garcia	CUB
herbert-hauf	Herbert	Hauf	GER
ernst-himmelsbach	Ernst	Himmelsbach	GER
henk-van-kessel	Henk	Van Kessel	NED
felix-rodriguez	Felix	Rodriguez	SPA
mile-pajic	Mile	Pajic	NED
eero-hyvarinen	Eero	Hyvarinen	FIN
herbert-besendorfer	Herbert	Besendörfer	GER
thomas-bacher	Thomas	Bacher	AUT
eric-saul	Eric	Saul	FRA
jean-louis-tournadre	Jean Louis	Tournadre	FRA
masaru-mizutani	Masaru	Mizutani	JPN
gary-noel	Gary	Noel	GBR
gerard-van-der-wal	Gerard	Van Der Wal	NED
ton-spek	Ton	Spek	NED
mark-phillips	Mark	Phillips	GBR
georg-jung	Georg	Jung	GER
gary-lingham	Gary	Lingham	GBR
paul-ramon	Paul	Ramon	BEL
dave-griffith	Dave	Griffith	GBR
michel-simeon	Michel	Simeon	BEL
anton-straver	Anton	Straver	NED
willi-hupperich	Willi	Hupperich	GER
alain-kempener	Alain	Kempener	BEL
peter-sommer	Peter	Sommer	SWI
patrick-daudier	Patrick	Daudier	FRA
jan-eggens	Jan	Eggens	NED
christian-le-liard	Christian	Le Liard	FRA
dietmar-mayer	Dietmar	Mayer	GER
eric-gijsel	Eric	Gijsel	BEL
oscar-la-ferla	Oscar	La Ferla	ITA
thierry-espie	Thierry	Espié	FRA
franco-uncini	Franco	Uncini	ITA
massimo-messere	Massimo	Messere	ITA
keith-huewen	Keith	Huewen	GBR
paolo-ferretti	Paolo	Ferretti	ITA
mario-rademeyer	Mario	Rademeyer	RSA
patrick-fernandez	Patrick	Fernandez	FRA
dave-estment	Dave	Estment	RSA
antonio-perez	Antonio	Perez	SPA
niel-robinson	Niel	Robinson	GBR
armando-errico	Armando	Errico	ITA
takazumi-katayama	Takazumi	Katayama	JPN
michel-galbit	Michel	Galbit	FRA
paul-rimmelzwaan	Paul	Rimmelzwaan	NED
jean-marc-velay	Jean-Marc	Velay	FRA
bernd-rossbach	Bernd	Rossbach	GER
karl-grassel	Karl	Grässel	GER
reinhard-koberstein	Reinhard	Koberstein	GER
gabriel-grabia	Gabriel	Grabia	FRA
jacques-hutteau	Jacques	Hutteau	FRA
michel-escudier	Michel	Escudier	FRA
giuliano-tabanelli	Giuliano	Tabanelli	ITA
jamie-lodge	Jamie	Lodge	?
erich-klein	Erich	Klein	AUT
marco-lucchinelli	Marco	Lucchinelli	ITA
pierre-etienne-samin	Pierre-Etienne	Samin	FRA
cees-besseling	Cees	Besseling	NED
edwin-weibel	Edwin	Weibel	SWI
maurice-coq	maurice	Coq	FRA
jean-luc-guillemet	Jean-Luc	Guillemet	FRA
steve-parrish	Steve	Parrish	GBR
mark-salle	Mark	Salle	GBR
tony-head	Tony	Head	GBR
michael-mcgarrity	Michael	McGarrity	IRL
sid-mason	Sid	Mason	GBR
vincenzo-sblendorio	Vincenzo	Sblendorio	ITA
barry-sheene	Barry	Sheene	GBR
sergio-pellandini	Sergio	Pellandini	SWI
chris-guy	Chris	Guy	GBR
brett-hudson	Brett	Hudson	RSA
jacques-bolle	Jacques	Bolle	FRA
chas-mortimer	Chas	Mortimer	GBR
attilio-riondato	Attilio	Riondato	?
teruo-fukuda	Teruo	Fukuda	JPN
eugenio-lazzarini	Eugenio	Lazzarini	ITA
hans-muller	Hans	Müller	SWI
wim-heykamp	Wim	Heykamp	?
maurizio-stocco	Maurizio	Stocco	ITA
peter-sjostrom	Peter	Sjostrom	SWE
richard-hubin	Richard	Hubin	BEL
donnie-robinson	Donnie	Robinson	IRL
peter-looijensteijn	Peter	Looijensteijn	NED
lorenzo-ghiselli	Lorenzo	Ghiselli	ITA
frank-gross	Frank	Gross	FRA
henk-de-vries	Henk	De Vries	NED
borge-w-nielsen	Borge W.	Nielsen	DEN
willem-heykoop	Willem	Heykoop	NED
george-looijesteyn	George	Looijesteyn	NED
kasimer-rapczynski	Kasimer	Rapczynski	?
tony-rogers	Tony	Rogers	GBR
marc-schouten	Marc	Schouten	NED
mike-grant	Mike	Grant	GBR
andy-watts	Andy	Watts	GBR
graeme-mcgregor	Graeme	McGregor	AUS
hans-hummel	Hans	Hummel	AUT
anders-anderson	Anders	Anderson	SWE
marc-fontan	Marc	Fontan	FRA
maurizio-massimiani	Maurizio	Massimiani	ITA
jonnie-ekerold	Jonnie	Ekerold	RSA
alfons-ammerschlager	Alfons	Ammerschlager	GER
christian-estrosi	Christian	Estrosi	FRA
guido-paci	Guido	Paci	ITA
jack-middelburg	Jack	Middelburg	NED
philippe-coulon	Philippe	Coulon	SWI
stuart-avant	Stuart	Avant	NZE
jean-marc-toffolo	Jean Marc	Toffolo	BEL
ricardo-tormo	Ricardo	Tormo	SPA
thomas-pedersen	Thomas	Pedersen	DAN
jikka-jaakkola	Jikka	Jaakkola	FIN
pierluigi-aldrovandi	Pierluigi	Aldrovandi	ITA
patrick-lagrive	Patrick	Lagrive	FRA
ingo-emmerich	Ingo	Emmerich	GER
massimo-de-lorenzi	Massimo	De Lorenzi	ITA
andreas-hofmann	Andreas	Hofmann	GER
franz-kaserer	Franz	Kaserer	?
luigi-piccirillo	Luigi	Piccirillo	ITA
per-edward-carlsson	Per Edward	Carlsson	SWE
claudio-lusuardi	Claudio	Lusuardi	ITA
gianni-pelletier	Gianni	Pelletier	ITA
dennis-ireland	Dennis	Ireland	NZE
bruno-luscher	Bruno	Luscher	SWI
bernard-fau	Bernard	Fau	FRA
gerhard-bauer	Gerhard	Bauer	GER
alan-north	Alan	North	RSA
daniel-mateos	Daniel	Mateos	?
hugo-vignetti	Hugo	Vignetti	ARG
b-miklos	B.	Miklos	?
kevin-wrettom	Kevin	Wrettom	GBR
chris-fisher	Chris	Fisher	DAN
kork-ballington	Kork	Ballington	RSA
graziano-rossi	Graziano	Rossi	ITA
roberto-pietri	Roberto	Pietri	VEN
alejandro-aleman	Alejandro	Aleman	VEN
victorio-minguzzi	Victorio	Minguzzi	ARG
f-cerdera	F.	Cerdera	?
graeme-crosby	Graeme	Crosby	NZE
seppo-rossi	Seppo	Rossi	FIN
jeffrey-sayle	Jeffrey	Sayle	AUS
h-lichtenberg	H.	Lichtenberg	GER
michel-frutschi	Michel	Frutschi	SWI
r-cornelis	R.	Cornelis	NED
matti-kinnunen	Matti	Kinnunen	FIN
victor-palomo	Victor	Palomo	SPA
reinhard-scholtis	Reinhard	Scholtis	GER
rolf-blatter	Rolf	Blatter	SWI
pier-luigi-conforti	Pier Luigi	Conforti	ITA
d-priori	D.	Priori	?
r-eskelinen	R.	Eskelinen	FIN
a-gouin	A.	Gouin	FRA
r-ruosi	R.	Ruosi	ITA
pekka-nurmi	Pekka	Nurmi	FIN
steve-tonkin	Steve	Tonkin	GBR
r-schlachter	R.	Schlachter	USA
m-mordenti	M.	Mordenti	ITA
r-sibille	R.	Sibille	FRA
p-verbic	P.	Verbic	YUG
wil-hartog	Wil	Hartog	NED
greame-geddes	Greame	Geddes	AUS
edi-stoellinger	Edi	Stoellinger	AUT
sadao-asami	Sadao	Asami	JPN
gert-bender	Gert	Bender	GER
thierry-noblesse	Thierry	Noblesse	FRA
janos-drapal	Janos	Drapal	HUN
j-genoud	J.	Genoud	SWI
k-kull	K.	Kull	?
h-engelhardt	H.	Engelhardt	?
michel-rougerie	Michel	Rougerie	FRA
m-musco	M.	Musco	ITA
michele-ettore	Michele	Ettore	ITA
p-kambourian	P.	Kambourian	?
kimmo-kopra	Kimmo	Kopra	FIN
willem-zoet	Willem	Zoet	NED
sauro-pazzaglia	Sauro	Pazzaglia	ITA
y-dupont	Y.	Dupont	FRA
dave-potter	Dave	Potter	GBR
dick-alblas	Dick	Alblas	NED
greg-hansford	Greg	Hansford	AUS
b-elgh	B.	Elgh	SWE
cees-van-dongen	Cees van	Dongen	NED
charlie-williams	Charlie	Williams	GBR
jhonni-baeckstroem	Jhonni	Baeckstroem	SWE
johnny-cecotto	Johnny	Cecotto	VEN
carlo-perugini	Carlo	Perugini	ITA
gianfranco-bonera	Gianfranco	Bonera	ITA
walter-villa	Walter	Villa	ITA
enrico-cereda	Enrico	Cereda	ITA
aldo-pero	Aldo	Pero	ITA
gianpaolo-marchetti	Gianpaolo	Marchetti	ITA
barry-smith	Barry	Smith	AUS
wolfgang-muller	Wolfgang	Müller	?
patrick-pons	Patrick	Pons	FRA
clive-horton	Clive	Horton	GBR
harald-bartol	Harald	Bartol	AUT
lennart-backstrom	Lennart	Backstrom	SWE
p-herouard	P.	Herouard	?
john-newbold	John	Newbold	GBR
h-tomic	H.	Tomic	GER
s-janssen	S.	Janssen	GER
g-boehl	G.	Boehl	?
tom-herron	Tom	Herron	IRL
victor-soussan	Victor	Soussan	AUS
olivier-chevallier	Olivier	Chevallier	FRA
j-f-lecureux	J.F.	Lecureux	FRA
f-granon	F.	Granon	FRA
j-p-magnoni	J.P.	Magnoni	FRA
patrick-plisson	Patrick	Plisson	FRA
max-wiener	Max	Wiener	AUT
alex-george	Alex	George	GBR
gianni-rolando	Gianni	Rolando	ITA
walter-koschine	Walter	Koschine	GER
hans-otto-butenuth	Hans Otto	Butenuth	GER
y-matsumoto	Y.	Matsumoto	JPN
barry-ditchburn	Barry	Ditchburn	GBR
penti-korhonen	Penti	Korhonen	FIN
m-sayle	M.	Sayle	AUS
e-elias	E.	Elias	?
a-faccioli	A.	Faccioli	ITA
paolo-pileri	Paolo	Pileri	ITA
m-servadio	M.	Servadio	?
e-saffioti	E.	Saffioti	ITA
m-cortes	M.	Cortes	SPA
ikujiro-takai	Ikujiro	Takai	JPN
theo-van-geffen	Theo	Van Geffen	?
gerrit-strikker	Gerrit	Strikker	NED
kenny-blake	Kenny	Blake	AUS
jodef-hage	Jodef	Hage	GER
jacky-matagne	Jacky	Matagne	BEL
guy-cooremans	Guy	Cooremans	BEL
dieter-heinen	Dieter	Heinen	BEL
j-lazo	J.	Lazo	CUB
rinus-van-kasteren	Rinus	Van Kasteren	NED
m-van-soest	M.	Van Soest	NED
jan-huberts	Jan	Huberts	NED
r-reneir	R.	Reneir	BEL
r-oosting	R.	Oosting	?
john-woodley	John	Woodley	GBR
pat-hennen	Pat	Hennen	USA
steve-baker	Steve	Baker	USA
a-piccioni	A.	Piccioni	?
mario-lega	Mario	Lega	ITA
t-henter	T.	Henter	USA
victor-leon	Victor	Leon	VEN
ricardo-russo	Ricardo	Russo	ITA
luciano-schiavone	Luciano	Schiavone	ITA
tevo-lansivuori	Tevo	Lansivuori	FIN
ray-quincey	Ray	Quincey	AUS
felice-agostini	Felice	Agostini	ITA
daniel-corvi	Daniel	Corvi	?
j-mira	J.	Mira	?
jean-philippe-orban	Jean Philippe	Orban	BEL
julien-van-zeebroeck	Julien	Van Zeebroeck	BEL
a-jeva	A.	Jeva	?
s-monreale	S.	Monreale	?
c-dumont	C.	Dumont	?
jack-findlay	Jack	Findlay	AUS
peter-van-der-wal	Peter	Van Der Wal	NED
b-wilbers	B.	Wilbers	NED
leif-gustafsson	Leif	Gustafsson	SWE
clive-padgett	Clive	Padgett	GBR
jurgen-steiner	Jurgen	Steiner	GER
john-dodds	John	Dodds	AUS
steve-manship	Steve	Manship	GBR
john-williams	John	Williams	GBR
benny-janssen	Benny	Janssen	NED
giacomo-agostini	Giacomo	Agostini	ITA
p-mezerhane	P.	Mezerhane	?
c-bellon	C.	Bellon	?
r-tausani	R.	Tausani	?
aldo-nannini	Aldo	Nannini	VEN
m-corradini	M.	Corradini	COL
rino-pretelli	Rino	Pretelli	ITA
rafael-olavarria	Rafael	Olavarria	VEN
helmut-kassner	Helmut	Kassner	GER
franz-heller	Franz	Heller	GER
michael-schmid	Michael	Schmid	AUT
christian-parzer	Christian	Parzer	AUT
philip-bouzanne	Philip	Bouzanne	FRA
akihiko-kiyohara	Akihiko	Kiyohara	JPN
vinicio-salmi	Vinicio	Salmi	ITA
giuseppe-zigiotto	Giuseppe	Zigiotto	ITA
herbert-rittberger	Herbert	Rittberger	GER
engelbert-kip	Engelbert	Kip	?
armando-toracca	Armando	Toracca	ITA
d-boulom	D.	Boulom	?
vanes-francini	Vanes	Francini	ITA
paolo-cipriani	Paolo	Cipriani	ITA
ulrich-graf	Ulrich	Graf	SWI
e-mischiatti	E.	Mischiatti	ITA
masahiro-wada	Masahiro	Wada	JPN
ermanno-giuliano	Ermanno	Giuliano	ITA
lennart-lundgren	Lennart	Lundgren	SWE
juup-bosman	Juup	Bosman	NED
karl-auer	Karl	Auer	AUT
b-johansson	B.	Johansson	SWE
franz-rau	Franz	Rau	GER
steve-wright	Steve	Wright	GBR
derek-chatterton	Derek	Chatterton	GBR
eddie-roberts	Eddie	Roberts	GBR
alan-stewart	Alan	Stewart	?
dieter-braun	Dieter	Braun	GER
gerard-choukroun	Gerard	Choukroun	FRA
jean-claude-hogrel	Jean Claude	Hogrel	FRA
pierre-audry	Pierre	Audry	?
yves-le-tourmelin	Yves	Le Tourmelin	?
benjamin-laurent	Benjamin	Laurent	NZE
phil-read	Phil	Read	GBR
otello-buscherini	Otello	Buscherini	ITA
xaver-tschannen	Xaver	Tschannen	SWI
johann-zemsauer	Johann	Zemsauer	AUT
peter-frohnmeyer	Peter	Frohnmeyer	GER
werner-schmied	Werner	Schmied	AUT
marcel-ankone	Marcel	Ankone	NED
luigi-richetti	Luigi	Richetti	ITA
auno-hakala	Auno	Hakala	FIN
ian-richards	Ian	Richards	GBR
billie-guthrie	Billie	Guthrie	IRL
roger-nichols	Roger	Nichols	GBR
gordon-pantall	Gordon	Pantall	GBR
john-weeden	John	Weeden	GBR
bill-smith	Bill	Smith	GBR
tony-rutter	Tony	Rutter	GBR
martin-sharpe	Martin	Sharpe	?
niel-tuxworth	Niel	Tuxworth	GBR
s-mcclements	S.	McClements	?
dennis-casement	Dennis	Casement	GBR
rob-bron	Rob	Bron	NED
p-cecchini	P.	Cecchini	FRA
tapio-virtanen	Tapio	Virtanen	FIN
lennart-lindell	Lennart	Lindell	SWE
robert-laver	Robert	Laver	?
bernd-tungethal	Bernd	Tungethal	GER
edmar-ferreira	Edmar	Ferreira	BRA
christian-bourgeois	Christian	Bourgeois	FRA
g-schwemmer	G.	Schwemmer	GER
hans-hallberg	Hans	Hallberg	SWE
b-stopp	B.	Stopp	GER
hideo-kanaya	Hideo	Kanaya	JPN
pete-mckinley	Pete	McKinley	GBR
kjell-solberg	Kjell	Solberg	NOR
ch-huguet	CH	Huguet	?
kent-andersson	Kent	Andersson	SWE
maurice-maingret	Maurice	Maingret	FRA
v-novella	V.	Novella	ITA
horst-lahfeld	Horst	Lahfeld	GER
tierry-tchernine	Tierry	Tchernine	FRA
adu-celso-santos	Adu	Celso-Santos	BRA
hans-stadelmann	Hans	Stadelmann	SWI
stan-woods	Stan	Woods	GBR
christian-leon	Christian	Leon	FRA
les-kenny	Les	Kenny	GBR
r-thiele	R.	Thiele	GER
gerhard-thurow	Gerhard	Thurow	GER
jan-bruins	Jan	Bruins	NED
rudolph-keller	Rudolph	Keller	SWI
giovanni-proni	Giovanni	Proni	ITA
guido-mandracci	Guido	Mandracci	ITA
alberto-ieva	Alberto	Ieva	ITA
c-guerrini	C.	Guerrini	ITA
germano-zanetti	Germano	Zanetti	ITA
geoff-barry	Geoff	Barry	GBR
gerry-mateer	Gerry	Mateer	IRL
noel-clegg	Noel	Clegg	?
bill-henderson	Bill	Henderson	GBR
yvon-duhamel	Yvon	Duhamel	CAN
nico-van-der-zanden	Nico	Van Der Zanden	NED
jos-schurgers	Jos	Schurgers	NED
p-van-niel	P.	Van Niel	NED
francis-holleberg	Francis	Holleberg	BEL
m-arias	M.	Arias	CUB
n-polane	N.	Polane	?
penty-salonen	Penty	Salonen	FIN
j-svensson	J.	Svensson	SWE
steve-ellis	Steve	Ellis	GBR
thierry-van-der-veken	Thierry	Van Der Veken	BEL
johnny-bengtsson	Johnny	Bengtsson	SWE
bjorn-hasli	Bjorn	Hasli	NOR
seppo-kangasniemi	Seppo	Kangasniemi	FIN
k-gotesson	K.	Gotesson	?
hans-braumandl	Hans	Braumandl	AUT
anssi-resko	Anssi	Resko	FIN
zbynek-havrda	Zbynek	Havrda	TCH
billie-nelson	Billie	Nelson	GBR
r-jimenez	R.	Jimenez	FRA
philippe-gerard	Philippe	Gerard	FRA
g-debrok	G.	Debrok	?
benjamin-grau	Benjamin	Grau	SPA
etienne-delamarre	Etienne	Delamarre	FRA
wolfgang-gedlich	Wolfgang	Gedlich	?
edmund-czihak	Edmund	Czihak	GER
horst-kassner	Horst	Kassner	GER
walter-kaletsch	Walter	Kaletsch	GER
udo-kochanski	Udo	Kochanski	GER
w-stephan	W.	Stephan	?
franz-weidacher	Franz	Weidacher	?
alfred-heck	Alfred	Heck	GER
winfried-fries	Winfried	Fries	GER
wolfgang-rubel	Wolfgang	Rubel	GER
hans-dittberner	Hans	Dittberner	GER
karl-hoffmann	Karl	Hoffmann	GER
fritz-reitmaier	Fritz	Reitmaier	GER
janos-reisz	Janos	Reisz	HUN
h-kittler	H.	Kittler	GER
g-forderer	G.	Forderer	GER
rudolf-weiss	Rudolf	Weiss	AUT
geza-repitz	Geza	Repitz	HUN
p-ruttjeroth	P.	Rüttjeroth	GER
arnulf-teuchert	Arnulf	Teuchert	GER
k-gaber	K.	Gaber	JUG
j-kopitar	J.	Kopitar	JUG
w-golembeck	W.	Golembeck	?
peter-ruttjeroth	Peter	Ruttjeroth	?
paul-eickelberg	Paul	Eickelberg	GER
jean-paul-boinet	Jean Paul	Boinet	FRA
matti-salonen	Matti	Salonen	FIN
roberto-gallina	Roberto	Gallina	ITA
werner-giger	Werner	Giger	SWI
g-elementi	G.	Elementi	?
hans-muhlebach	Hans	Mühlebach	SWI
w-werner	W.	Werner	?
phil-carpenter	Phil	Carpenter	GBR
paul-cott	Paul	Cott	GBR
selwyn-griffiths	Selwyn	Griffiths	GBR
phil-gurner	Phil	Gurner	?
brian-warburton	Brian	Warburton	GBR
barry-randle	Barry	Randle	GBR
a-van-den-broecke	A.	Van Den Broecke	NED
a-valster	A.	Valster	NED
a-van-der-draay	A.	Van Der Draay	NED
t-kooyman	T.	Kooyman	NED
rolf-minhoff	Rolf	Minhoff	GER
roland-olsson	Roland	Olsson	SWE
b-rossel	B.	Rossel	?
jurgen-lenk	Jurgen	Lenk	GER
jarno-saarinen	Jarno	Saarinen	FIN
kim-newcombe	Kim	Newcombe	NZE
erick-offenstadt	Erick	Offenstadt	FRA
werner-pfirter	Werner	Pfirter	SWI
ivan-carlsson	Ivan	Carlsson	SWE
renzo-pasolini	Renzo	Pasolini	ITA
andre-luc-appietto	Andre Luc	Appietto	FRA
borje-jansson	Borje	Jansson	SWE
walter-winkler	Walter	Winkler	AUT
bo-granath	Bo	Granath	SWE
hans-maxwald	Hans	Maxwald	AUT
gyula-marsovszky	Gyula	Marsovszky	SWI
klaus-leonhardt	Klaus	Leonhardt	GER
ernst-hiller	Ernst	Hiller	GER
georg-pohlmann	Georg	Pohlmann	GER
reinhard-hiller	Reinhard	Hiller	GER
peter-stocksiefen	Peter	Stocksiefen	GER
sven-gunnarsson	Sven	Gunnarsson	SWE
h-konschok	H.	Konschok	?
silvio-grassetti	Silvio	Grassetti	ITA
lothar-mulbert	Lothar	Mülbert	GER
gerhard-schweikardt	Gerhard	Schweikardt	GER
j-roller	J.	Roller	?
r-bratenstein	R.	Bratenstein	?
jean-vivesse-bordons	Jean Vivesse	Bordons	SPA
peter-williams	Peter	Williams	GBR
charlie-sanby	Charlie	Sanby	GBR
dave-hughes	Dave	Hughes	GBR
graham-bailey	Graham	Bailey	GBR
k-huggett	K.	Huggett	?
tom-dickie	Tom	Dickie	GBR
bill-rae	Bill	Rae	GBR
tommy-robb	Tommy	Robb	IRL
jan-kostwinder	Jan	Kostwinder	NED
ivan-hodgkinson	Ivan	Hodgkinson	GBR
arnold-jones	Arnold	Jones	GBR
lindsay-porter	Lindsay	Porter	GBR
richard-stevens	Richard	Stevens	GBR
bob-ware	Bob	Ware	GBR
john-kiddie	John	Kiddie	GBR
derek-lee	Derek	Lee	GBR
jerome-van-halter	Jerome	Van Halter	NED
klaus-huber	Klaus	Huber	GER
luigi-rinaudo	Luigi	Rinaudo	ITA
gianni-ribuffo	Gianni	Ribuffo	ITA
jan-de-vries	Jan	De Vries	NED
l-persson	L.	Persson	SWE
adrijan-bernetic	Adrijan	Bernetic	?
ryszard-mankiewicz	Ryszard	Mankiewicz	POL
walter-rungg	Walter	Rüngg	SWI
piet-vd-goorbergh	Piet	Vd Goorbergh	NED
ramon-serrer	Ramon	Serrer	GER
lothar-john	Lothar	John	GER
benito-jull	Benito	Jull	CUB
bo-brolin	Bo	Brolin	SWE
ingermar-larssen	Ingermar	Larssen	SWE
roland-nilsson	Roland	Nilsson	SWE
steffan-liebst	Steffan	Liebst	SWE
leif-rosell	Leif	Rosell	SWE
andre-nuno	Andre	Nuno	?
alberto-pagani	Alberto	Pagani	ITA
dave-simmonds	Dave	Simmonds	GBR
ken-araoka	Ken	Araoka	JPN
walter-sommer	Walter	Sommer	GER
lazlo-szabo	Lazlo	Szabo	HUN
oronzo-memola	Oronzo	Memola	BEL
rodney-gould	Rodney	Gould	GBR
gilberto-parlotti	Gilberto	Parlotti	ITA
r-schuster	R.	Schuster	?
andre-pogolotti	Andre	Pogolotti	FRA
giampiero-zubani	Giampiero	Zubani	ITA
silvano-bertarelli	Silvano	Bertarelli	ITA
sergio-baroncini	Sergio	Baroncini	ITA
carlo-marelli	Carlo	Marelli	ITA
heinz-schmid	Heinz	Schmid	SWI
thomas-heuschkel	Thomas	Heuschkel	GER
bernd-kohlar	Bernd	Köhlar	GER
bruno-spaggiari	Bruno	Spaggiari	ITA
paul-smart	Paul	Smart	GBR
luigi-anelli	Luigi	Anelli	ITA
fosco-giansanti	Fosco	Giansanti	ITA
giovanni-buffarello	Giovanni	Buffarello	ITA
adriano-cocchi	Adriano	Cocchi	ITA
nigel-stone	Nigel	Stone	?
kevin-cowley	Kevin	Cowley	GBR
clive-brown	Clive	Brown	GBR
mick-chatterton	Mick	Chatterton	GBR
b-lee	B.	Lee	?
robert-hackett	Robert	Hackett	GBR
r-watts	R.	Watts	GBR
fred-launchbury	Fred	Launchbury	GBR
leigh-notman	Leigh	Notman	GBR
andy-morris	Andy	Morris	GBR
mike-evans	Mike	Evans	GBR
charlie-dobson	Charlie	Dobson	GBR
jerry-lancaster	Jerry	Lancaster	GBR
frantisek-srna	Frantisek	Srna	TCH
maurice-hawthorne	Maurice	Hawthorne	GBR
jean-campiche	Jean	Campiche	SWI
gunter-fischer	Gunter	Fischer	GER
bela-godany	Bela	Godany	HUN
v-haeltert	V.	Haeltert	?
a-bertholet	A.	Bertholet	?
p-seljak	P.	Seljak	?
h-kroismayr	H.	Kroismayr	AUT
steve-machin	Steve	Machin	GBR
bert-mijland	Bert	Mijland	NED
aalt-toersen	Aalt	Toersen	NED
t-daleman	T.	Daleman	?
ludwig-fassbender	Ludwig	Fassbender	?
sigfried-lohmann	Sigfried	Lohmann	GER
arpad-juhos	Arpad	Juhos	HUN
josef-ozelt	Josef	Ozelt	AUT
reiner-richter	Reiner	Richter	GER
harmunt-bischoff	Harmunt	Bischoff	GER
w-roesch	W.	Roesch	GER
l-uhlig	L.	Uhlig	?
e-borisenko	E.	Borisenko	RUS
g-weser	G.	Weser	?
paolo-isnardi	Paolo	Isnardi	ITA
aramir-brito	Aramir	Brito	CUB
ulf-nilsson	Ulf	Nilsson	SWE
ken-redfern	Ken	Redfern	?
remy-hirschy	Remy	Hirschy	SWI
j-pares-march	J.	Pares March	?
t-ramaker	T.	Ramaker	NED
getulio-marcasini	Getulio	Marcasini	ITA
horst-dzierzawa	Horst	Dzierzawa	GER
keith-turner	Keith	Turner	NZE
e-fagerer	E.	Fagerer	?
gunter-bartusch	Gunter	Bartusch	GER
friedhelm-kohlar	Friedhelm	Kohlar	GER
f-van-der-hoeven	F.	Van Der Hoeven	NED
m-kugler	M.	Kugler	?
ron-chandler	Ron	Chandler	GBR
k-bertsch	K.	Bertsch	GER
theo-bult	Theo	Bult	NED
leo-commu	Leo	Commu	NED
toni-gruber	Toni	Gruber	GER
frank-perris	Frank	Perris	GBR
roger-sutcliffe	Roger	Sutcliffe	GBR
tony-jefferies	Tony	Jefferies	GBR
peter-berwick	Peter	Berwick	GBR
alan-barnett	Alan	Barnett	GBR
peter-courtney	Peter	Courtney	GBR
carl-ward	Carl	Ward	GBR
fred-smart	Fred	Smart	GBR
james-pearson	James	Pearson	GBR
jim-curry	Jim	Curry	GBR
rob-noorlander	Rob	Noorlander	NED
martti-pesonen	Martti	Pesonen	FIN
godfrey-nash	Godfrey	Nash	GBR
hermann-meyer	Hermann	Meyer	?
hansrudolf-bruengger	Hansrudolf	Bruengger	SWI
kaarlo-koivuniemi	Kaarlo	Koivuniemi	FIN
pentti-lehtela	Pentti	Lehtela	FIN
franz-kroon	Franz	Kroon	?
g-hilbig	G.	Hilbig	?
p-muller	P.	Müller	?
morgan-radberg	Morgan	Radberg	SWE
h-gorgen	H.	Gorgen	?
percy-tait	Percy	Tait	GBR
dennis-gallagner	Dennis	Gallagner	?
w-mccosh	W.	McCosh	IRL
ray-mccullough	Ray	McCullough	IRL
giuseppe-mongardi	Giuseppe	Mongardi	ITA
giuseppe-consalvi	Giuseppe	Consalvi	ITA
peter-jones	Peter	Jones	GBR
emanuele-maugliani	Emanuele	Maugliani	ITA
giuseppe-mandolini	Giuseppe	Mandolini	ITA
l-habbiche	L.	Habbiche	?
francisco-gonzales	Francisco	Gonzales	SPA
karl-hoppe	Karl	Hoppe	GER
ginger-molloy	Ginger	Molloy	NZE
terry-dennehy	Terry	Dennehy	AUS
kel-carruthers	Kel	Carruthers	AUS
walter-scheimann	Walter	Scheimann	GER
hanz-rosenbusch	Hanz	Rosenbusch	GER
heinz-kriwanek	Heinz	Kriwanek	AUT
siegfried-moehringer	Siegfried	Moehringer	GER
herbert-mann	Herbert	Mann	GER
salvador-canellas	Salvador	Cañellas	SPA
m-bernsee	M.	Bernsee	?
angelo-bergamonti	Angelo	Bergamonti	ITA
brian-steenson	Brian	Steenson	IRL
christian-ravel	Christian	Ravel	FRA
santiago-herrero	Santiago	Herrero	SPA
pierre-viura	Pierre	Viura	FRA
jean-aureal	Jean	Aureal	FRA
martin-mijwaart	Martin	Mijwaart	NED
juan-bordons	Juan	Bordons	SPA
karel-bojer	Karel	Bojer	TCH
vasco-loro	Vasco	Loro	ITA
marty-lunde	Marty	Lunde	USA
gosta-jensen	Gosta	Jensen	DAN
brian-adams	Brian	Adams	GBR
vincent-duckett	Vincent	Duckett	GBR
steve-spencer	Steve	Spencer	GBR
malcolm-uphill	Malcolm	Uphill	GBR
ray-pickrell	Ray	Pickrell	?
r-duffty	R.	Duffty	?
j-t-findlay	J.T.	Findlay	GBR
a-j-smith	A.J.	Smith	GBR
w-a-smith	W.A.	Smith	GBR
steve-murray	Steve	Murray	GBR
r-dickinson	R.	Dickinson	GBR
keith-armstrong	Keith	Armstrong	GBR
cliff-carr	Cliff	Carr	?
aad-droog	Aad	Droog	NED
lewis-young	Lewis	Young	GBR
jean-louis-pasquier	Jean Louis	Pasquier	MON
andre-millard	André	Millard	?
f-ringhini	F.	Ringhini	?
martin-carney	Martin	Carney	GBR
jose-peon	Jose	Peon	CUB
roland-rentzsch	Roland	Rentzsch	GER
ingo-koeppe	Ingo	Koeppe	GER
bob-coulter	Bob	Coulter	IRL
adolf-ohligschlaeger	Adolf	Ohligschlaeger	GER
hans-bischoff	Hans	Bischoff	GER
mikko-hamunen	Mikko	Hamunen	FIN
theo-lowes	Theo	Lowes	?
c-geary	C.	Geary	?
c-m-walpole	C.M.	Walpole	?
r-simpson	R.	Simpson	?
d-clancy	D.	Clancy	?
giovanni-perrone	Giovanni	Perrone	ITA
paolo-campanelli	Paolo	Campanelli	ITA
giuseppe-visenzi	Giuseppe	Visenzi	ITA
e-holzeis	E.	Holzeis	?
b-cretti	B.	Cretti	ITA
m-cannizzaro	M.	Cannizzaro	ITA
gordon-keith	Gordon	Keith	RHO
jose-medrano	Jose	Medrano	SPA
gilbert-argo	Gilbert	Argo	SWI
herbert-denzler	Herbert	Denzler	SWI
heinz-rosner	Heinz	Rosner	GER
enrique-escuder	Enrique	Escuder	SPA
bruno-veigel	Bruno	Veigel	SWI
pertti-leinonen	Pertti	Leinonen	FIN
g-lombardi	G.	Lombardi	?
j-unterladstatter	J.	Unterladstatter	?
rob-fitton	Rob	Fitton	GBR
gilberto-milani	Gilberto	Milani	ITA
bill-ivy	Bill	Ivy	GBR
franta-stastny	Franta	Stastny	TCH
wolfgang-reinhard	Wolfgang	Reinhard	?
j-stefe	J.	Stefe	?
rudolf-schmalzle	Rudolf	Schmalzle	?
albergian-louwes	Albergian	Louwes	NED
dan-shorey	Dan	Shorey	GBR
jacques-roca	Jacques	Roca	FRA
jean-francois-chaffin	Jean Francois	Chaffin	FRA
daniel-crivello	Daniel	Crivello	IRL
paul-lodewijkx	Paul	Lodewijkx	NED
c-dubols	C.	Dubols	?
derek-woodman	Derek	Woodman	GBR
steve-jolly	Steve	Jolly	GBR
peter-darvill	Peter	Darvill	GBR
terry-grotefeld	Terry	Grotefeld	?
m-hatherill	M.	Hatherill	?
r-a-graham	R.A.	Graham	?
frank-whiteway	Frank	Whiteway	GBR
john-shacklady	John	Shacklady	GBR
charlie-garner	Charlie	Garner	GBR
tom-loughridge	Tom	Loughridge	GBR
john-ringwood	John	Ringwood	GBR
l-van-rijswijk	L.	Van Rijswijk	NED
eric-hinton	Eric	Hinton	AUS
werner-bergold	Werner	Bergold	AUT
j-o-brien	J.	O'Brien	GBR
jack-linah	Jack	Linah	SWE
p-kiisa	P.	Kiisa	RUS
carlos-giro	Carlos	Giro	SPA
bernard-mahler	Bernard	Mahler	GER
o-hansen	O.	Hansen	SWE
wolfgang-stropek	Wolfgang	Stropek	AUT
i-sauter	I.	Sauter	?
barry-scully	Barry	Scully	GBR
a-t-lawton	A.T.	Lawton	GBR
c-crawford	C.	Crawford	?
dave-degens	Dave	Degens	?
dick-pipes	Dick	Pipes	GBR
steve-aspin	Steve	Aspin	?
l-lawlor	L.	Lawlor	?
fred-redfern	Fred	Redfern	?
a-lawn	A.	Lawn	?
j-d-lawley	J.D.	Lawley	?
gary-dickinson	Gary	Dickinson	GBR
francesco-villa	Francesco	Villa	ITA
franco-trabalzini	Franco	Trabalzini	ITA
ross-hannan	Ross	Hannan	AUS
a-kralj	A.	Kralj	?
hans-georg-anscheidt	Hans-Georg	Anscheidt	GER
s-j-florjan	S.J.	Florjan	?
rex-butcher	Rex	Butcher	GBR
carlos-rocamora	Carlos	Rocamora	SPA
pedro-alvarez	Pedro	Alvarez	SPA
f-cufi	F.	Cufi	?
brian-ball	Brian	Ball	GBR
bernard-lund	Bernard	Lund	GBR
john-cooper	John	Cooper	GBR
e-l-griffith	E.L.	Griffith	?
d-lock	D.	Lock	?
jim-pink	Jim	Pink	?
r-m-udall	R.M.	Udall	?
nikolaj-sevastyanov	Nikolaj	Sevastyanov	RUS
john-hartle	John	Hartle	GBR
eriff-jenkins	Eriff	Jenkins	GBR
mike-hailwood	Mike	Hailwood	GBR
ralph-bryans	Ralph	Bryans	IRL
rolf-schmid	Rolf	Schmid	GER
yoshimi-katayama	Yoshimi	Katayama	JPN
josep-maria-busquets	Josep Maria	Busquets	SPA
rudolf-schmalze	Rudolf	Schmälze	?
fred-stevens	Fred	Stevens	GBR
chris-conn	Chris	Conn	GBR
stuart-graham	Stuart	Graham	GBR
akihiko-motohashi	Akihiko	Motohashi	JPN
roy-boughey	Roy	Boughey	GBR
john-lawley	John	Lawley	?
rex-avery	Rex	Avery	GBR
derek-minter	Derek	Minter	GBR
klaus-enderlein	Klaus	Enderlein	GER
gustav-havel	Gustav	Havel	TCH
malcom-stanton	Malcom	Stanton	AUS
john-blanchard	John	Blanchard	GBR
ian-mcgregor	Ian	McGregor	?
kevin-cass	Kevin	Cass	AUS
giovanni-burlando	Giovanni	Burlando	ITA
mike-duff	Mike	Duff	CAN
d-lloyd	D.	Lloyd	CAN
andrea-georgeades	Andrea	Georgeades	CAN
george-rockett	George	Rockett	USA
f-camillieri	F.	Camillieri	USA
ron-grant	Ron	Grant	USA
m-coopey	M.	Coopey	CAN
robert-lusk	Robert	Lusk	USA
jean-guy-duval	Jean Guy	Duval	CAN
ralf-swegan	Ralf	Swegan	USA
robert-messina	Robert	Messina	USA
john-allen	John	Allen	AUS
jim-redman	Jim	Redman	RHO
edy-lenz	Edy	Lenz	AUT
tarquinio-provini	Tarquinio	Provini	ITA
bruce-beale	Bruce	Beale	RHO
franziseh-bocek	Franziseh	Bocek	TCH
gunter-beer	Günter	Beer	GER
luigi-taveri	Luigi	Taveri	SWI
arthur-fegbli	Arthur	Fegbli	SWI
hugh-anderson	Hugh	Anderson	NZE
oswald-dittrich	Oswald	Dittrich	?
charlie-mates	Charlie	Mates	?
bob-anderson	Bob	Anderson	GBR
isao-morishita	Isao	Morishita	JPN
jack-ahearn	Jack	Ahearn	AUS
jeff-mawby	Jeff	Mawby	GBR
joe-dunphy	Joe	Dunphy	GBR
leonard-atlee	Leonard	Atlee	AUS
p-g-inchley	P.G.	Inchley	GBR
l-roth	L.	Roth	?
buddy-parriott	Buddy	Parriott	USA
ray-beaumont	Ray	Beaumont	CAN
ken-king	Ken	King	CAN
ed-labelle	Ed	Labelle	USA
d-loyd	D.	Loyd	CAN
john-buckner	John	Buckner	USA
ernst-degner	Ernst	Degner	GER
rick-schell	Rick	Schell	USA
joe-tate	Joe	Tate	USA
bob-gehring	Bob	Gehring	USA
michio-ichino	Michio	Ichino	JPN
haruo-koshino	Haruo	Koshino	JPN
gaston-biscia	Gaston	Biscia	?
paddy-driver	Paddy	Driver	RSA
ramon-torras	Ramon	Torras	SPA
peter-eser	Peter	Eser	GER
mitsuo-itoh	Mitsuo	Itoh	JPN
iean-noel-burne	Iean Noel	Burne	RSA
don-williams	Don	Williams	GBR
kevin-webster	Kevin	Webster	GBR
ian-plumridge	Ian	Plumridge	?
les-griffiths	Les	Griffiths	?
joachim-leitert	Joachim	Leitert	GER
richard-thomas	Richard	Thomas	GER
r-creith	R.	Creith	IRL
jouko-ryhanen	Jouko	Ryhanen	FIN
h-karlsson	H.	Karlsson	SWE
remo-venturi	Remo	Venturi	ITA
alan-shepherd	Alan	Shepherd	GBR
floyd-brown	Floyd	Brown	USA
bert-schneider	Bert	Schneider	AUT
jean-pierre-beltoise	Jean Pierre	Beltoise	FRA
lee-allen	Lee	Allen	?
stanislav-malina	Stanislav	Malina	TCH
clive-hunt	Clive	Hunt	GBR
roland-foll	Roland	Föll	GER
chris-vincent	Chris	Vincent	GBR
naomi-taniguchi	Naomi	Taniguchi	JPN
isamu-kasuya	Isamu	Kasuya	JPN
morry-low	Morry	Low	NZE
vernon-cottle	Vernon	Cottle	GBR
albert-beirle	Albert	Beirle	GER
wolfgang-gast	Wolfgang	Gast	GER
ulf-svensson	Ulf	Svensson	SWE
dieter-krumpholz	Dieter	Krumpholz	GER
benedicto-caldarella	Benedicto	Caldarella	ARG
sid-mizen	Sid	Mizen	GBR
fumio-ito	Fumio	Ito	JPN
horoshi-hasegawa	Horoshi	Hasegawa	JPN
john-kidson	John	Kidson	GBR
kuninitsu-takahashi	Kuninitsu	Takahashi	JPN
yoshikazu-sunako	Yoshikazu	Sunako	JPN
cas-swart	Cas	Swart	NED
len-ireland	Len	Ireland	?
chris-anderson	Chris	Anderson	GBR
werner-musiol	Werner	Musiol	GER
william-a-smith	William-A	Smith	GBR
ladi-richter	Ladi	Richter	AUT
pavel-stavicek	Pavel	Stavicek	TCH
johnny-grace	Johnny	Grace	GIB
jorge-kissling	Jorge	Kissling	ARG
f-villavelran	F.	Villavelran	ARG
j-acosta	J.	Acosta	URU
umberto-massetti	Umberto	Massetti	ARG
raoul-kissling	Raoul	Kissling	ARG
ivan-schuman	Ivan	Schuman	GUA
carlo-marfetan	Carlo	Marfetan	URU
hugo-pochettino	Hugo	Pochettino	ARG
alberto-gomez	Alberto	Gomez	ARG
eduardo-salatino	Eduardo	Salatino	ARG
horacio-maffia	Horacio	Maffia	ARG
karaber-samardjian	Karaber	Samardjian	?
gary-hocking	Gary	Hocking	RHO
ellis-boyce	Ellis	Boyce	GBR
richard-ingram	Richard	Ingram	GBR
brian-setchell	Brian	Setchell	GBR
tom-phillis	Tom	Phillis	AUS
arthur-wheeler	Arthur	Wheeler	GBR
bob-mcintyre	Bob	McIntyre	GBR
moto-kitano	Moto	Kitano	JPN
shimazaki-sadao	Shimazaki	Sadao	JPN
tony-godfrey	Tony	Godfrey	GBR
seichi-suzuki	Seichi	Suzuki	JPN
pierre-vervroegen	Pierre	Vervroegen	BEL
ron-langston	Ron	Langston	GBR
ray-spence	Ray	Spence	GBR
campbell-donaghy	Campbell	Donaghy	IRL
kenjiro-tanaka	Kenjiro	Tanaka	JPN
hans-fischer	Hans	Fischer	GER
t-lego	T.	Lego	?
jukka-petaja	Jukka	Petaja	FIN
juan-salatino	Juan	Salatino	ARG
paolo-gamberini	Paolo	Gamberini	ARG
s-pomesano	S.	Pomesano	ARG
f-soler	F.	Soler	ARG
rudolph-kaiser	Rudolph	Kaiser	ARG
jorge-terengo	Jorge	Terengo	ARG
m-dietrich	M.	Dietrich	ARG
limberg-moreira	Limberg	Moreira	URU
marzilio-chizzini	Marzilio	Chizzini	ARG
pedro-rosenthal	Pedro	Rosenthal	ARG
hans-gunter-jaeger	Hans Gunter	Jaeger	GER
john-lothar	John	Lothar	GER
rudolf-thalhammer	Rudolf	Thalhammer	AUT
ralph-rensen	Ralph	Rensen	GBR
walter-brehme	Walter	Brehme	GER
antonie-paba	Antonie	Paba	FRA
fritz-messerli	Fritz	Messerli	SWI
alistair-king	Alistair	King	GBR
sadao-shimazaki	Sadao	Shimazaki	JPN
ron-miles	Ron	Miles	AUS
trevor-farnsworth	Trevor	Farnsworth	NZE
ernesto-brambilla	Ernesto	Brambilla	ITA
peter-chatterton	Peter	Chatterton	GBR
tom-thorp	Tom	Thorp	IRL
peter-pawson	Peter	Pawson	NZE
s-perkins	S.	Perkins	RSA
g-costa	G.	Costa	URU
john-surtees	John	Surtees	GBR
bob-brown	Bob	Brown	AUS
dickie-dale	Dickie	Dale	GBR
carlo-ubbiali	Carlo	Ubbiali	ITA
giichi-suzuki	Giichi	Suzuki	JPN
john-hempleman	John	Hempleman	NZE
emilio-mendogni	Emilio	Mendogni	ITA
alberto-gandossi	Alberto	Gandossi	ITA
rudolf-glaeser	Rudolf	Glaeser	GER
j-sato	J.	Sato	JPN
terry-shepherd	Terry	Shepherd	GBR
d-t-powell	D.T.	Powell	GBR
geoff-duke	Geoff	Duke	GBR
dave-chadwick	Dave	Chadwick	GBR
horst-fugner	Horst	Fügner	GER
ken-kavanagh	Ken	Kavanagh	AUS
a-huber	A.	Huber	GER
libero-liberati	Libero	Liberati	ITA
karl-kronmueller	Karl	Kronmueller	GER
phil-carter	Phil	Carter	IRL
j-d-anderson	J.D.	Anderson	NZE
geoffrey-tanner	Geoffrey	Tanner	GBR
g-a-catlin	G.A.	Catlin	GBR
dieter-falk	Dieter	Falk	GER
sammy-miller	Sammy	Miller	IRL
romolo-ferri	Romolo	Ferri	ITA
keith-campbell	Keith	Campbell	AUS
xaver-heiss	Xaver	Heiss	GER
walter-reichert	Walter	Reichert	GER
alan-trow	Alan	Trow	GBR
geoff-monty	Geoff	Monty	GBR
mike-o-rourke	Mike	O'Rourke	IRL
josef-autengruber	Josef	Autengruber	AUT
wilhem-lecke	Wilhem	Lecke	GER
umberto-masetti	Umberto	Masetti	ITA
carlos-bandirola	Carlos	Bandirola	ITA
a-vezzalini	A.	Vezzalini	ITA
walter-zeller	Walter	Zeller	GER
helmut-hallmeier	Helmut	Hallmeier	GER
alano-montanari	Alano	Montanari	ITA
r-thomson	R.	Thomson	AUT
roberto-colombo	Roberto	Colombo	ITA
cecyl-sandford	Cecyl	Sandford	GBR
enrico-lorenzetti	Enrico	Lorenzetti	ITA
george-murphy	George	Murphy	NZE
franzisen-bartos	Franzisen	Bartos	TCH
jack-brett	Jack	Brett	GBR
keith-bryen	Keith	Bryen	AUS
fortunato-libanori	Fortunato	Libanori	ITA
giuseppe-colnago	Giuseppe	Colnago	ITA
brian-purslow	Brian	Purslow	GBR
g-andrews	G.	Andrews	GBR
neil-hodgson-hodgins	Neil Hodgson	Hodgins	GBR
bill-webster	Bill	Webster	GBR
alfredo-milani	Alfredo	Milani	ITA
adelmo-mandolini	Adelmo	Mandolini	ITA
bill-lomas	Bill	Lomas	GBR
derek-ennett	Derek	Ennett	GBR
eddie-grant	Eddie	Grant	RSA
hans-baltisberger	Hans	Baltisberger	GER
marcello-cama	Marcello	Cama	SPA
vaclav-parus	Vaclav	Parus	TCH
p-b-fahey	P.B.	Fahey	NZE
august-hobl	August	Hobl	GER
jiri-kostir	Jiri	Kostir	TCH
auguste-goffin	Auguste	Goffin	BEL
hans-bartl	Hans	Bartl	NED
kees-koster	Kees	Koster	NED
lo-simons	Lo	Simons	NED
jean-pierre-bayle	Jean Pierre	Bayle	FRA
bob-matthews	Bob	Matthews	IRL
roland-heck	Roland	Heck	GER
r-w-herron	R.W.	Herron	GBR
rod-coleman	Rod	Coleman	NZE
w-maddrick	W.	Maddrick	GBR
maurice-bula	Maurice	Bula	SWI
e-cope	E.	Cope	IRL
reg-armstrong	Reg	Armstrong	IRL
renato-sartori	Renato	Sartori	ITA
sandro-artusi	Sandro	Artusi	ITA
orlando-valdinoci	Orlando	Valdinoci	ITA
nello-pagani	Nello	Pagani	ITA
tino-forconi	Tino	Forconi	ITA
giuseppe-lattanzi	Giuseppe	Lattanzi	ITA
angelo-copeta	Angelo	Copeta	ITA
jaques-collot	Jaques	Collot	ITA
firmin-dauwe	Firmin	Dauwe	BEL
duilio-agostini	Duilio	Agostini	ITA
maurice-quincey	Maurice	Quincey	AUS
ricky-porter	Ricky	Porter	NZE
karl-lottes	Karl	Lottes	GER
k-pertrusche	K.	Pertrusche	GER
erhart-krumpholz	Erhart	Krumpholz	GER
leon-martin	Leon	Martin	BEL
john-storr	John	Storr	GBR
dreikus-veer	Dreikus	Veer	NED
hermann-paul-muller	Hermann Paul	Müller	GER
rudolf-grimas	Rudolf	Grimas	AUT
willi-scheidhauer	Willi	Scheidhauer	GER
eric-wunsche	Eric	Wünsche	GER
john-clark	John	Clark	GBR
ernst-riedelbauch	Ernst	Riedelbauch	GER
g-julian	G.	Julian	GBR
werner-haas	Werner	Haas	GER
rupert-hollaus	Rupert	Hollaus	AUT
tommy-wood	Tommy	Wood	GBR
lanfranco-baviera	Lanfranco	Baviera	ITA
ray-amm	Ray	Amm	RHO
rudy-allison	Rudy	Allison	RSA
derek-farrant	Derek	Farrant	GBR
l-t-simpson	L.T.	Simpson	NZE
peter-davey	Peter	Davey	GBR
fergus-anderson	Fergus	Anderson	GBR
j-lloyd	J.	Lloyd	GBR
fron-purslow	Fron	Purslow	GBR
sigfried-wunsche	Sigfried	Wünsche	GER
georg-braun	Georg	Braun	GER
walter-vogel	Walter	Vogel	GER
kurt-knopf	Kurt	Knopf	GER
angelo-marelli	Angelo	Marelli	ITA
guido-sala	Guido	Sala	ITA
massimo-genevini	Massimo	Genevini	ITA
franco-bertoni	Franco	Bertoni	ITA
antonio-elizalde	Antonio	Elizalde	SPA
juan-bertran	Juan	Bertran	SPA
c-paragues	C.	Paragues	SPA
v-corsin	V.	Corsin	SPA
s-a-willis	S.A.	Willis	AUS
leslie-graham	Leslie	Graham	GBR
a-w-jones	A.W.	Jones	GBR
ernie-ring	Ernie	Ring	AUT
luigi-zinzani	Luigi	Zinzani	ITA
j-albisser	J.	Albisser	SWI
ken-mudford	Ken	Mudford	NZE
h-a-pearce	H.A.	Pearce	GBR
roberto-teneggi	Roberto	Teneggi	ITA
ken-harwood	Ken	Harwood	GBR
otto-daiker	Otto	Daiker	GER
a-mcalpine	A.	McAlpine	AUT
wolfgang-brandt	Wolfgang	Brandt	GER
sid-lawton	Sid	Lawton	GBR
nino-grieco	Nino	Grieco	ITA
cromie-mccandless	Cromie	McCandless	IRL
george-brown	George	Brown	GBR
maurice-cann	Maurice	Cann	GBR
bruno-ruffo	Bruno	Ruffo	ITA
a-parry	A.	Parry	GBR
frank-burman	Frank	Burman	GBR
sijbren-postma	Sijbren	Postma	NED
ewald-kluge	Ewald	Kluge	GER
roland-felgenheier	Roland	Felgenheier	GER
hans-thorn-prikker	Hans	Thorn-Prikker	GER
herman-gablenz	Herman	Gablenz	GER
hubert-luttenberg	Hubert	Luttenberg	GER
ronald-mead	Ronald	Mead	GBR
beny-rood	Beny	Rood	GBR
ray-petty	Ray	Petty	GBR
charlie-salt	Charlie	Salt	GBR
robin-sherry	Robin	Sherry	GBR
bruno-francisci	Bruno	Francisci	ITA
arciso-artesiani	Arciso	Artesiani	ITA
roger-montane	Roger	Montane	SPA
w-petch	W.	Petch	GBR
f-aranda	F.	Aranda	SPA
j-raffeld	J.	Raffeld	BEL
guido-leoni	Guido	Leoni	ITA
vincenzo-zanzi	Vincenzo	Zanzi	ITA
raffaele-alberti	Raffaele	Alberti	ITA
j-bulto	J.	Bultó	SPA
benoit-musy	Benoit	Musy	SWI
willy-lips	Willy	Lips	SWI
p-fuhrer	P.	Fuhrer	SWI
l-fassl	L.	Fassl	AUT
dario-ambrosini	Dario	Ambrosini	ITA
gianni-leoni	Gianni	Leoni	ITA
phillip-mccallen	Phillip	McCallen	GBR
manliefe-barrington	Manliefe	Barrington	IRL
john-lockett	John	Lockett	GBR
mick-featherstone	Mick	Featherstone	GBR
bob-foster	Bob	Foster	GBR
juan-llobet	Juan	Llobet	SPA
v-perry	V.	Perry	NZE
simon-sandys-winsch	Simon	Sandys-Winsch	GBR
werner-gerber	Werner	Gerber	SWI
guido-paciocca	Guido	Paciocca	ITA
otello-spadoni	Otello	Spadoni	ITA
giuseppe-matucci	Giuseppe	Matucci	ITA
artie-bell	Artie	Bell	IRL
harold-daniell	Harold	Daniell	GBR
e-frend	E.	Frend	GBR
roland-pike	Roland	Pike	GBR
len-bayliss	Len	Bayliss	GBR
harry-hinton	Harry	Hinton	AUS
eric-mcpherson	Eric	McPherson	AUS
sid-jensen	Sid	Jensen	NZE
umberto-braga	Umberto	Braga	ITA
felice-benasedo	Felice	Benasedo	ITA
gijs-lagervey	Gijs	Lagervey	NED
claudio-belotti	Claudio	Belotti	SWI
onorato-francone	Onorato	Francone	ITA
jock-west	Jock	West	GBR
wilf-billington	Wilf	Billington	IRL
a-burton	A.	Burton	GBR
claudio-mastellari	Claudio	Mastellari	ITA
umberto-plebani	Umberto	Plebani	ITA
emilio-soprani	Emilio	Soprani	ITA
ernie-lyons	Ernie	Lyons	IRL
freddie-frith	Freddie	Frith	GBR
s-a-srensen	S.A.	Sørensen	DAN
renato-magi	Renato	Magi	ITA
celeste-cavaciuti	Celeste	Cavaciuti	ITA
david-whitworth	David	Whitworth	GBR
oscar-clemencigh	Oscar	Clemencigh	ITA
f-fry	F.	Fry	GBR
g-a-reeve	G.A.	Reeve	GBR
douglas-beasley	Douglas	Beasley	GBR
bruno-bertacchini	Bruno	Bertacchini	ITA
